,glucose,timestamp,id,date,time,carbs,fat,fiber,protein,calories,mealSize,mealType,slope,mealTime,initialGlucose,peakGlucose,peakTime,cycleDuration,init_time,day
0,386,1555995360.0,,,,,,,,,,,,,,,,,,
1,368,1555996260.0,,,,,,,,,,,,,,,,,,
2,349,1555997160.0,,,,,,,,,,,,,,,,,,
3,334,1555998060.0,,,,,,,,,,,,,,,,,,
4,322,1555998960.0,,,,,,,,,,,,,,,,,,
5,307,1555999860.0,,,,,,,,,,,,,,,,,,
6,289,1556000760.0,,,,,,,,,,,,,,,,,,
7,264,1556001660.0,,,,,,,,,,,,,,,,,,
8,250,1556002560.0,,,,,,,,,,,,,,,,,,
9,244,1556003460.0,,,,,,,,,,,,,,,,,,
10,228,1556004360.0,,,,,,,,,,,,,,,,,,
11,217,1556005260.0,,,,,,,,,,,,,,,,,,
12,228,1556006160.0,,,,,,,,,,,,,,,,,,
13,239,1556007060.0,,,,,,,,,,,,,,,,,,
14,228,1556007960.0,,,,,,,,,,,,,,,,,,
15,238,1556008860.0,,,,,,,,,,,,,,,,,,
16,249,1556009760.0,,,,,,,,,,,,,,,,,,
17,228,1556010660.0,,,,,,,,,,,,,,,,,,
18,220,1556011560.0,,,,,,,,,,,,,,,,,,
19,241,1556012460.0,,,,,,,,,,,,,,,,,,
20,257,1556013360.0,,,,,,,,,,,,,,,,,,
21,262,1556014260.0,,,,,,,,,,,,,,,,,,
22,254,1556015160.0,,,,,,,,,,,,,,,,,,
23,252,1556016060.0,,,,,,,,,,,,,,,,,,
24,250,1556016960.0,,,,,,,,,,,,,,,,,,
25,256,1556017860.0,,,,,,,,,,,,,,,,,,
26,265,1556018760.0,,,,,,,,,,,,,,,,,,
27,266,1556019660.0,,,,,,,,,,,,,,,,,,
28,285,1556020560.0,,,,,,,,,,,,,,,,,,
29,295,1556021460.0,,,,,,,,,,,,,,,,,,
30,285,1556022360.0,,,,,,,,,,,,,,,,,,
31,283,1556023260.0,,,,,,,,,,,,,,,,,,
32,289,1556024160.0,,,,,,,,,,,,,,,,,,
33,285,1556025060.0,,,,,,,,,,,,,,,,,,
34,269,1556025960.0,,,,,,,,,,,,,,,,,,
35,262,1556026860.0,,,,,,,,,,,,,,,,,,
36,253,1556027760.0,,,,,,,,,,,,,,,,,,
37,240,1556028660.0,,,,,,,,,,,,,,,,,,
38,235,1556029560.0,,,,,,,,,,,,,,,,,,
39,238,1556030460.0,,,,,,,,,,,,,,,,,,
40,248,1556031360.0,,,,,,,,,,,,,,,,,,
41,268,1556032260.0,,,,,,,,,,,,,,,,,,
42,295,1556033160.0,,,,,,,,,,,,,,,,,,
43,321,1556034060.0,,,,,,,,,,,,,,,,,,
44,333,1556034960.0,,,,,,,,,,,,,,,,,,
45,336,1556035860.0,,,,,,,,,,,,,,,,,,
46,335,1556036760.0,,,,,,,,,,,,,,,,,,
47,319,1556037660.0,,,,,,,,,,,,,,,,,,
48,303,1556038560.0,,,,,,,,,,,,,,,,,,
49,290,1556039460.0,,,,,,,,,,,,,,,,,,
50,270,1556040360.0,,,,,,,,,,,,,,,,,,
51,253,1556041260.0,,,,,,,,,,,,,,,,,,
52,245,1556042160.0,,,,,,,,,,,,,,,,,,
53,241,1556043060.0,,,,,,,,,,,,,,,,,,
54,244,1556043960.0,,,,,,,,,,,,,,,,,,
55,244,1556044860.0,,,,,,,,,,,,,,,,,,
56,230,1556045760.0,,,,,,,,,,,,,,,,,,
57,217,1556046660.0,,,,,,,,,,,,,,,,,,
58,216,1556047560.0,,,,,,,,,,,,,,,,,,
59,213,1556048460.0,,,,,,,,,,,,,,,,,,
60,206,1556049360.0,,,,,,,,,,,,,,,,,,
61,201,1556050260.0,,,,,,,,,,,,,,,,,,
62,195,1556051160.0,,,,,,,,,,,,,,,,,,
63,189,1556052060.0,,,,,,,,,,,,,,,,,,
64,189,1556052960.0,,,,,,,,,,,,,,,,,,
65,190,1556053860.0,,,,,,,,,,,,,,,,,,
66,184,1556054760.0,,,,,,,,,,,,,,,,,,
67,179,1556055660.0,,,,,,,,,,,,,,,,,,
68,179,1556056560.0,,,,,,,,,,,,,,,,,,
69,179,1556057460.0,,,,,,,,,,,,,,,,,,
70,174,1556058360.0,,,,,,,,,,,,,,,,,,
71,171,1556059260.0,,,,,,,,,,,,,,,,,,
72,170,1556060160.0,,,,,,,,,,,,,,,,,,
73,169,1556061060.0,,,,,,,,,,,,,,,,,,
74,169,1556061960.0,,,,,,,,,,,,,,,,,,
75,169,1556062860.0,,,,,,,,,,,,,,,,,,
76,169,1556063760.0,,,,,,,,,,,,,,,,,,
77,172,1556064660.0,,,,,,,,,,,,,,,,,,
78,179,1556065560.0,,,,,,,,,,,,,,,,,,
79,183,1556066460.0,,,,,,,,,,,,,,,,,,
80,189,1556067360.0,,,,,,,,,,,,,,,,,,
81,207,1556068260.0,,,,,,,,,,,,,,,,,,
82,230,1556069160.0,,,,,,,,,,,,,,,,,,
83,242,1556070060.0,,,,,,,,,,,,,,,,,,
84,243,1556070960.0,,,,,,,,,,,,,,,,,,
85,266,1556071860.0,,,,,,,,,,,,,,,,,,
86,310,1556072760.0,,,,,,,,,,,,,,,,,,
87,327,1556073660.0,,,,,,,,,,,,,,,,,,
88,309,1556074560.0,,,,,,,,,,,,,,,,,,
89,290,1556075460.0,,,,,,,,,,,,,,,,,,
90,282,1556076360.0,,,,,,,,,,,,,,,,,,
91,293,1556077260.0,,,,,,,,,,,,,,,,,,
92,324,1556078160.0,,,,,,,,,,,,,,,,,,
93,353,1556079060.0,,,,,,,,,,,,,,,,,,
94,378,1556079960.0,,,,,,,,,,,,,,,,,,
95,392,1556080860.0,,,,,,,,,,,,,,,,,,
96,392,1556081760.0,,,,,,,,,,,,,,,,,,
97,392,1556082660.0,,,,,,,,,,,,,,,,,,
98,391,1556083560.0,,,,,,,,,,,,,,,,,,
99,382,1556084460.0,,,,,,,,,,,,,,,,,,
100,376,1556085360.0,,,,,,,,,,,,,,,,,,
101,367,1556086260.0,,,,,,,,,,,,,,,,,,
102,349,1556087160.0,,,,,,,,,,,,,,,,,,
103,332,1556088060.0,,,,,,,,,,,,,,,,,,
104,312,1556088960.0,,,,,,,,,,,,,,,,,,
105,292,1556089860.0,,,,,,,,,,,,,,,,,,
106,279,1556090760.0,,,,,,,,,,,,,,,,,,
107,293,1556091660.0,,,,,,,,,,,,,,,,,,
108,328,1556092560.0,,,,,,,,,,,,,,,,,,
109,356,1556093460.0,,,,,,,,,,,,,,,,,,
110,375,1556094360.0,,,,,,,,,,,,,,,,,,
111,394,1556095260.0,,,,,,,,,,,,,,,,,,
112,407,1556096160.0,,,,,,,,,,,,,,,,,,
113,406,1556097060.0,,,,,,,,,,,,,,,,,,
114,404,1556097960.0,,,,,,,,,,,,,,,,,,
115,405,1556098860.0,,,,,,,,,,,,,,,,,,
116,402,1556099760.0,,,,,,,,,,,,,,,,,,
117,392,1556100660.0,,,,,,,,,,,,,,,,,,
118,377,1556101560.0,,,,,,,,,,,,,,,,,,
119,359,1556102460.0,,,,,,,,,,,,,,,,,,
120,351,1556103360.0,,,,,,,,,,,,,,,,,,
121,348,1556104260.0,,,,,,,,,,,,,,,,,,
122,327,1556105160.0,,,,,,,,,,,,,,,,,,
123,312,1556106060.0,,,,,,,,,,,,,,,,,,
124,313,1556106960.0,,,,,,,,,,,,,,,,,,
125,304,1556107860.0,,,,,,,,,,,,,,,,,,
126,292,1556108760.0,,,,,,,,,,,,,,,,,,
127,279,1556109660.0,,,,,,,,,,,,,,,,,,
128,264,1556110560.0,,,,,,,,,,,,,,,,,,
129,255,1556111460.0,,,,,,,,,,,,,,,,,,
130,241,1556112360.0,,,,,,,,,,,,,,,,,,
131,220,1556113260.0,,,,,,,,,,,,,,,,,,
132,203,1556114160.0,,,,,,,,,,,,,,,,,,
133,193,1556115060.0,,,,,,,,,,,,,,,,,,
134,184,1556115960.0,,,,,,,,,,,,,,,,,,
135,184,1556116860.0,,,,,,,,,,,,,,,,,,
136,212,1556117760.0,,,,,,,,,,,,,,,,,,
137,258,1556118660.0,,,,,,,,,,,,,,,,,,
138,307,1556119560.0,,,,,,,,,,,,,,,,,,
139,346,1556120460.0,,,,,,,,,,,,,,,,,,
140,367,1556121360.0,,,,,,,,,,,,,,,,,,
141,365,1556122260.0,,,,,,,,,,,,,,,,,,
142,342,1556123160.0,,,,,,,,,,,,,,,,,,
143,334,1556124060.0,,,,,,,,,,,,,,,,,,
144,352,1556124960.0,,,,,,,,,,,,,,,,,,
145,364,1556125860.0,,,,,,,,,,,,,,,,,,
146,356,1556126760.0,,,,,,,,,,,,,,,,,,
147,338,1556127660.0,,,,,,,,,,,,,,,,,,
148,323,1556128560.0,,,,,,,,,,,,,,,,,,
149,307,1556129460.0,,,,,,,,,,,,,,,,,,
150,296,1556130360.0,,,,,,,,,,,,,,,,,,
151,295,1556131260.0,,,,,,,,,,,,,,,,,,
152,294,1556132160.0,,,,,,,,,,,,,,,,,,
153,284,1556133060.0,,,,,,,,,,,,,,,,,,
154,268,1556133960.0,,,,,,,,,,,,,,,,,,
155,266,1556134860.0,,,,,,,,,,,,,,,,,,
156,278,1556135760.0,,,,,,,,,,,,,,,,,,
157,277,1556136660.0,,,,,,,,,,,,,,,,,,
158,263,1556137560.0,,,,,,,,,,,,,,,,,,
159,251,1556138460.0,,,,,,,,,,,,,,,,,,
160,238,1556139360.0,,,,,,,,,,,,,,,,,,
161,225,1556140260.0,,,,,,,,,,,,,,,,,,
162,219,1556141160.0,,,,,,,,,,,,,,,,,,
163,216,1556142060.0,,,,,,,,,,,,,,,,,,
164,210,1556142960.0,,,,,,,,,,,,,,,,,,
165,201,1556143860.0,,,,,,,,,,,,,,,,,,
166,197,1556144760.0,,,,,,,,,,,,,,,,,,
167,193,1556145660.0,,,,,,,,,,,,,,,,,,
168,190,1556146560.0,,,,,,,,,,,,,,,,,,
169,189,1556147460.0,,,,,,,,,,,,,,,,,,
170,184,1556148360.0,,,,,,,,,,,,,,,,,,
171,181,1556149260.0,,,,,,,,,,,,,,,,,,
172,182,1556150160.0,,,,,,,,,,,,,,,,,,
173,188,1556151060.0,,,,,,,,,,,,,,,,,,
174,191,1556151960.0,,,,,,,,,,,,,,,,,,
175,191,1556152860.0,,,,,,,,,,,,,,,,,,
176,199,1556153760.0,,,,,,,,,,,,,,,,,,
177,221,1556154660.0,,,,,,,,,,,,,,,,,,
178,245,1556155560.0,,,,,,,,,,,,,,,,,,
179,249,1556156460.0,,,,,,,,,,,,,,,,,,
180,243,1556157360.0,,,,,,,,,,,,,,,,,,
181,263,1556158260.0,,,,,,,,,,,,,,,,,,
182,300,1556159160.0,,,,,,,,,,,,,,,,,,
183,322,1556160060.0,,,,,,,,,,,,,,,,,,
184,336,1556160960.0,,,,,,,,,,,,,,,,,,
185,329,1556161860.0,,,,,,,,,,,,,,,,,,
186,305,1556162760.0,,,,,,,,,,,,,,,,,,
187,294,1556163660.0,,,,,,,,,,,,,,,,,,
188,277,1556164560.0,,,,,,,,,,,,,,,,,,
189,264,1556165460.0,,,,,,,,,,,,,,,,,,
190,258,1556166360.0,,,,,,,,,,,,,,,,,,
191,258,1556167260.0,,,,,,,,,,,,,,,,,,
192,286,1556168160.0,,,,,,,,,,,,,,,,,,
193,321,1556169060.0,,,,,,,,,,,,,,,,,,
194,346,1556169960.0,,,,,,,,,,,,,,,,,,
195,366,1556170860.0,,,,,,,,,,,,,,,,,,
196,380,1556171760.0,,,,,,,,,,,,,,,,,,
197,387,1556172660.0,,,,,,,,,,,,,,,,,,
198,388,1556173560.0,,,,,,,,,,,,,,,,,,
199,378,1556174460.0,,,,,,,,,,,,,,,,,,
200,365,1556175360.0,,,,,,,,,,,,,,,,,,
201,352,1556176260.0,,,,,,,,,,,,,,,,,,
202,336,1556177160.0,,,,,,,,,,,,,,,,,,
203,327,1556178060.0,1017,25-04-2019,Lunch,35.05,7.85,10.75,6.6,233.0,2.0,2.0,45.23,13:11:00,327.0,348.0,14:26:00,105.0,13:11:00,2019-04-25
204,330,1556178960.0,,,,,,,,,,,,,,,,,,
205,332,1556179860.0,,,,,,,,,,,,,,,,,,
206,335,1556180760.0,,,,,,,,,,,,,,,,,,
207,343,1556181660.0,,,,,,,,,,,,,,,,,,
208,348,1556182560.0,,,,,,,,,,,,,,,,,,
209,338,1556183460.0,,,,,,,,,,,,,,,,,,
210,333,1556184360.0,,,,,,,,,,,,,,,,,,
211,333,1556185260.0,,,,,,,,,,,,,,,,,,
212,328,1556186160.0,,,,,,,,,,,,,,,,,,
213,330,1556187060.0,,,,,,,,,,,,,,,,,,
214,333,1556187960.0,,,,,,,,,,,,,,,,,,
215,330,1556188860.0,,,,,,,,,,,,,,,,,,
216,328,1556189760.0,,,,,,,,,,,,,,,,,,
217,334,1556190660.0,,,,,,,,,,,,,,,,,,
218,339,1556191560.0,,,,,,,,,,,,,,,,,,
219,337,1556192460.0,,,,,,,,,,,,,,,,,,
220,341,1556193360.0,,,,,,,,,,,,,,,,,,
221,353,1556194260.0,,,,,,,,,,,,,,,,,,
222,358,1556195160.0,,,,,,,,,,,,,,,,,,
223,349,1556196060.0,,,,,,,,,,,,,,,,,,
224,336,1556196960.0,,,,,,,,,,,,,,,,,,
225,328,1556197860.0,,,,,,,,,,,,,,,,,,
226,316,1556198760.0,,,,,,,,,,,,,,,,,,
227,299,1556199660.0,,,,,,,,,,,,,,,,,,
228,288,1556200560.0,,,,,,,,,,,,,,,,,,
229,287,1556201460.0,,,,,,,,,,,,,,,,,,
230,290,1556202360.0,,,,,,,,,,,,,,,,,,
231,298,1556203260.0,,,,,,,,,,,,,,,,,,
232,310,1556204160.0,,,,,,,,,,,,,,,,,,
233,309,1556205060.0,,,,,,,,,,,,,,,,,,
234,298,1556205960.0,,,,,,,,,,,,,,,,,,
235,294,1556206860.0,1017,25-04-2019,Dinner,59.4,9.7,19.9,12.4,374.0,2.0,4.0,79.9,21:11:00,294.0,411.0,22:26:00,105.0,21:11:00,2019-04-25
236,318,1556207760.0,,,,,,,,,,,,,,,,,,
237,352,1556208660.0,,,,,,,,,,,,,,,,,,
238,371,1556209560.0,,,,,,,,,,,,,,,,,,
239,390,1556210460.0,,,,,,,,,,,,,,,,,,
240,411,1556211360.0,,,,,,,,,,,,,,,,,,
241,408,1556212260.0,,,,,,,,,,,,,,,,,,
242,400,1556213160.0,,,,,,,,,,,,,,,,,,
243,408,1556214060.0,,,,,,,,,,,,,,,,,,
244,406,1556214960.0,,,,,,,,,,,,,,,,,,
245,398,1556215860.0,,,,,,,,,,,,,,,,,,
246,386,1556216760.0,,,,,,,,,,,,,,,,,,
247,376,1556217660.0,,,,,,,,,,,,,,,,,,
248,374,1556218560.0,,,,,,,,,,,,,,,,,,
249,369,1556219460.0,,,,,,,,,,,,,,,,,,
250,374,1556220360.0,,,,,,,,,,,,,,,,,,
251,382,1556221260.0,,,,,,,,,,,,,,,,,,
252,377,1556222160.0,,,,,,,,,,,,,,,,,,
253,369,1556223060.0,,,,,,,,,,,,,,,,,,
254,357,1556223960.0,,,,,,,,,,,,,,,,,,
255,347,1556224860.0,,,,,,,,,,,,,,,,,,
256,343,1556225760.0,,,,,,,,,,,,,,,,,,
257,336,1556226660.0,,,,,,,,,,,,,,,,,,
258,326,1556227560.0,,,,,,,,,,,,,,,,,,
259,321,1556228460.0,,,,,,,,,,,,,,,,,,
260,312,1556229360.0,,,,,,,,,,,,,,,,,,
261,302,1556230260.0,,,,,,,,,,,,,,,,,,
262,298,1556231160.0,,,,,,,,,,,,,,,,,,
263,293,1556232060.0,,,,,,,,,,,,,,,,,,
264,283,1556232960.0,,,,,,,,,,,,,,,,,,
265,272,1556233860.0,,,,,,,,,,,,,,,,,,
266,261,1556234760.0,,,,,,,,,,,,,,,,,,
267,253,1556235660.0,,,,,,,,,,,,,,,,,,
268,249,1556236560.0,,,,,,,,,,,,,,,,,,
269,244,1556237460.0,,,,,,,,,,,,,,,,,,
270,239,1556238360.0,,,,,,,,,,,,,,,,,,
271,235,1556239260.0,,,,,,,,,,,,,,,,,,
272,236,1556240160.0,,,,,,,,,,,,,,,,,,
273,247,1556241060.0,,,,,,,,,,,,,,,,,,
274,258,1556241960.0,,,,,,,,,,,,,,,,,,
275,256,1556242860.0,,,,,,,,,,,,,,,,,,
276,250,1556243760.0,,,,,,,,,,,,,,,,,,
277,243,1556244660.0,,,,,,,,,,,,,,,,,,
278,249,1556245560.0,,,,,,,,,,,,,,,,,,
279,264,1556246460.0,,,,,,,,,,,,,,,,,,
280,258,1556247360.0,,,,,,,,,,,,,,,,,,
281,244,1556248260.0,,,,,,,,,,,,,,,,,,
282,246,1556249160.0,1017,26-04-2019,Breakfast,26.4,0.4,0.4,2.6,120.0,2.0,4.0,83.16,08:56:00,244.0,383.0,09:56:00,255.0,08:56:00,2019-04-26
283,271,1556250060.0,,,,,,,,,,,,,,,,,,
284,316,1556250960.0,,,,,,,,,,,,,,,,,,
285,361,1556251860.0,,,,,,,,,,,,,,,,,,
286,383,1556252760.0,,,,,,,,,,,,,,,,,,
287,374,1556253660.0,,,,,,,,,,,,,,,,,,
288,354,1556254560.0,,,,,,,,,,,,,,,,,,
289,334,1556255460.0,,,,,,,,,,,,,,,,,,
290,314,1556256360.0,,,,,,,,,,,,,,,,,,
291,301,1556257260.0,,,,,,,,,,,,,,,,,,
292,286,1556258160.0,,,,,,,,,,,,,,,,,,
293,270,1556259060.0,,,,,,,,,,,,,,,,,,
294,255,1556259960.0,,,,,,,,,,,,,,,,,,
295,242,1556260860.0,,,,,,,,,,,,,,,,,,
296,231,1556261760.0,,,,,,,,,,,,,,,,,,
297,215,1556262660.0,,,,,,,,,,,,,,,,,,
298,200,1556263560.0,,,,,,,,,,,,,,,,,,
299,193,1556264460.0,1017,26-04-2019,Lunch,61.6,15.4,4.0,7.0,420.0,3.0,4.0,74.48,13:11:00,193.0,313.0,15:11:00,165.0,13:11:00,2019-04-26
300,198,1556265360.0,,,,,,,,,,,,,,,,,,
301,226,1556266260.0,,,,,,,,,,,,,,,,,,
302,257,1556267160.0,,,,,,,,,,,,,,,,,,
303,265,1556268060.0,,,,,,,,,,,,,,,,,,
304,275,1556268960.0,,,,,,,,,,,,,,,,,,
305,297,1556269860.0,,,,,,,,,,,,,,,,,,
306,310,1556270760.0,,,,,,,,,,,,,,,,,,
307,313,1556271660.0,,,,,,,,,,,,,,,,,,
308,305,1556272560.0,,,,,,,,,,,,,,,,,,
309,291,1556273460.0,,,,,,,,,,,,,,,,,,
310,283,1556274360.0,,,,,,,,,,,,,,,,,,
311,284,1556275260.0,,,,,,,,,,,,,,,,,,
312,286,1556276160.0,,,,,,,,,,,,,,,,,,
313,282,1556277060.0,,,,,,,,,,,,,,,,,,
314,282,1556277960.0,,,,,,,,,,,,,,,,,,
315,293,1556278860.0,,,,,,,,,,,,,,,,,,
316,302,1556279760.0,,,,,,,,,,,,,,,,,,
317,302,1556280660.0,,,,,,,,,,,,,,,,,,
318,299,1556281560.0,,,,,,,,,,,,,,,,,,
319,299,1556282460.0,,,,,,,,,,,,,,,,,,
320,300,1556283360.0,,,,,,,,,,,,,,,,,,
321,294,1556284260.0,,,,,,,,,,,,,,,,,,
322,277,1556285160.0,,,,,,,,,,,,,,,,,,
323,264,1556286060.0,,,,,,,,,,,,,,,,,,
324,259,1556286960.0,,,,,,,,,,,,,,,,,,
325,252,1556287860.0,,,,,,,,,,,,,,,,,,
326,244,1556288760.0,,,,,,,,,,,,,,,,,,
327,235,1556289660.0,,,,,,,,,,,,,,,,,,
328,224,1556290560.0,,,,,,,,,,,,,,,,,,
329,214,1556291460.0,,,,,,,,,,,,,,,,,,
330,210,1556292360.0,1017,26-04-2019,Dinner,66.1,15.1,5.7,19.4,479.0,2.0,4.0,77.76,20:56:00,210.0,306.0,22:11:00,90.0,20:56:00,2019-04-26
331,216,1556293260.0,,,,,,,,,,,,,,,,,,
332,240,1556294160.0,,,,,,,,,,,,,,,,,,
333,272,1556295060.0,,,,,,,,,,,,,,,,,,
334,296,1556295960.0,,,,,,,,,,,,,,,,,,
335,306,1556296860.0,,,,,,,,,,,,,,,,,,
336,300,1556297760.0,,,,,,,,,,,,,,,,,,
337,304,1556298660.0,,,,,,,,,,,,,,,,,,
338,304,1556299560.0,,,,,,,,,,,,,,,,,,
339,291,1556300460.0,,,,,,,,,,,,,,,,,,
340,289,1556301360.0,,,,,,,,,,,,,,,,,,
341,286,1556302260.0,,,,,,,,,,,,,,,,,,
342,276,1556303160.0,,,,,,,,,,,,,,,,,,
343,267,1556304060.0,,,,,,,,,,,,,,,,,,
344,253,1556304960.0,,,,,,,,,,,,,,,,,,
345,240,1556305860.0,,,,,,,,,,,,,,,,,,
346,230,1556306760.0,,,,,,,,,,,,,,,,,,
347,221,1556307660.0,,,,,,,,,,,,,,,,,,
348,216,1556308560.0,,,,,,,,,,,,,,,,,,
349,211,1556309460.0,,,,,,,,,,,,,,,,,,
350,206,1556310360.0,,,,,,,,,,,,,,,,,,
351,207,1556311260.0,,,,,,,,,,,,,,,,,,
352,204,1556312160.0,,,,,,,,,,,,,,,,,,
353,197,1556313060.0,,,,,,,,,,,,,,,,,,
354,192,1556313960.0,,,,,,,,,,,,,,,,,,
355,197,1556314860.0,,,,,,,,,,,,,,,,,,
356,206,1556315760.0,,,,,,,,,,,,,,,,,,
357,207,1556316660.0,,,,,,,,,,,,,,,,,,
358,205,1556317560.0,,,,,,,,,,,,,,,,,,
359,208,1556318460.0,,,,,,,,,,,,,,,,,,
360,209,1556319360.0,,,,,,,,,,,,,,,,,,
361,211,1556320260.0,,,,,,,,,,,,,,,,,,
362,218,1556321160.0,,,,,,,,,,,,,,,,,,
363,221,1556322060.0,,,,,,,,,,,,,,,,,,
364,222,1556322960.0,,,,,,,,,,,,,,,,,,
365,222,1556323860.0,,,,,,,,,,,,,,,,,,
366,220,1556324760.0,,,,,,,,,,,,,,,,,,
367,219,1556325660.0,,,,,,,,,,,,,,,,,,
368,222,1556326560.0,,,,,,,,,,,,,,,,,,
369,228,1556327460.0,,,,,,,,,,,,,,,,,,
370,240,1556328360.0,,,,,,,,,,,,,,,,,,
371,257,1556329260.0,,,,,,,,,,,,,,,,,,
372,257,1556330160.0,,,,,,,,,,,,,,,,,,
373,258,1556331060.0,,,,,,,,,,,,,,,,,,
374,275,1556331960.0,,,,,,,,,,,,,,,,,,
375,272,1556332860.0,,,,,,,,,,,,,,,,,,
376,272,1556333760.0,,,,,,,,,,,,,,,,,,
377,268,1556334660.0,,,,,,,,,,,,,,,,,,
378,264,1556335560.0,1017,27-04-2019,Breakfast,13.2,0.2,0.2,1.3,60.0,3.0,4.0,71.57,08:56:00,264.0,364.0,10:56:00,195.0,08:56:00,2019-04-27
379,282,1556336460.0,,,,,,,,,,,,,,,,,,
380,308,1556337360.0,,,,,,,,,,,,,,,,,,
381,321,1556338260.0,,,,,,,,,,,,,,,,,,
382,325,1556339160.0,,,,,,,,,,,,,,,,,,
383,336,1556340060.0,,,,,,,,,,,,,,,,,,
384,346,1556340960.0,,,,,,,,,,,,,,,,,,
385,354,1556341860.0,,,,,,,,,,,,,,,,,,
386,364,1556342760.0,,,,,,,,,,,,,,,,,,
387,360,1556343660.0,,,,,,,,,,,,,,,,,,
388,344,1556344560.0,,,,,,,,,,,,,,,,,,
389,332,1556345460.0,,,,,,,,,,,,,,,,,,
390,330,1556346360.0,,,,,,,,,,,,,,,,,,
391,329,1556347260.0,,,,,,,,,,,,,,,,,,
392,329,1556348160.0,,,,,,,,,,,,,,,,,,
393,320,1556349060.0,,,,,,,,,,,,,,,,,,
394,299,1556349960.0,,,,,,,,,,,,,,,,,,
395,279,1556350860.0,,,,,,,,,,,,,,,,,,
396,267,1556351760.0,,,,,,,,,,,,,,,,,,
397,267,1556352660.0,,,,,,,,,,,,,,,,,,
398,284,1556353560.0,,,,,,,,,,,,,,,,,,
399,307,1556354460.0,,,,,,,,,,,,,,,,,,
400,325,1556355360.0,,,,,,,,,,,,,,,,,,
401,337,1556356260.0,,,,,,,,,,,,,,,,,,
402,343,1556357160.0,,,,,,,,,,,,,,,,,,
403,354,1556358060.0,,,,,,,,,,,,,,,,,,
404,356,1556358960.0,,,,,,,,,,,,,,,,,,
405,350,1556359860.0,,,,,,,,,,,,,,,,,,
406,349,1556360760.0,,,,,,,,,,,,,,,,,,
407,349,1556361660.0,,,,,,,,,,,,,,,,,,
408,347,1556362560.0,,,,,,,,,,,,,,,,,,
409,348,1556363460.0,,,,,,,,,,,,,,,,,,
410,342,1556364360.0,,,,,,,,,,,,,,,,,,
411,336,1556365260.0,,,,,,,,,,,,,,,,,,
412,332,1556366160.0,,,,,,,,,,,,,,,,,,
413,324,1556367060.0,,,,,,,,,,,,,,,,,,
414,322,1556367960.0,,,,,,,,,,,,,,,,,,
415,323,1556368860.0,,,,,,,,,,,,,,,,,,
416,312,1556369760.0,,,,,,,,,,,,,,,,,,
417,290,1556370660.0,,,,,,,,,,,,,,,,,,
418,281,1556371560.0,1017,27-04-2019,Dinner,23.4,9.6,5.1,10.3,240.0,2.0,2.0,43.83,18:56:00,281.0,297.0,19:56:00,120.0,18:56:00,2019-04-27
419,283,1556372460.0,,,,,,,,,,,,,,,,,,
420,288,1556373360.0,,,,,,,,,,,,,,,,,,
421,294,1556374260.0,,,,,,,,,,,,,,,,,,
422,297,1556375160.0,,,,,,,,,,,,,,,,,,
423,297,1556376060.0,,,,,,,,,,,,,,,,,,
424,293,1556376960.0,,,,,,,,,,,,,,,,,,
425,282,1556377860.0,,,,,,,,,,,,,,,,,,
426,273,1556378760.0,,,,,,,,,,,,,,,,,,
427,278,1556379660.0,,,,,,,,,,,,,,,,,,
428,282,1556380560.0,,,,,,,,,,,,,,,,,,
429,278,1556381460.0,,,,,,,,,,,,,,,,,,
430,287,1556382360.0,,,,,,,,,,,,,,,,,,
431,297,1556383260.0,,,,,,,,,,,,,,,,,,
432,288,1556384160.0,,,,,,,,,,,,,,,,,,
433,279,1556385060.0,,,,,,,,,,,,,,,,,,
434,277,1556385960.0,,,,,,,,,,,,,,,,,,
435,277,1556386860.0,,,,,,,,,,,,,,,,,,
436,277,1556387760.0,,,,,,,,,,,,,,,,,,
437,271,1556388660.0,,,,,,,,,,,,,,,,,,
438,263,1556389560.0,,,,,,,,,,,,,,,,,,
439,250,1556390460.0,,,,,,,,,,,,,,,,,,
440,239,1556391360.0,,,,,,,,,,,,,,,,,,
441,233,1556392260.0,,,,,,,,,,,,,,,,,,
442,227,1556393160.0,,,,,,,,,,,,,,,,,,
443,226,1556394060.0,,,,,,,,,,,,,,,,,,
444,224,1556394960.0,,,,,,,,,,,,,,,,,,
445,207,1556395860.0,,,,,,,,,,,,,,,,,,
446,196,1556396760.0,,,,,,,,,,,,,,,,,,
447,193,1556397660.0,,,,,,,,,,,,,,,,,,
448,183,1556398560.0,,,,,,,,,,,,,,,,,,
449,173,1556399460.0,,,,,,,,,,,,,,,,,,
450,169,1556400360.0,,,,,,,,,,,,,,,,,,
451,167,1556401260.0,,,,,,,,,,,,,,,,,,
452,162,1556402160.0,,,,,,,,,,,,,,,,,,
453,159,1556403060.0,,,,,,,,,,,,,,,,,,
454,160,1556403960.0,,,,,,,,,,,,,,,,,,
455,164,1556404860.0,,,,,,,,,,,,,,,,,,
456,162,1556405760.0,,,,,,,,,,,,,,,,,,
457,155,1556406660.0,,,,,,,,,,,,,,,,,,
458,151,1556407560.0,,,,,,,,,,,,,,,,,,
459,150,1556408460.0,,,,,,,,,,,,,,,,,,
460,152,1556409360.0,,,,,,,,,,,,,,,,,,
461,159,1556410260.0,,,,,,,,,,,,,,,,,,
462,164,1556411160.0,,,,,,,,,,,,,,,,,,
463,164,1556412060.0,,,,,,,,,,,,,,,,,,
464,165,1556412960.0,,,,,,,,,,,,,,,,,,
465,169,1556413860.0,,,,,,,,,,,,,,,,,,
466,177,1556414760.0,,,,,,,,,,,,,,,,,,
467,189,1556415660.0,,,,,,,,,,,,,,,,,,
468,205,1556416560.0,,,,,,,,,,,,,,,,,,
469,216,1556417460.0,,,,,,,,,,,,,,,,,,
470,227,1556418360.0,,,,,,,,,,,,,,,,,,
471,246,1556419260.0,,,,,,,,,,,,,,,,,,
472,260,1556420160.0,,,,,,,,,,,,,,,,,,
473,274,1556421060.0,,,,,,,,,,,,,,,,,,
474,296,1556421960.0,,,,,,,,,,,,,,,,,,
475,327,1556422860.0,,,,,,,,,,,,,,,,,,
476,355,1556423760.0,,,,,,,,,,,,,,,,,,
477,377,1556424660.0,,,,,,,,,,,,,,,,,,
478,386,1556425560.0,,,,,,,,,,,,,,,,,,
479,391,1556426460.0,,,,,,,,,,,,,,,,,,
480,388,1556427360.0,,,,,,,,,,,,,,,,,,
481,373,1556428260.0,,,,,,,,,,,,,,,,,,
482,361,1556429160.0,,,,,,,,,,,,,,,,,,
483,344,1556430060.0,,,,,,,,,,,,,,,,,,
484,321,1556430960.0,,,,,,,,,,,,,,,,,,
485,303,1556431860.0,,,,,,,,,,,,,,,,,,
486,292,1556432760.0,,,,,,,,,,,,,,,,,,
487,275,1556433660.0,,,,,,,,,,,,,,,,,,
488,254,1556434560.0,,,,,,,,,,,,,,,,,,
489,238,1556435460.0,,,,,,,,,,,,,,,,,,
490,226,1556436360.0,,,,,,,,,,,,,,,,,,
491,214,1556437260.0,,,,,,,,,,,,,,,,,,
492,204,1556438160.0,1017,28-04-2019,Lunch,65.975,18.775,5.625,11.125,477.0,3.0,4.0,76.85,13:26:00,204.0,311.0,14:56:00,120.0,13:26:00,2019-04-28
493,206,1556439060.0,,,,,,,,,,,,,,,,,,
494,227,1556439960.0,,,,,,,,,,,,,,,,,,
495,258,1556440860.0,,,,,,,,,,,,,,,,,,
496,286,1556441760.0,,,,,,,,,,,,,,,,,,
497,305,1556442660.0,,,,,,,,,,,,,,,,,,
498,311,1556443560.0,,,,,,,,,,,,,,,,,,
499,298,1556444460.0,,,,,,,,,,,,,,,,,,
500,294,1556445360.0,,,,,,,,,,,,,,,,,,
501,296,1556446260.0,,,,,,,,,,,,,,,,,,
502,288,1556447160.0,,,,,,,,,,,,,,,,,,
503,288,1556448060.0,1017,28-04-2019,Lunch,65.975,18.775,5.625,11.125,477.0,2.0,2.0,45.23,16:11:00,288.0,309.0,17:26:00,105.0,16:11:00,2019-04-28
504,297,1556448960.0,,,,,,,,,,,,,,,,,,
505,300,1556449860.0,,,,,,,,,,,,,,,,,,
506,301,1556450760.0,,,,,,,,,,,,,,,,,,
507,304,1556451660.0,,,,,,,,,,,,,,,,,,
508,309,1556452560.0,,,,,,,,,,,,,,,,,,
509,304,1556453460.0,,,,,,,,,,,,,,,,,,
510,297,1556454360.0,,,,,,,,,,,,,,,,,,
511,307,1556455260.0,,,,,,,,,,,,,,,,,,
512,316,1556456160.0,,,,,,,,,,,,,,,,,,
513,309,1556457060.0,,,,,,,,,,,,,,,,,,
514,308,1556457960.0,,,,,,,,,,,,,,,,,,
515,307,1556458860.0,,,,,,,,,,,,,,,,,,
516,302,1556459760.0,,,,,,,,,,,,,,,,,,
517,298,1556460660.0,,,,,,,,,,,,,,,,,,
518,299,1556461560.0,,,,,,,,,,,,,,,,,,
519,302,1556462460.0,,,,,,,,,,,,,,,,,,
520,301,1556463360.0,1017,28-04-2019,Dinner,38.0,5.4,11.85,7.5,228.0,3.0,4.0,71.79,20:26:00,301.0,377.0,21:56:00,105.0,20:26:00,2019-04-28
521,306,1556464260.0,,,,,,,,,,,,,,,,,,
522,315,1556465160.0,,,,,,,,,,,,,,,,,,
523,323,1556466060.0,,,,,,,,,,,,,,,,,,
524,339,1556466960.0,,,,,,,,,,,,,,,,,,
525,366,1556467860.0,,,,,,,,,,,,,,,,,,
526,377,1556468760.0,,,,,,,,,,,,,,,,,,
527,371,1556469660.0,,,,,,,,,,,,,,,,,,
528,382,1556470560.0,,,,,,,,,,,,,,,,,,
529,381,1556471460.0,,,,,,,,,,,,,,,,,,
530,357,1556472360.0,,,,,,,,,,,,,,,,,,
531,342,1556473260.0,,,,,,,,,,,,,,,,,,
532,335,1556474160.0,,,,,,,,,,,,,,,,,,
533,337,1556475060.0,,,,,,,,,,,,,,,,,,
534,341,1556475960.0,,,,,,,,,,,,,,,,,,
535,335,1556476860.0,,,,,,,,,,,,,,,,,,
536,322,1556477760.0,,,,,,,,,,,,,,,,,,
537,315,1556478660.0,,,,,,,,,,,,,,,,,,
538,308,1556479560.0,,,,,,,,,,,,,,,,,,
539,319,1556480460.0,,,,,,,,,,,,,,,,,,
540,323,1556481360.0,,,,,,,,,,,,,,,,,,
541,305,1556482260.0,,,,,,,,,,,,,,,,,,
542,306,1556483160.0,,,,,,,,,,,,,,,,,,
543,316,1556484060.0,,,,,,,,,,,,,,,,,,
544,302,1556484960.0,,,,,,,,,,,,,,,,,,
545,289,1556485860.0,,,,,,,,,,,,,,,,,,
546,288,1556486760.0,,,,,,,,,,,,,,,,,,
547,286,1556487660.0,,,,,,,,,,,,,,,,,,
548,275,1556488560.0,,,,,,,,,,,,,,,,,,
549,258,1556489460.0,,,,,,,,,,,,,,,,,,
550,248,1556490360.0,,,,,,,,,,,,,,,,,,
551,242,1556491260.0,,,,,,,,,,,,,,,,,,
552,231,1556492160.0,,,,,,,,,,,,,,,,,,
553,221,1556493060.0,,,,,,,,,,,,,,,,,,
554,223,1556493960.0,,,,,,,,,,,,,,,,,,
555,218,1556494860.0,,,,,,,,,,,,,,,,,,
556,207,1556495760.0,,,,,,,,,,,,,,,,,,
557,196,1556496660.0,,,,,,,,,,,,,,,,,,
558,188,1556497560.0,,,,,,,,,,,,,,,,,,
559,184,1556498460.0,,,,,,,,,,,,,,,,,,
560,181,1556499360.0,,,,,,,,,,,,,,,,,,
561,190,1556500260.0,,,,,,,,,,,,,,,,,,
562,206,1556501160.0,,,,,,,,,,,,,,,,,,
563,213,1556502060.0,,,,,,,,,,,,,,,,,,
564,205,1556502960.0,,,,,,,,,,,,,,,,,,
565,199,1556503860.0,,,,,,,,,,,,,,,,,,
566,214,1556504760.0,,,,,,,,,,,,,,,,,,
567,254,1556505660.0,,,,,,,,,,,,,,,,,,
568,284,1556506560.0,,,,,,,,,,,,,,,,,,
569,276,1556507460.0,,,,,,,,,,,,,,,,,,
570,256,1556508360.0,,,,,,,,,,,,,,,,,,
571,243,1556509260.0,,,,,,,,,,,,,,,,,,
572,234,1556510160.0,,,,,,,,,,,,,,,,,,
573,231,1556511060.0,1017,29-04-2019,Breakfast,31.7,8.7,2.6,5.2,226.0,2.0,4.0,76.97,09:41:00,231.0,321.0,10:56:00,90.0,09:41:00,2019-04-29
574,241,1556511960.0,,,,,,,,,,,,,,,,,,
575,259,1556512860.0,,,,,,,,,,,,,,,,,,
576,287,1556513760.0,,,,,,,,,,,,,,,,,,
577,314,1556514660.0,,,,,,,,,,,,,,,,,,
578,321,1556515560.0,,,,,,,,,,,,,,,,,,
579,314,1556516460.0,,,,,,,,,,,,,,,,,,
580,316,1556517360.0,,,,,,,,,,,,,,,,,,
581,318,1556518260.0,,,,,,,,,,,,,,,,,,
582,308,1556519160.0,,,,,,,,,,,,,,,,,,
583,297,1556520060.0,,,,,,,,,,,,,,,,,,
584,292,1556520960.0,,,,,,,,,,,,,,,,,,
585,278,1556521860.0,,,,,,,,,,,,,,,,,,
586,264,1556522760.0,,,,,,,,,,,,,,,,,,
587,265,1556523660.0,1017,29-04-2019,Lunch,38.1,3.5,10.0,6.6,205.0,2.0,4.0,74.48,13:11:00,264.0,324.0,14:11:00,120.0,13:11:00,2019-04-29
588,270,1556524560.0,,,,,,,,,,,,,,,,,,
589,281,1556525460.0,,,,,,,,,,,,,,,,,,
590,307,1556526360.0,,,,,,,,,,,,,,,,,,
591,324,1556527260.0,,,,,,,,,,,,,,,,,,
592,320,1556528160.0,,,,,,,,,,,,,,,,,,
593,311,1556529060.0,,,,,,,,,,,,,,,,,,
594,301,1556529960.0,,,,,,,,,,,,,,,,,,
595,297,1556530860.0,,,,,,,,,,,,,,,,,,
596,298,1556531760.0,,,,,,,,,,,,,,,,,,
597,288,1556532660.0,,,,,,,,,,,,,,,,,,
598,270,1556533560.0,,,,,,,,,,,,,,,,,,
599,258,1556534460.0,,,,,,,,,,,,,,,,,,
600,246,1556535360.0,,,,,,,,,,,,,,,,,,
601,235,1556536260.0,,,,,,,,,,,,,,,,,,
602,238,1556537160.0,,,,,,,,,,,,,,,,,,
603,263,1556538060.0,,,,,,,,,,,,,,,,,,
604,282,1556538960.0,,,,,,,,,,,,,,,,,,
605,277,1556539860.0,,,,,,,,,,,,,,,,,,
606,278,1556540760.0,,,,,,,,,,,,,,,,,,
607,273,1556541660.0,,,,,,,,,,,,,,,,,,
608,250,1556542560.0,,,,,,,,,,,,,,,,,,
609,228,1556543460.0,,,,,,,,,,,,,,,,,,
610,225,1556544360.0,,,,,,,,,,,,,,,,,,
611,231,1556545260.0,,,,,,,,,,,,,,,,,,
612,227,1556546160.0,,,,,,,,,,,,,,,,,,
613,219,1556547060.0,,,,,,,,,,,,,,,,,,
614,218,1556547960.0,,,,,,,,,,,,,,,,,,
615,211,1556548860.0,,,,,,,,,,,,,,,,,,
616,194,1556549760.0,,,,,,,,,,,,,,,,,,
617,181,1556550660.0,,,,,,,,,,,,,,,,,,
618,181,1556551560.0,1017,29-04-2019,Dinner,51.9,4.6,13.3,9.5,285.0,3.0,4.0,81.23,20:56:00,181.0,370.0,22:41:00,165.0,20:56:00,2019-04-29
619,204,1556552460.0,,,,,,,,,,,,,,,,,,
620,242,1556553360.0,,,,,,,,,,,,,,,,,,
621,280,1556554260.0,,,,,,,,,,,,,,,,,,
622,319,1556555160.0,,,,,,,,,,,,,,,,,,
623,336,1556556060.0,,,,,,,,,,,,,,,,,,
624,347,1556556960.0,,,,,,,,,,,,,,,,,,
625,370,1556557860.0,,,,,,,,,,,,,,,,,,
626,368,1556558760.0,,,,,,,,,,,,,,,,,,
627,358,1556559660.0,,,,,,,,,,,,,,,,,,
628,349,1556560560.0,,,,,,,,,,,,,,,,,,
629,342,1556561460.0,,,,,,,,,,,,,,,,,,
630,341,1556562360.0,,,,,,,,,,,,,,,,,,
631,336,1556563260.0,,,,,,,,,,,,,,,,,,
632,319,1556564160.0,,,,,,,,,,,,,,,,,,
633,301,1556565060.0,,,,,,,,,,,,,,,,,,
634,300,1556565960.0,,,,,,,,,,,,,,,,,,
635,297,1556566860.0,,,,,,,,,,,,,,,,,,
636,285,1556567760.0,,,,,,,,,,,,,,,,,,
637,296,1556568660.0,,,,,,,,,,,,,,,,,,
638,303,1556569560.0,,,,,,,,,,,,,,,,,,
639,286,1556570460.0,,,,,,,,,,,,,,,,,,
640,273,1556571360.0,,,,,,,,,,,,,,,,,,
641,257,1556572260.0,,,,,,,,,,,,,,,,,,
642,245,1556573160.0,,,,,,,,,,,,,,,,,,
643,235,1556574060.0,,,,,,,,,,,,,,,,,,
644,222,1556574960.0,,,,,,,,,,,,,,,,,,
645,206,1556575860.0,,,,,,,,,,,,,,,,,,
646,195,1556576760.0,,,,,,,,,,,,,,,,,,
647,185,1556577660.0,,,,,,,,,,,,,,,,,,
648,175,1556578560.0,,,,,,,,,,,,,,,,,,
649,168,1556579460.0,,,,,,,,,,,,,,,,,,
650,168,1556580360.0,,,,,,,,,,,,,,,,,,
651,167,1556581260.0,,,,,,,,,,,,,,,,,,
652,157,1556582160.0,,,,,,,,,,,,,,,,,,
653,151,1556583060.0,,,,,,,,,,,,,,,,,,
654,152,1556583960.0,,,,,,,,,,,,,,,,,,
655,150,1556584860.0,,,,,,,,,,,,,,,,,,
656,155,1556585760.0,,,,,,,,,,,,,,,,,,
657,168,1556586660.0,,,,,,,,,,,,,,,,,,
658,184,1556587560.0,,,,,,,,,,,,,,,,,,
659,197,1556588460.0,,,,,,,,,,,,,,,,,,
660,209,1556589360.0,,,,,,,,,,,,,,,,,,
661,238,1556590260.0,,,,,,,,,,,,,,,,,,
662,270,1556591160.0,,,,,,,,,,,,,,,,,,
663,284,1556592060.0,,,,,,,,,,,,,,,,,,
664,288,1556592960.0,,,,,,,,,,,,,,,,,,
665,279,1556593860.0,,,,,,,,,,,,,,,,,,
666,253,1556594760.0,,,,,,,,,,,,,,,,,,
667,236,1556595660.0,,,,,,,,,,,,,,,,,,
668,231,1556596560.0,1017,30-04-2019,Breakfast,26.4,0.4,0.4,2.6,120.0,2.0,4.0,78.98,09:26:00,231.0,338.0,10:41:00,105.0,09:26:00,2019-04-30
669,246,1556597460.0,,,,,,,,,,,,,,,,,,
670,282,1556598360.0,,,,,,,,,,,,,,,,,,
671,316,1556599260.0,,,,,,,,,,,,,,,,,,
672,336,1556600160.0,,,,,,,,,,,,,,,,,,
673,338,1556601060.0,,,,,,,,,,,,,,,,,,
674,328,1556601960.0,,,,,,,,,,,,,,,,,,
675,322,1556602860.0,,,,,,,,,,,,,,,,,,
676,334,1556603760.0,,,,,,,,,,,,,,,,,,
677,345,1556604660.0,,,,,,,,,,,,,,,,,,
678,339,1556605560.0,,,,,,,,,,,,,,,,,,
679,331,1556606460.0,,,,,,,,,,,,,,,,,,
680,326,1556607360.0,,,,,,,,,,,,,,,,,,
681,321,1556608260.0,,,,,,,,,,,,,,,,,,
682,303,1556609160.0,,,,,,,,,,,,,,,,,,
683,284,1556610060.0,,,,,,,,,,,,,,,,,,
684,273,1556610960.0,,,,,,,,,,,,,,,,,,
685,265,1556611860.0,,,,,,,,,,,,,,,,,,
686,261,1556612760.0,,,,,,,,,,,,,,,,,,
687,272,1556613660.0,,,,,,,,,,,,,,,,,,
688,295,1556614560.0,,,,,,,,,,,,,,,,,,
689,302,1556615460.0,,,,,,,,,,,,,,,,,,
690,296,1556616360.0,,,,,,,,,,,,,,,,,,
691,287,1556617260.0,,,,,,,,,,,,,,,,,,
692,279,1556618160.0,,,,,,,,,,,,,,,,,,
693,284,1556619060.0,,,,,,,,,,,,,,,,,,
694,295,1556619960.0,,,,,,,,,,,,,,,,,,
695,293,1556620860.0,,,,,,,,,,,,,,,,,,
696,281,1556621760.0,,,,,,,,,,,,,,,,,,
697,275,1556622660.0,,,,,,,,,,,,,,,,,,
698,276,1556623560.0,,,,,,,,,,,,,,,,,,
699,277,1556624460.0,,,,,,,,,,,,,,,,,,
700,278,1556625360.0,,,,,,,,,,,,,,,,,,
701,271,1556626260.0,,,,,,,,,,,,,,,,,,
702,274,1556627160.0,,,,,,,,,,,,,,,,,,
703,293,1556628060.0,,,,,,,,,,,,,,,,,,
704,293,1556628960.0,,,,,,,,,,,,,,,,,,
705,272,1556629860.0,,,,,,,,,,,,,,,,,,
706,264,1556630760.0,,,,,,,,,,,,,,,,,,
707,257,1556631660.0,,,,,,,,,,,,,,,,,,
708,243,1556632560.0,,,,,,,,,,,,,,,,,,
709,228,1556633460.0,,,,,,,,,,,,,,,,,,
710,216,1556634360.0,,,,,,,,,,,,,,,,,,
711,207,1556635260.0,,,,,,,,,,,,,,,,,,
712,202,1556636160.0,1017,30-04-2019,Dinner,30.8,3.1,5.3,5.6,174.0,3.0,4.0,76.23,20:26:00,202.0,338.0,22:26:00,195.0,20:26:00,2019-04-30
713,210,1556637060.0,,,,,,,,,,,,,,,,,,
714,240,1556637960.0,,,,,,,,,,,,,,,,,,
715,272,1556638860.0,,,,,,,,,,,,,,,,,,
716,291,1556639760.0,,,,,,,,,,,,,,,,,,
717,310,1556640660.0,,,,,,,,,,,,,,,,,,
718,326,1556641560.0,,,,,,,,,,,,,,,,,,
719,336,1556642460.0,,,,,,,,,,,,,,,,,,
720,338,1556643360.0,,,,,,,,,,,,,,,,,,
721,327,1556644260.0,,,,,,,,,,,,,,,,,,
722,316,1556645160.0,,,,,,,,,,,,,,,,,,
723,299,1556646060.0,,,,,,,,,,,,,,,,,,
724,273,1556646960.0,,,,,,,,,,,,,,,,,,
725,254,1556647860.0,,,,,,,,,,,,,,,,,,
726,253,1556648760.0,,,,,,,,,,,,,,,,,,
727,254,1556649660.0,,,,,,,,,,,,,,,,,,
728,244,1556650560.0,,,,,,,,,,,,,,,,,,
729,234,1556651460.0,,,,,,,,,,,,,,,,,,
730,247,1556652360.0,,,,,,,,,,,,,,,,,,
731,251,1556653260.0,,,,,,,,,,,,,,,,,,
732,245,1556654160.0,,,,,,,,,,,,,,,,,,
733,246,1556655060.0,,,,,,,,,,,,,,,,,,
734,247,1556655960.0,,,,,,,,,,,,,,,,,,
735,249,1556656860.0,,,,,,,,,,,,,,,,,,
736,250,1556657760.0,,,,,,,,,,,,,,,,,,
737,256,1556658660.0,,,,,,,,,,,,,,,,,,
738,265,1556659560.0,,,,,,,,,,,,,,,,,,
739,268,1556660460.0,,,,,,,,,,,,,,,,,,
740,269,1556661360.0,,,,,,,,,,,,,,,,,,
741,264,1556662260.0,,,,,,,,,,,,,,,,,,
742,248,1556663160.0,,,,,,,,,,,,,,,,,,
743,247,1556664060.0,,,,,,,,,,,,,,,,,,
744,242,1556664960.0,,,,,,,,,,,,,,,,,,
745,230,1556665860.0,,,,,,,,,,,,,,,,,,
746,221,1556666760.0,,,,,,,,,,,,,,,,,,
747,221,1556667660.0,,,,,,,,,,,,,,,,,,
748,219,1556668560.0,,,,,,,,,,,,,,,,,,
749,211,1556669460.0,,,,,,,,,,,,,,,,,,
750,207,1556670360.0,,,,,,,,,,,,,,,,,,
751,206,1556671260.0,,,,,,,,,,,,,,,,,,
752,207,1556672160.0,,,,,,,,,,,,,,,,,,
753,213,1556673060.0,,,,,,,,,,,,,,,,,,
754,220,1556673960.0,,,,,,,,,,,,,,,,,,
755,238,1556674860.0,,,,,,,,,,,,,,,,,,
756,257,1556675760.0,,,,,,,,,,,,,,,,,,
757,253,1556676660.0,,,,,,,,,,,,,,,,,,
758,244,1556677560.0,,,,,,,,,,,,,,,,,,
759,258,1556678460.0,,,,,,,,,,,,,,,,,,
760,292,1556679360.0,,,,,,,,,,,,,,,,,,
761,313,1556680260.0,,,,,,,,,,,,,,,,,,
762,306,1556681160.0,,,,,,,,,,,,,,,,,,
763,298,1556682060.0,1017,01-05-2019,Breakfast,26.4,0.4,0.4,2.6,120.0,2.0,4.0,75.58,09:11:00,298.0,379.0,10:26:00,225.0,09:11:00,2019-05-01
764,317,1556682960.0,,,,,,,,,,,,,,,,,,
765,345,1556683860.0,,,,,,,,,,,,,,,,,,
766,362,1556684760.0,,,,,,,,,,,,,,,,,,
767,377,1556685660.0,,,,,,,,,,,,,,,,,,
768,379,1556686560.0,,,,,,,,,,,,,,,,,,
769,377,1556687460.0,,,,,,,,,,,,,,,,,,
770,375,1556688360.0,,,,,,,,,,,,,,,,,,
771,360,1556689260.0,,,,,,,,,,,,,,,,,,
772,341,1556690160.0,,,,,,,,,,,,,,,,,,
773,325,1556691060.0,,,,,,,,,,,,,,,,,,
774,314,1556691960.0,,,,,,,,,,,,,,,,,,
775,310,1556692860.0,,,,,,,,,,,,,,,,,,
776,300,1556693760.0,,,,,,,,,,,,,,,,,,
777,286,1556694660.0,,,,,,,,,,,,,,,,,,
778,275,1556695560.0,,,,,,,,,,,,,,,,,,
779,280,1556696460.0,,,,,,,,,,,,,,,,,,
780,303,1556697360.0,,,,,,,,,,,,,,,,,,
781,309,1556698260.0,,,,,,,,,,,,,,,,,,
782,309,1556699160.0,,,,,,,,,,,,,,,,,,
783,308,1556700060.0,,,,,,,,,,,,,,,,,,
784,301,1556700960.0,,,,,,,,,,,,,,,,,,
785,292,1556701860.0,,,,,,,,,,,,,,,,,,
786,274,1556702760.0,,,,,,,,,,,,,,,,,,
787,247,1556703660.0,,,,,,,,,,,,,,,,,,
788,228,1556704560.0,,,,,,,,,,,,,,,,,,
789,233,1556705460.0,,,,,,,,,,,,,,,,,,
790,242,1556706360.0,,,,,,,,,,,,,,,,,,
791,246,1556707260.0,,,,,,,,,,,,,,,,,,
792,242,1556708160.0,,,,,,,,,,,,,,,,,,
793,231,1556709060.0,,,,,,,,,,,,,,,,,,
794,222,1556709960.0,,,,,,,,,,,,,,,,,,
795,223,1556710860.0,,,,,,,,,,,,,,,,,,
796,248,1556711760.0,,,,,,,,,,,,,,,,,,
797,289,1556712660.0,,,,,,,,,,,,,,,,,,
798,310,1556713560.0,,,,,,,,,,,,,,,,,,
799,310,1556714460.0,,,,,,,,,,,,,,,,,,
800,313,1556715360.0,,,,,,,,,,,,,,,,,,
801,315,1556716260.0,,,,,,,,,,,,,,,,,,
802,305,1556717160.0,,,,,,,,,,,,,,,,,,
803,286,1556718060.0,,,,,,,,,,,,,,,,,,
804,278,1556718960.0,,,,,,,,,,,,,,,,,,
805,289,1556719860.0,,,,,,,,,,,,,,,,,,
806,290,1556720760.0,,,,,,,,,,,,,,,,,,
807,283,1556721660.0,1017,01-05-2019,Dinner,53.9,17.4,13.4,15.8,434.0,3.0,4.0,73.04,20:11:00,283.0,365.0,21:41:00,165.0,20:11:00,2019-05-01
808,292,1556722560.0,,,,,,,,,,,,,,,,,,
809,313,1556723460.0,,,,,,,,,,,,,,,,,,
810,331,1556724360.0,,,,,,,,,,,,,,,,,,
811,338,1556725260.0,,,,,,,,,,,,,,,,,,
812,350,1556726160.0,,,,,,,,,,,,,,,,,,
813,365,1556727060.0,,,,,,,,,,,,,,,,,,
814,354,1556727960.0,,,,,,,,,,,,,,,,,,
815,332,1556728860.0,,,,,,,,,,,,,,,,,,
816,329,1556729760.0,,,,,,,,,,,,,,,,,,
817,327,1556730660.0,,,,,,,,,,,,,,,,,,
818,327,1556731560.0,,,,,,,,,,,,,,,,,,
819,333,1556732460.0,,,,,,,,,,,,,,,,,,
820,326,1556733360.0,,,,,,,,,,,,,,,,,,
821,319,1556734260.0,,,,,,,,,,,,,,,,,,
822,313,1556735160.0,,,,,,,,,,,,,,,,,,
823,309,1556736060.0,,,,,,,,,,,,,,,,,,
824,308,1556736960.0,,,,,,,,,,,,,,,,,,
825,312,1556737860.0,,,,,,,,,,,,,,,,,,
826,311,1556738760.0,,,,,,,,,,,,,,,,,,
827,294,1556739660.0,,,,,,,,,,,,,,,,,,
828,274,1556740560.0,,,,,,,,,,,,,,,,,,
829,257,1556741460.0,,,,,,,,,,,,,,,,,,
830,243,1556742360.0,,,,,,,,,,,,,,,,,,
831,235,1556743260.0,,,,,,,,,,,,,,,,,,
832,226,1556744160.0,,,,,,,,,,,,,,,,,,
833,210,1556745060.0,,,,,,,,,,,,,,,,,,
834,198,1556745960.0,,,,,,,,,,,,,,,,,,
835,192,1556746860.0,,,,,,,,,,,,,,,,,,
836,186,1556747760.0,,,,,,,,,,,,,,,,,,
837,180,1556748660.0,,,,,,,,,,,,,,,,,,
838,178,1556749560.0,,,,,,,,,,,,,,,,,,
839,177,1556750460.0,,,,,,,,,,,,,,,,,,
840,181,1556751360.0,,,,,,,,,,,,,,,,,,
841,179,1556752260.0,,,,,,,,,,,,,,,,,,
842,172,1556753160.0,,,,,,,,,,,,,,,,,,
843,178,1556754060.0,,,,,,,,,,,,,,,,,,
844,181,1556754960.0,,,,,,,,,,,,,,,,,,
845,174,1556755860.0,,,,,,,,,,,,,,,,,,
846,171,1556756760.0,,,,,,,,,,,,,,,,,,
847,171,1556757660.0,,,,,,,,,,,,,,,,,,
848,171,1556758560.0,,,,,,,,,,,,,,,,,,
849,180,1556759460.0,,,,,,,,,,,,,,,,,,
850,193,1556760360.0,,,,,,,,,,,,,,,,,,
851,208,1556761260.0,,,,,,,,,,,,,,,,,,
852,216,1556762160.0,,,,,,,,,,,,,,,,,,
853,218,1556763060.0,,,,,,,,,,,,,,,,,,
854,217,1556763960.0,,,,,,,,,,,,,,,,,,
855,218,1556764860.0,,,,,,,,,,,,,,,,,,
856,218,1556765760.0,,,,,,,,,,,,,,,,,,
857,209,1556766660.0,,,,,,,,,,,,,,,,,,
858,196,1556767560.0,,,,,,,,,,,,,,,,,,
859,188,1556768460.0,,,,,,,,,,,,,,,,,,
860,183,1556769360.0,,,,,,,,,,,,,,,,,,
861,178,1556770260.0,,,,,,,,,,,,,,,,,,
862,172,1556771160.0,,,,,,,,,,,,,,,,,,
863,166,1556772060.0,,,,,,,,,,,,,,,,,,
864,163,1556772960.0,,,,,,,,,,,,,,,,,,
865,177,1556773860.0,,,,,,,,,,,,,,,,,,
866,207,1556774760.0,,,,,,,,,,,,,,,,,,
867,227,1556775660.0,,,,,,,,,,,,,,,,,,
868,238,1556776560.0,,,,,,,,,,,,,,,,,,
869,249,1556777460.0,,,,,,,,,,,,,,,,,,
870,259,1556778360.0,,,,,,,,,,,,,,,,,,
871,270,1556779260.0,,,,,,,,,,,,,,,,,,
872,280,1556780160.0,,,,,,,,,,,,,,,,,,
873,281,1556781060.0,,,,,,,,,,,,,,,,,,
874,267,1556781960.0,,,,,,,,,,,,,,,,,,
875,263,1556782860.0,1017,02-05-2019,Lunch,36.6,12.1,4.6,13.65,321.0,2.0,4.0,72.48,13:11:00,263.0,329.0,14:26:00,105.0,13:11:00,2019-05-02
876,273,1556783760.0,,,,,,,,,,,,,,,,,,
877,276,1556784660.0,,,,,,,,,,,,,,,,,,
878,279,1556785560.0,,,,,,,,,,,,,,,,,,
879,304,1556786460.0,,,,,,,,,,,,,,,,,,
880,329,1556787360.0,,,,,,,,,,,,,,,,,,
881,329,1556788260.0,,,,,,,,,,,,,,,,,,
882,322,1556789160.0,1017,02-05-2019,Lunch,36.6,12.1,4.6,13.65,321.0,2.0,3.0,65.16,14:56:00,322.0,358.0,15:56:00,75.0,14:56:00,2019-05-02
883,325,1556790060.0,,,,,,,,,,,,,,,,,,
884,336,1556790960.0,,,,,,,,,,,,,,,,,,
885,351,1556791860.0,,,,,,,,,,,,,,,,,,
886,358,1556792760.0,,,,,,,,,,,,,,,,,,
887,352,1556793660.0,1017,02-05-2019,Lunch,36.6,12.1,4.6,13.65,321.0,2.0,3.0,56.1,16:11:00,352.0,383.0,17:26:00,270.0,16:11:00,2019-05-02
888,355,1556794560.0,,,,,,,,,,,,,,,,,,
889,368,1556795460.0,,,,,,,,,,,,,,,,,,
890,369,1556796360.0,,,,,,,,,,,,,,,,,,
891,377,1556797260.0,,,,,,,,,,,,,,,,,,
892,383,1556798160.0,,,,,,,,,,,,,,,,,,
893,379,1556799060.0,,,,,,,,,,,,,,,,,,
894,367,1556799960.0,,,,,,,,,,,,,,,,,,
895,343,1556800860.0,,,,,,,,,,,,,,,,,,
896,323,1556801760.0,,,,,,,,,,,,,,,,,,
897,303,1556802660.0,,,,,,,,,,,,,,,,,,
898,280,1556803560.0,,,,,,,,,,,,,,,,,,
899,258,1556804460.0,,,,,,,,,,,,,,,,,,
900,237,1556805360.0,,,,,,,,,,,,,,,,,,
901,222,1556806260.0,,,,,,,,,,,,,,,,,,
902,202,1556807160.0,,,,,,,,,,,,,,,,,,
903,176,1556808060.0,,,,,,,,,,,,,,,,,,
904,160,1556808960.0,,,,,,,,,,,,,,,,,,
905,161,1556809860.0,1017,02-05-2019,Dinner,48.1,15.9,5.8,18.0,423.0,3.0,4.0,71.9,20:41:00,160.0,262.0,22:41:00,180.0,20:41:00,2019-05-02
906,182,1556810760.0,,,,,,,,,,,,,,,,,,
907,210,1556811660.0,,,,,,,,,,,,,,,,,,
908,225,1556812560.0,,,,,,,,,,,,,,,,,,
909,238,1556813460.0,,,,,,,,,,,,,,,,,,
910,252,1556814360.0,,,,,,,,,,,,,,,,,,
911,257,1556815260.0,,,,,,,,,,,,,,,,,,
912,261,1556816160.0,,,,,,,,,,,,,,,,,,
913,262,1556817060.0,,,,,,,,,,,,,,,,,,
914,241,1556817960.0,,,,,,,,,,,,,,,,,,
915,220,1556818860.0,,,,,,,,,,,,,,,,,,
916,205,1556819760.0,,,,,,,,,,,,,,,,,,
917,193,1556820660.0,,,,,,,,,,,,,,,,,,
918,187,1556821560.0,,,,,,,,,,,,,,,,,,
919,183,1556822460.0,,,,,,,,,,,,,,,,,,
920,175,1556823360.0,,,,,,,,,,,,,,,,,,
921,163,1556824260.0,,,,,,,,,,,,,,,,,,
922,150,1556825160.0,,,,,,,,,,,,,,,,,,
923,142,1556826060.0,,,,,,,,,,,,,,,,,,
924,140,1556826960.0,,,,,,,,,,,,,,,,,,
925,144,1556827860.0,,,,,,,,,,,,,,,,,,
926,147,1556828760.0,,,,,,,,,,,,,,,,,,
927,145,1556829660.0,,,,,,,,,,,,,,,,,,
928,144,1556830560.0,,,,,,,,,,,,,,,,,,
929,142,1556831460.0,,,,,,,,,,,,,,,,,,
930,141,1556832360.0,,,,,,,,,,,,,,,,,,
931,142,1556833260.0,,,,,,,,,,,,,,,,,,
932,146,1556834160.0,,,,,,,,,,,,,,,,,,
933,148,1556835060.0,,,,,,,,,,,,,,,,,,
934,144,1556835960.0,,,,,,,,,,,,,,,,,,
935,143,1556836860.0,,,,,,,,,,,,,,,,,,
936,144,1556837760.0,,,,,,,,,,,,,,,,,,
937,142,1556838660.0,,,,,,,,,,,,,,,,,,
938,140,1556839560.0,,,,,,,,,,,,,,,,,,
939,140,1556840460.0,,,,,,,,,,,,,,,,,,
940,139,1556841360.0,,,,,,,,,,,,,,,,,,
941,144,1556842260.0,,,,,,,,,,,,,,,,,,
942,151,1556843160.0,,,,,,,,,,,,,,,,,,
943,153,1556844060.0,,,,,,,,,,,,,,,,,,
944,157,1556844960.0,,,,,,,,,,,,,,,,,,
945,166,1556845860.0,,,,,,,,,,,,,,,,,,
946,177,1556846760.0,,,,,,,,,,,,,,,,,,
947,188,1556847660.0,,,,,,,,,,,,,,,,,,
948,199,1556848560.0,,,,,,,,,,,,,,,,,,
949,214,1556849460.0,,,,,,,,,,,,,,,,,,
950,225,1556850360.0,,,,,,,,,,,,,,,,,,
951,228,1556851260.0,,,,,,,,,,,,,,,,,,
952,218,1556852160.0,,,,,,,,,,,,,,,,,,
953,202,1556853060.0,,,,,,,,,,,,,,,,,,
954,191,1556853960.0,,,,,,,,,,,,,,,,,,
955,183,1556854860.0,,,,,,,,,,,,,,,,,,
956,177,1556855760.0,,,,,,,,,,,,,,,,,,
957,170,1556856660.0,,,,,,,,,,,,,,,,,,
958,162,1556857560.0,,,,,,,,,,,,,,,,,,
959,152,1556858460.0,,,,,,,,,,,,,,,,,,
960,152,1556859360.0,,,,,,,,,,,,,,,,,,
961,187,1556860260.0,,,,,,,,,,,,,,,,,,
962,241,1556861160.0,,,,,,,,,,,,,,,,,,
963,277,1556862060.0,,,,,,,,,,,,,,,,,,
964,300,1556862960.0,,,,,,,,,,,,,,,,,,
965,322,1556863860.0,,,,,,,,,,,,,,,,,,
966,347,1556864760.0,,,,,,,,,,,,,,,,,,
967,366,1556865660.0,,,,,,,,,,,,,,,,,,
968,376,1556866560.0,,,,,,,,,,,,,,,,,,
969,378,1556867460.0,,,,,,,,,,,,,,,,,,
970,381,1556868360.0,,,,,,,,,,,,,,,,,,
971,380,1556869260.0,,,,,,,,,,,,,,,,,,
972,367,1556870160.0,,,,,,,,,,,,,,,,,,
973,354,1556871060.0,,,,,,,,,,,,,,,,,,
974,340,1556871960.0,,,,,,,,,,,,,,,,,,
975,334,1556872860.0,,,,,,,,,,,,,,,,,,
976,327,1556873760.0,,,,,,,,,,,,,,,,,,
977,307,1556874660.0,,,,,,,,,,,,,,,,,,
978,297,1556875560.0,,,,,,,,,,,,,,,,,,
979,297,1556876460.0,,,,,,,,,,,,,,,,,,
980,293,1556877360.0,,,,,,,,,,,,,,,,,,
981,301,1556878260.0,,,,,,,,,,,,,,,,,,
982,326,1556879160.0,,,,,,,,,,,,,,,,,,
983,351,1556880060.0,,,,,,,,,,,,,,,,,,
984,357,1556880960.0,,,,,,,,,,,,,,,,,,
985,356,1556881860.0,,,,,,,,,,,,,,,,,,
986,355,1556882760.0,,,,,,,,,,,,,,,,,,
987,349,1556883660.0,,,,,,,,,,,,,,,,,,
988,349,1556884560.0,,,,,,,,,,,,,,,,,,
989,350,1556885460.0,,,,,,,,,,,,,,,,,,
990,339,1556886360.0,,,,,,,,,,,,,,,,,,
991,326,1556887260.0,,,,,,,,,,,,,,,,,,
992,319,1556888160.0,,,,,,,,,,,,,,,,,,
993,302,1556889060.0,,,,,,,,,,,,,,,,,,
994,283,1556889960.0,,,,,,,,,,,,,,,,,,
995,273,1556890860.0,,,,,,,,,,,,,,,,,,
996,258,1556891760.0,,,,,,,,,,,,,,,,,,
997,249,1556892660.0,,,,,,,,,,,,,,,,,,
998,238,1556893560.0,,,,,,,,,,,,,,,,,,
999,231,1556894460.0,1017,03-05-2019,Dinner,39.92,4.76,1.915,6.045,228.0,3.0,4.0,79.86,20:11:00,231.0,394.0,21:56:00,120.0,20:11:00,2019-05-03
1000,243,1556895360.0,,,,,,,,,,,,,,,,,,
1001,274,1556896260.0,,,,,,,,,,,,,,,,,,
1002,308,1556897160.0,,,,,,,,,,,,,,,,,,
1003,337,1556898060.0,,,,,,,,,,,,,,,,,,
1004,358,1556898960.0,,,,,,,,,,,,,,,,,,
1005,382,1556899860.0,,,,,,,,,,,,,,,,,,
1006,394,1556900760.0,,,,,,,,,,,,,,,,,,
1007,393,1556901660.0,,,,,,,,,,,,,,,,,,
1008,376,1556902560.0,,,,,,,,,,,,,,,,,,
1009,346,1556903460.0,,,,,,,,,,,,,,,,,,
1010,322,1556904360.0,,,,,,,,,,,,,,,,,,
1011,305,1556905260.0,,,,,,,,,,,,,,,,,,
1012,294,1556906160.0,,,,,,,,,,,,,,,,,,
1013,287,1556907060.0,,,,,,,,,,,,,,,,,,
1014,284,1556907960.0,,,,,,,,,,,,,,,,,,
1015,285,1556908860.0,,,,,,,,,,,,,,,,,,
1016,273,1556909760.0,,,,,,,,,,,,,,,,,,
1017,254,1556910660.0,,,,,,,,,,,,,,,,,,
1018,241,1556911560.0,,,,,,,,,,,,,,,,,,
1019,242,1556912460.0,,,,,,,,,,,,,,,,,,
1020,245,1556913360.0,,,,,,,,,,,,,,,,,,
1021,244,1556914260.0,,,,,,,,,,,,,,,,,,
1022,240,1556915160.0,,,,,,,,,,,,,,,,,,
1023,240,1556916060.0,,,,,,,,,,,,,,,,,,
1024,251,1556916960.0,,,,,,,,,,,,,,,,,,
1025,257,1556917860.0,,,,,,,,,,,,,,,,,,
1026,249,1556918760.0,,,,,,,,,,,,,,,,,,
1027,238,1556919660.0,,,,,,,,,,,,,,,,,,
1028,238,1556920560.0,,,,,,,,,,,,,,,,,,
1029,241,1556921460.0,,,,,,,,,,,,,,,,,,
1030,228,1556922360.0,,,,,,,,,,,,,,,,,,
1031,207,1556923260.0,,,,,,,,,,,,,,,,,,
1032,197,1556924160.0,,,,,,,,,,,,,,,,,,
1033,196,1556925060.0,,,,,,,,,,,,,,,,,,
1034,193,1556925960.0,,,,,,,,,,,,,,,,,,
1035,190,1556926860.0,,,,,,,,,,,,,,,,,,
1036,194,1556927760.0,,,,,,,,,,,,,,,,,,
1037,190,1556928660.0,,,,,,,,,,,,,,,,,,
1038,183,1556929560.0,,,,,,,,,,,,,,,,,,
1039,183,1556930460.0,,,,,,,,,,,,,,,,,,
1040,189,1556931360.0,,,,,,,,,,,,,,,,,,
1041,207,1556932260.0,,,,,,,,,,,,,,,,,,
1042,232,1556933160.0,,,,,,,,,,,,,,,,,,
1043,242,1556934060.0,,,,,,,,,,,,,,,,,,
1044,248,1556934960.0,,,,,,,,,,,,,,,,,,
1045,252,1556935860.0,,,,,,,,,,,,,,,,,,
1046,237,1556936760.0,,,,,,,,,,,,,,,,,,
1047,241,1556937660.0,,,,,,,,,,,,,,,,,,
1048,258,1556938560.0,,,,,,,,,,,,,,,,,,
1049,270,1556939460.0,,,,,,,,,,,,,,,,,,
1050,258,1556940360.0,,,,,,,,,,,,,,,,,,
1051,243,1556941260.0,,,,,,,,,,,,,,,,,,
1052,234,1556942160.0,,,,,,,,,,,,,,,,,,
1053,222,1556943060.0,,,,,,,,,,,,,,,,,,
1054,206,1556943960.0,,,,,,,,,,,,,,,,,,
1055,193,1556944860.0,,,,,,,,,,,,,,,,,,
1056,208,1556945760.0,,,,,,,,,,,,,,,,,,
1057,245,1556946660.0,,,,,,,,,,,,,,,,,,
1058,273,1556947560.0,,,,,,,,,,,,,,,,,,
1059,295,1556948460.0,,,,,,,,,,,,,,,,,,
1060,306,1556949360.0,,,,,,,,,,,,,,,,,,
1061,302,1556950260.0,,,,,,,,,,,,,,,,,,
1062,298,1556951160.0,,,,,,,,,,,,,,,,,,
1063,298,1556952060.0,,,,,,,,,,,,,,,,,,
1064,287,1556952960.0,,,,,,,,,,,,,,,,,,
1065,268,1556953860.0,,,,,,,,,,,,,,,,,,
1066,269,1556954760.0,,,,,,,,,,,,,,,,,,
1067,273,1556955660.0,,,,,,,,,,,,,,,,,,
1068,267,1556956560.0,1017,04-05-2019,Lunch,45.6,7.8,11.6,8.0,280.0,3.0,4.0,71.94,13:26:00,267.0,382.0,15:41:00,390.0,13:26:00,2019-05-04
1069,278,1556957460.0,,,,,,,,,,,,,,,,,,
1070,308,1556958360.0,,,,,,,,,,,,,,,,,,
1071,332,1556959260.0,,,,,,,,,,,,,,,,,,
1072,344,1556960160.0,,,,,,,,,,,,,,,,,,
1073,349,1556961060.0,,,,,,,,,,,,,,,,,,
1074,355,1556961960.0,,,,,,,,,,,,,,,,,,
1075,362,1556962860.0,,,,,,,,,,,,,,,,,,
1076,378,1556963760.0,,,,,,,,,,,,,,,,,,
1077,382,1556964660.0,,,,,,,,,,,,,,,,,,
1078,379,1556965560.0,,,,,,,,,,,,,,,,,,
1079,378,1556966460.0,,,,,,,,,,,,,,,,,,
1080,371,1556967360.0,,,,,,,,,,,,,,,,,,
1081,355,1556968260.0,,,,,,,,,,,,,,,,,,
1082,338,1556969160.0,,,,,,,,,,,,,,,,,,
1083,325,1556970060.0,,,,,,,,,,,,,,,,,,
1084,317,1556970960.0,,,,,,,,,,,,,,,,,,
1085,312,1556971860.0,,,,,,,,,,,,,,,,,,
1086,302,1556972760.0,,,,,,,,,,,,,,,,,,
1087,277,1556973660.0,,,,,,,,,,,,,,,,,,
1088,247,1556974560.0,,,,,,,,,,,,,,,,,,
1089,223,1556975460.0,,,,,,,,,,,,,,,,,,
1090,207,1556976360.0,,,,,,,,,,,,,,,,,,
1091,192,1556977260.0,,,,,,,,,,,,,,,,,,
1092,179,1556978160.0,,,,,,,,,,,,,,,,,,
1093,168,1556979060.0,,,,,,,,,,,,,,,,,,
1094,158,1556979960.0,1017,04-05-2019,Dinner,71.0,9.1,16.8,17.2,459.0,3.0,4.0,74.25,19:56:00,158.0,291.0,22:11:00,165.0,19:56:00,2019-05-04
1095,164,1556980860.0,,,,,,,,,,,,,,,,,,
1096,191,1556981760.0,,,,,,,,,,,,,,,,,,
1097,217,1556982660.0,,,,,,,,,,,,,,,,,,
1098,230,1556983560.0,,,,,,,,,,,,,,,,,,
1099,240,1556984460.0,,,,,,,,,,,,,,,,,,
1100,249,1556985360.0,,,,,,,,,,,,,,,,,,
1101,258,1556986260.0,,,,,,,,,,,,,,,,,,
1102,275,1556987160.0,,,,,,,,,,,,,,,,,,
1103,291,1556988060.0,,,,,,,,,,,,,,,,,,
1104,288,1556988960.0,,,,,,,,,,,,,,,,,,
1105,283,1556989860.0,,,,,,,,,,,,,,,,,,
1106,288,1556990760.0,,,,,,,,,,,,,,,,,,
1107,297,1556991660.0,,,,,,,,,,,,,,,,,,
1108,292,1556992560.0,,,,,,,,,,,,,,,,,,
1109,275,1556993460.0,,,,,,,,,,,,,,,,,,
1110,262,1556994360.0,,,,,,,,,,,,,,,,,,
1111,265,1556995260.0,,,,,,,,,,,,,,,,,,
1112,270,1556996160.0,,,,,,,,,,,,,,,,,,
1113,269,1556997060.0,,,,,,,,,,,,,,,,,,
1114,268,1556997960.0,,,,,,,,,,,,,,,,,,
1115,256,1556998860.0,,,,,,,,,,,,,,,,,,
1116,243,1556999760.0,,,,,,,,,,,,,,,,,,
1117,226,1557000660.0,,,,,,,,,,,,,,,,,,
1118,209,1557001560.0,,,,,,,,,,,,,,,,,,
1119,201,1557002460.0,,,,,,,,,,,,,,,,,,
1120,211,1557003360.0,,,,,,,,,,,,,,,,,,
1121,220,1557004260.0,,,,,,,,,,,,,,,,,,
1122,215,1557005160.0,,,,,,,,,,,,,,,,,,
1123,201,1557006060.0,,,,,,,,,,,,,,,,,,
1124,187,1557006960.0,,,,,,,,,,,,,,,,,,
1125,183,1557007860.0,,,,,,,,,,,,,,,,,,
1126,175,1557008760.0,,,,,,,,,,,,,,,,,,
1127,169,1557009660.0,,,,,,,,,,,,,,,,,,
1128,171,1557010560.0,,,,,,,,,,,,,,,,,,
1129,165,1557011460.0,,,,,,,,,,,,,,,,,,
1130,159,1557012360.0,,,,,,,,,,,,,,,,,,
1131,163,1557013260.0,,,,,,,,,,,,,,,,,,
1132,161,1557014160.0,,,,,,,,,,,,,,,,,,
1133,158,1557015060.0,,,,,,,,,,,,,,,,,,
1134,162,1557015960.0,,,,,,,,,,,,,,,,,,
1135,168,1557016860.0,,,,,,,,,,,,,,,,,,
1136,177,1557017760.0,,,,,,,,,,,,,,,,,,
1137,184,1557018660.0,,,,,,,,,,,,,,,,,,
1138,188,1557019560.0,,,,,,,,,,,,,,,,,,
1139,199,1557020460.0,,,,,,,,,,,,,,,,,,
1140,215,1557021360.0,,,,,,,,,,,,,,,,,,
1141,228,1557022260.0,,,,,,,,,,,,,,,,,,
1142,240,1557023160.0,,,,,,,,,,,,,,,,,,
1143,250,1557024060.0,,,,,,,,,,,,,,,,,,
1144,251,1557024960.0,,,,,,,,,,,,,,,,,,
1145,237,1557025860.0,,,,,,,,,,,,,,,,,,
1146,225,1557026760.0,1017,05-05-2019,Breakfast,29.7,3.8,1.55,4.45,174.0,3.0,4.0,79.58,08:56:00,225.0,361.0,10:26:00,240.0,08:56:00,2019-05-05
1147,242,1557027660.0,,,,,,,,,,,,,,,,,,
1148,270,1557028560.0,,,,,,,,,,,,,,,,,,
1149,301,1557029460.0,,,,,,,,,,,,,,,,,,
1150,329,1557030360.0,,,,,,,,,,,,,,,,,,
1151,345,1557031260.0,,,,,,,,,,,,,,,,,,
1152,361,1557032160.0,,,,,,,,,,,,,,,,,,
1153,361,1557033060.0,,,,,,,,,,,,,,,,,,
1154,339,1557033960.0,,,,,,,,,,,,,,,,,,
1155,309,1557034860.0,,,,,,,,,,,,,,,,,,
1156,282,1557035760.0,,,,,,,,,,,,,,,,,,
1157,268,1557036660.0,,,,,,,,,,,,,,,,,,
1158,263,1557037560.0,,,,,,,,,,,,,,,,,,
1159,254,1557038460.0,,,,,,,,,,,,,,,,,,
1160,237,1557039360.0,,,,,,,,,,,,,,,,,,
1161,218,1557040260.0,,,,,,,,,,,,,,,,,,
1162,205,1557041160.0,1017,05-05-2019,Lunch,40.2,17.5,9.6,23.6,390.0,2.0,4.0,79.95,12:56:00,205.0,299.0,13:56:00,195.0,12:56:00,2019-05-05
1163,209,1557042060.0,,,,,,,,,,,,,,,,,,
1164,234,1557042960.0,,,,,,,,,,,,,,,,,,
1165,271,1557043860.0,,,,,,,,,,,,,,,,,,
1166,299,1557044760.0,,,,,,,,,,,,,,,,,,
1167,297,1557045660.0,,,,,,,,,,,,,,,,,,
1168,291,1557046560.0,,,,,,,,,,,,,,,,,,
1169,285,1557047460.0,,,,,,,,,,,,,,,,,,
1170,278,1557048360.0,,,,,,,,,,,,,,,,,,
1171,271,1557049260.0,,,,,,,,,,,,,,,,,,
1172,266,1557050160.0,,,,,,,,,,,,,,,,,,
1173,266,1557051060.0,,,,,,,,,,,,,,,,,,
1174,262,1557051960.0,,,,,,,,,,,,,,,,,,
1175,255,1557052860.0,,,,,,,,,,,,,,,,,,
1176,256,1557053760.0,1017,05-05-2019,Lunch,40.2,17.5,9.6,23.6,390.0,2.0,3.0,63.89,16:26:00,255.0,289.0,17:26:00,210.0,16:26:00,2019-05-05
1177,266,1557054660.0,,,,,,,,,,,,,,,,,,
1178,273,1557055560.0,,,,,,,,,,,,,,,,,,
1179,281,1557056460.0,,,,,,,,,,,,,,,,,,
1180,289,1557057360.0,,,,,,,,,,,,,,,,,,
1181,277,1557058260.0,,,,,,,,,,,,,,,,,,
1182,262,1557059160.0,,,,,,,,,,,,,,,,,,
1183,258,1557060060.0,,,,,,,,,,,,,,,,,,
1184,248,1557060960.0,,,,,,,,,,,,,,,,,,
1185,238,1557061860.0,,,,,,,,,,,,,,,,,,
1186,228,1557062760.0,,,,,,,,,,,,,,,,,,
1187,218,1557063660.0,,,,,,,,,,,,,,,,,,
1188,207,1557064560.0,,,,,,,,,,,,,,,,,,
1189,203,1557065460.0,,,,,,,,,,,,,,,,,,
1190,202,1557066360.0,,,,,,,,,,,,,,,,,,
1191,202,1557067260.0,,,,,,,,,,,,,,,,,,
1192,204,1557068160.0,,,,,,,,,,,,,,,,,,
1193,201,1557069060.0,1017,05-05-2019,Dinner,87.6,17.3,15.6,32.2,612.0,2.0,4.0,80.15,20:41:00,201.0,297.0,21:41:00,90.0,20:41:00,2019-05-05
1194,205,1557069960.0,,,,,,,,,,,,,,,,,,
1195,236,1557070860.0,,,,,,,,,,,,,,,,,,
1196,278,1557071760.0,,,,,,,,,,,,,,,,,,
1197,297,1557072660.0,,,,,,,,,,,,,,,,,,
1198,289,1557073560.0,,,,,,,,,,,,,,,,,,
1199,289,1557074460.0,,,,,,,,,,,,,,,,,,
1200,303,1557075360.0,,,,,,,,,,,,,,,,,,
1201,306,1557076260.0,,,,,,,,,,,,,,,,,,
1202,291,1557077160.0,,,,,,,,,,,,,,,,,,
1203,276,1557078060.0,,,,,,,,,,,,,,,,,,
1204,255,1557078960.0,,,,,,,,,,,,,,,,,,
1205,240,1557079860.0,,,,,,,,,,,,,,,,,,
1206,239,1557080760.0,,,,,,,,,,,,,,,,,,
1207,238,1557081660.0,,,,,,,,,,,,,,,,,,
1208,224,1557082560.0,,,,,,,,,,,,,,,,,,
1209,218,1557083460.0,,,,,,,,,,,,,,,,,,
1210,223,1557084360.0,,,,,,,,,,,,,,,,,,
1211,225,1557085260.0,,,,,,,,,,,,,,,,,,
1212,222,1557086160.0,,,,,,,,,,,,,,,,,,
1213,217,1557087060.0,,,,,,,,,,,,,,,,,,
1214,213,1557087960.0,,,,,,,,,,,,,,,,,,
1215,208,1557088860.0,,,,,,,,,,,,,,,,,,
1216,199,1557089760.0,,,,,,,,,,,,,,,,,,
1217,190,1557090660.0,,,,,,,,,,,,,,,,,,
1218,180,1557091560.0,,,,,,,,,,,,,,,,,,
1219,171,1557092460.0,,,,,,,,,,,,,,,,,,
1220,170,1557093360.0,,,,,,,,,,,,,,,,,,
1221,169,1557094260.0,,,,,,,,,,,,,,,,,,
1222,162,1557095160.0,,,,,,,,,,,,,,,,,,
1223,155,1557096060.0,,,,,,,,,,,,,,,,,,
1224,151,1557096960.0,,,,,,,,,,,,,,,,,,
1225,149,1557097860.0,,,,,,,,,,,,,,,,,,
1226,149,1557098760.0,,,,,,,,,,,,,,,,,,
1227,151,1557099660.0,,,,,,,,,,,,,,,,,,
1228,153,1557100560.0,,,,,,,,,,,,,,,,,,
1229,152,1557101460.0,,,,,,,,,,,,,,,,,,
1230,153,1557102360.0,,,,,,,,,,,,,,,,,,
1231,151,1557103260.0,,,,,,,,,,,,,,,,,,
1232,151,1557104160.0,,,,,,,,,,,,,,,,,,
1233,159,1557105060.0,,,,,,,,,,,,,,,,,,
1234,173,1557105960.0,,,,,,,,,,,,,,,,,,
1235,193,1557106860.0,,,,,,,,,,,,,,,,,,
1236,210,1557107760.0,,,,,,,,,,,,,,,,,,
1237,223,1557108660.0,,,,,,,,,,,,,,,,,,
1238,237,1557109560.0,,,,,,,,,,,,,,,,,,
1239,243,1557110460.0,,,,,,,,,,,,,,,,,,
1240,242,1557111360.0,,,,,,,,,,,,,,,,,,
1241,236,1557112260.0,,,,,,,,,,,,,,,,,,
1242,232,1557113160.0,1017,06-05-2019,Breakfast,57.0,6.4,2.425,8.375,325.0,3.0,4.0,75.69,08:56:00,232.0,330.0,10:26:00,165.0,08:56:00,2019-05-06
1243,234,1557114060.0,,,,,,,,,,,,,,,,,,
1244,252,1557114960.0,,,,,,,,,,,,,,,,,,
1245,272,1557115860.0,,,,,,,,,,,,,,,,,,
1246,282,1557116760.0,,,,,,,,,,,,,,,,,,
1247,306,1557117660.0,,,,,,,,,,,,,,,,,,
1248,330,1557118560.0,,,,,,,,,,,,,,,,,,
1249,330,1557119460.0,,,,,,,,,,,,,,,,,,
1250,318,1557120360.0,,,,,,,,,,,,,,,,,,
1251,318,1557121260.0,,,,,,,,,,,,,,,,,,
1252,314,1557122160.0,,,,,,,,,,,,,,,,,,
1253,292,1557123060.0,1017,06-05-2019,Lunch,60.8,12.2,20.5,14.2,421.0,4.0,4.0,72.1,11:41:00,292.0,421.0,14:11:00,360.0,11:41:00,2019-05-06
1254,297,1557123960.0,,,,,,,,,,,,,,,,,,
1255,317,1557124860.0,,,,,,,,,,,,,,,,,,
1256,329,1557125760.0,,,,,,,,,,,,,,,,,,
1257,339,1557126660.0,,,,,,,,,,,,,,,,,,
1258,357,1557127560.0,,,,,,,,,,,,,,,,,,
1259,384,1557128460.0,,,,,,,,,,,,,,,,,,
1260,402,1557129360.0,,,,,,,,,,,,,,,,,,
1261,407,1557130260.0,,,,,,,,,,,,,,,,,,
1262,415,1557131160.0,,,,,,,,,,,,,,,,,,
1263,421,1557132060.0,,,,,,,,,,,,,,,,,,
1264,419,1557132960.0,,,,,,,,,,,,,,,,,,
1265,408,1557133860.0,,,,,,,,,,,,,,,,,,
1266,386,1557134760.0,,,,,,,,,,,,,,,,,,
1267,357,1557135660.0,,,,,,,,,,,,,,,,,,
1268,340,1557136560.0,,,,,,,,,,,,,,,,,,
1269,330,1557137460.0,,,,,,,,,,,,,,,,,,
1270,323,1557138360.0,,,,,,,,,,,,,,,,,,
1271,320,1557139260.0,,,,,,,,,,,,,,,,,,
1272,309,1557140160.0,,,,,,,,,,,,,,,,,,
1273,296,1557141060.0,,,,,,,,,,,,,,,,,,
1274,284,1557141960.0,,,,,,,,,,,,,,,,,,
1275,278,1557142860.0,,,,,,,,,,,,,,,,,,
1276,269,1557143760.0,,,,,,,,,,,,,,,,,,
1277,252,1557144660.0,,,,,,,,,,,,,,,,,,
1278,255,1557145560.0,,,,,,,,,,,,,,,,,,
1279,259,1557146460.0,,,,,,,,,,,,,,,,,,
1280,246,1557147360.0,,,,,,,,,,,,,,,,,,
1281,231,1557148260.0,,,,,,,,,,,,,,,,,,
1282,217,1557149160.0,,,,,,,,,,,,,,,,,,
1283,192,1557150060.0,,,,,,,,,,,,,,,,,,
1284,172,1557150960.0,,,,,,,,,,,,,,,,,,
1285,166,1557151860.0,,,,,,,,,,,,,,,,,,
1286,159,1557152760.0,,,,,,,,,,,,,,,,,,
1287,155,1557153660.0,1017,06-05-2019,Dinner,85.75,23.25,6.25,13.25,605.0,3.0,4.0,80.0,20:11:00,155.0,344.0,22:11:00,210.0,20:11:00,2019-05-06
1288,158,1557154560.0,,,,,,,,,,,,,,,,,,
1289,182,1557155460.0,,,,,,,,,,,,,,,,,,
1290,227,1557156360.0,,,,,,,,,,,,,,,,,,
1291,261,1557157260.0,,,,,,,,,,,,,,,,,,
1292,281,1557158160.0,,,,,,,,,,,,,,,,,,
1293,302,1557159060.0,,,,,,,,,,,,,,,,,,
1294,332,1557159960.0,,,,,,,,,,,,,,,,,,
1295,344,1557160860.0,,,,,,,,,,,,,,,,,,
1296,337,1557161760.0,,,,,,,,,,,,,,,,,,
1297,333,1557162660.0,,,,,,,,,,,,,,,,,,
1298,309,1557163560.0,,,,,,,,,,,,,,,,,,
1299,287,1557164460.0,,,,,,,,,,,,,,,,,,
1300,278,1557165360.0,,,,,,,,,,,,,,,,,,
1301,271,1557166260.0,,,,,,,,,,,,,,,,,,
1302,268,1557167160.0,,,,,,,,,,,,,,,,,,
1303,258,1557168060.0,,,,,,,,,,,,,,,,,,
1304,243,1557168960.0,,,,,,,,,,,,,,,,,,
1305,231,1557169860.0,,,,,,,,,,,,,,,,,,
1306,232,1557170760.0,,,,,,,,,,,,,,,,,,
1307,235,1557171660.0,,,,,,,,,,,,,,,,,,
1308,228,1557172560.0,,,,,,,,,,,,,,,,,,
1309,212,1557173460.0,,,,,,,,,,,,,,,,,,
1310,196,1557174360.0,,,,,,,,,,,,,,,,,,
1311,196,1557175260.0,,,,,,,,,,,,,,,,,,
1312,204,1557176160.0,,,,,,,,,,,,,,,,,,
1313,207,1557177060.0,,,,,,,,,,,,,,,,,,
1314,197,1557177960.0,,,,,,,,,,,,,,,,,,
1315,187,1557178860.0,,,,,,,,,,,,,,,,,,
1316,187,1557179760.0,,,,,,,,,,,,,,,,,,
1317,180,1557180660.0,,,,,,,,,,,,,,,,,,
1318,172,1557181560.0,,,,,,,,,,,,,,,,,,
1319,171,1557182460.0,,,,,,,,,,,,,,,,,,
1320,169,1557183360.0,,,,,,,,,,,,,,,,,,
1321,164,1557184260.0,,,,,,,,,,,,,,,,,,
1322,159,1557185160.0,,,,,,,,,,,,,,,,,,
1323,156,1557186060.0,,,,,,,,,,,,,,,,,,
1324,157,1557186960.0,,,,,,,,,,,,,,,,,,
1325,161,1557187860.0,,,,,,,,,,,,,,,,,,
1326,163,1557188760.0,,,,,,,,,,,,,,,,,,
1327,162,1557189660.0,,,,,,,,,,,,,,,,,,
1328,170,1557190560.0,,,,,,,,,,,,,,,,,,
1329,193,1557191460.0,,,,,,,,,,,,,,,,,,
1330,214,1557192360.0,,,,,,,,,,,,,,,,,,
1331,206,1557193260.0,,,,,,,,,,,,,,,,,,
1332,201,1557194160.0,,,,,,,,,,,,,,,,,,
1333,204,1557195060.0,,,,,,,,,,,,,,,,,,
1334,200,1557195960.0,,,,,,,,,,,,,,,,,,
1335,205,1557196860.0,,,,,,,,,,,,,,,,,,
1336,237,1557197760.0,,,,,,,,,,,,,,,,,,
1337,280,1557198660.0,,,,,,,,,,,,,,,,,,
1338,305,1557199560.0,,,,,,,,,,,,,,,,,,
