,glucose,timestamp,id,date,time,carbs,fat,fiber,protein,calories,mealSize,mealType,slope,mealTime,initialGlucose,peakGlucose,peakTime,cycleDuration,init_time,day,steps
0,137,1562746680.0,,,,,,,,,,,,,,,,,,,
1,148,1562747580.0,,,,,,,,,,,,,,,,,,,
2,168,1562748480.0,,,,,,,,,,,,,,,,,,,
3,189,1562749380.0,,,,,,,,,,,,,,,,,,,
4,165,1562750280.0,,,,,,,,,,,,,,,,,,,
5,122,1562751180.0,,,,,,,,,,,,,,,,,,,
6,120,1562752080.0,,,,,,,,,,,,,,,,,,,
7,142,1562752980.0,,,,,,,,,,,,,,,,,,,
8,147,1562753880.0,,,,,,,,,,,,,,,,,,,
9,137,1562754780.0,,,,,,,,,,,,,,,,,,,
10,121,1562755680.0,,,,,,,,,,,,,,,,,,,
11,119,1562756580.0,,,,,,,,,,,,,,,,,,,
12,126,1562757480.0,,,,,,,,,,,,,,,,,,,
13,121,1562758380.0,,,,,,,,,,,,,,,,,,,
14,120,1562759280.0,,,,,,,,,,,,,,,,,,,
15,125,1562760180.0,,,,,,,,,,,,,,,,,,,
16,126,1562761080.0,,,,,,,,,,,,,,,,,,,
17,124,1562761980.0,,,,,,,,,,,,,,,,,,,
18,121,1562762880.0,,,,,,,,,,,,,,,,,,,
19,117,1562763780.0,,,,,,,,,,,,,,,,,,,
20,109,1562764680.0,,,,,,,,,,,,,,,,,,,
21,100,1562765580.0,,,,,,,,,,,,,,,,,,,
22,92,1562766480.0,,,,,,,,,,,,,,,,,,,
23,87,1562767380.0,,,,,,,,,,,,,,,,,,,
24,88,1562768280.0,,,,,,,,,,,,,,,,,,,
25,84,1562769180.0,,,,,,,,,,,,,,,,,,,
26,104,1562770080.0,,,,,,,,,,,,,,,,,,,
27,141,1562770980.0,,,,,,,,,,,,,,,,,,,
28,160,1562771880.0,,,,,,,,,,,,,,,,,,,
29,170,1562772780.0,,,,,,,,,,,,,,,,,,,
30,190,1562773680.0,,,,,,,,,,,,,,,,,,,
31,207,1562774580.0,,,,,,,,,,,,,,,,,,,
32,200,1562775480.0,,,,,,,,,,,,,,,,,,,
33,177,1562776380.0,,,,,,,,,,,,,,,,,,,
34,156,1562777280.0,,,,,,,,,,,,,,,,,,,
35,145,1562778180.0,,,,,,,,,,,,,,,,,,,
36,141,1562779080.0,,,,,,,,,,,,,,,,,,,
37,124,1562779980.0,,,,,,,,,,,,,,,,,,,
38,110,1562780880.0,,,,,,,,,,,,,,,,,,,
39,102,1562781780.0,,,,,,,,,,,,,,,,,,,
40,87,1562782680.0,,,,,,,,,,,,,,,,,,,
41,78,1562783580.0,,,,,,,,,,,,,,,,,,,
42,80,1562784480.0,,,,,,,,,,,,,,,,,,,
43,92,1562785380.0,,,,,,,,,,,,,,,,,,,
44,104,1562786280.0,,,,,,,,,,,,,,,,,,,
45,99,1562787180.0,,,,,,,,,,,,,,,,,,,
46,90,1562788080.0,,,,,,,,,,,,,,,,,,,
47,82,1562788980.0,,,,,,,,,,,,,,,,,,,
48,76,1562789880.0,,,,,,,,,,,,,,,,,,,
49,84,1562790780.0,,,,,,,,,,,,,,,,,,,
50,94,1562791680.0,,,,,,,,,,,,,,,,,,,
51,83,1562792580.0,,,,,,,,,,,,,,,,,,,
52,79,1562793480.0,,,,,,,,,,,,,,,,,,,
53,90,1562794380.0,,,,,,,,,,,,,,,,,,,
54,91,1562795280.0,,,,,,,,,,,,,,,,,,,
55,88,1562796180.0,,,,,,,,,,,,,,,,,,,
56,86,1562797080.0,,,,,,,,,,,,,,,,,,,
57,84,1562797980.0,,,,,,,,,,,,,,,,,,,
58,85,1562798880.0,,,,,,,,,,,,,,,,,,,
59,87,1562799780.0,,,,,,,,,,,,,,,,,,,
60,88,1562800680.0,,,,,,,,,,,,,,,,,,,
61,90,1562801580.0,,,,,,,,,,,,,,,,,,,
62,100,1562802480.0,,,,,,,,,,,,,,,,,,,
63,108,1562803380.0,,,,,,,,,,,,,,,,,,,
64,109,1562804280.0,,,,,,,,,,,,,,,,,,,
65,106,1562805180.0,,,,,,,,,,,,,,,,,,,
66,107,1562806080.0,,,,,,,,,,,,,,,,,,,
67,111,1562806980.0,,,,,,,,,,,,,,,,,,,
68,111,1562807880.0,,,,,,,,,,,,,,,,,,,
69,110,1562808780.0,,,,,,,,,,,,,,,,,,,
70,118,1562809680.0,,,,,,,,,,,,,,,,,,,
71,129,1562810580.0,,,,,,,,,,,,,,,,,,,
72,131,1562811480.0,,,,,,,,,,,,,,,,,,,
73,119,1562812380.0,,,,,,,,,,,,,,,,,,,
74,109,1562813280.0,,,,,,,,,,,,,,,,,,,
75,109,1562814180.0,,,,,,,,,,,,,,,,,,,
76,109,1562815080.0,,,,,,,,,,,,,,,,,,,
77,105,1562815980.0,,,,,,,,,,,,,,,,,,,
78,101,1562816880.0,,,,,,,,,,,,,,,,,,,
79,106,1562817780.0,,,,,,,,,,,,,,,,,,,
80,122,1562818680.0,,,,,,,,,,,,,,,,,,,
81,146,1562819580.0,,,,,,,,,,,,,,,,,,,
82,164,1562820480.0,,,,,,,,,,,,,,,,,,,
83,168,1562821380.0,,,,,,,,,,,,,,,,,,,
84,159,1562822280.0,,,,,,,,,,,,,,,,,,,
85,158,1562823180.0,,,,,,,,,,,,,,,,,,,
86,161,1562824080.0,,,,,,,,,,,,,,,,,,,
87,158,1562824980.0,,,,,,,,,,,,,,,,,,,
88,149,1562825880.0,,,,,,,,,,,,,,,,,,,
89,138,1562826780.0,,,,,,,,,,,,,,,,,,,
90,146,1562827680.0,,,,,,,,,,,,,,,,,,,
91,163,1562828580.0,,,,,,,,,,,,,,,,,,,
92,154,1562829480.0,,,,,,,,,,,,,,,,,,,
93,131,1562830380.0,,,,,,,,,,,,,,,,,,,
94,122,1562831280.0,,,,,,,,,,,,,,,,,,,
95,128,1562832180.0,,,,,,,,,,,,,,,,,,,
96,139,1562833080.0,,,,,,,,,,,,,,,,,,,
97,152,1562833980.0,,,,,,,,,,,,,,,,,,,
98,173,1562834880.0,,,,,,,,,,,,,,,,,,,
99,191,1562835780.0,,,,,,,,,,,,,,,,,,,
100,195,1562836680.0,,,,,,,,,,,,,,,,,,,
101,185,1562837580.0,,,,,,,,,,,,,,,,,,,
102,171,1562838480.0,,,,,,,,,,,,,,,,,,,
103,152,1562839380.0,,,,,,,,,,,,,,,,,,,
104,143,1562840280.0,,,,,,,,,,,,,,,,,,,
105,141,1562841180.0,,,,,,,,,,,,,,,,,,,
106,132,1562842080.0,,,,,,,,,,,,,,,,,,,
107,125,1562842980.0,,,,,,,,,,,,,,,,,,,
108,121,1562843880.0,,,,,,,,,,,,,,,,,,,
109,118,1562844780.0,,,,,,,,,,,,,,,,,,,
110,125,1562845680.0,,,,,,,,,,,,,,,,,,,
111,133,1562846580.0,,,,,,,,,,,,,,,,,,,
112,134,1562847480.0,,,,,,,,,,,,,,,,,,,
113,120,1562848380.0,,,,,,,,,,,,,,,,,,,
114,106,1562849280.0,,,,,,,,,,,,,,,,,,,
115,107,1562850180.0,,,,,,,,,,,,,,,,,,,
116,112,1562851080.0,,,,,,,,,,,,,,,,,,,
117,116,1562851980.0,,,,,,,,,,,,,,,,,,,
118,121,1562852880.0,,,,,,,,,,,,,,,,,,,
119,128,1562853780.0,,,,,,,,,,,,,,,,,,,
120,133,1562854680.0,,,,,,,,,,,,,,,,,,,
121,136,1562855580.0,,,,,,,,,,,,,,,,,,,
122,150,1562856480.0,,,,,,,,,,,,,,,,,,,
123,166,1562857380.0,,,,,,,,,,,,,,,,,,,
124,169,1562858280.0,,,,,,,,,,,,,,,,,,,
125,164,1562859180.0,,,,,,,,,,,,,,,,,,,
126,166,1562860080.0,,,,,,,,,,,,,,,,,,,
127,169,1562860980.0,,,,,,,,,,,,,,,,,,,
128,174,1562861880.0,,,,,,,,,,,,,,,,,,,
129,178,1562862780.0,,,,,,,,,,,,,,,,,,,
130,179,1562863680.0,,,,,,,,,,,,,,,,,,,
131,178,1562864580.0,,,,,,,,,,,,,,,,,,,
132,173,1562865480.0,,,,,,,,,,,,,,,,,,,
133,176,1562866380.0,,,,,,,,,,,,,,,,,,,
134,174,1562867280.0,,,,,,,,,,,,,,,,,,,
135,157,1562868180.0,,,,,,,,,,,,,,,,,,,
136,140,1562869080.0,,,,,,,,,,,,,,,,,,,
137,147,1562869980.0,,,,,,,,,,,,,,,,,,,
138,157,1562870880.0,,,,,,,,,,,,,,,,,,,
139,149,1562871780.0,,,,,,,,,,,,,,,,,,,
140,137,1562872680.0,,,,,,,,,,,,,,,,,,,
141,122,1562873580.0,,,,,,,,,,,,,,,,,,,
142,114,1562874480.0,,,,,,,,,,,,,,,,,,,
143,108,1562875380.0,,,,,,,,,,,,,,,,,,,
144,96,1562876280.0,,,,,,,,,,,,,,,,,,,
145,85,1562877180.0,,,,,,,,,,,,,,,,,,,
146,82,1562878080.0,,,,,,,,,,,,,,,,,,,
147,80,1562878980.0,,,,,,,,,,,,,,,,,,,
148,82,1562879880.0,,,,,,,,,,,,,,,,,,,
149,78,1562880780.0,,,,,,,,,,,,,,,,,,,
150,69,1562881680.0,,,,,,,,,,,,,,,,,,,
151,75,1562882580.0,,,,,,,,,,,,,,,,,,,
152,82,1562883480.0,,,,,,,,,,,,,,,,,,,
153,72,1562884380.0,,,,,,,,,,,,,,,,,,,
154,65,1562885280.0,,,,,,,,,,,,,,,,,,,
155,74,1562886180.0,,,,,,,,,,,,,,,,,,,
156,82,1562887080.0,,,,,,,,,,,,,,,,,,,
157,85,1562887980.0,,,,,,,,,,,,,,,,,,,
158,91,1562888880.0,,,,,,,,,,,,,,,,,,,
159,93,1562889780.0,,,,,,,,,,,,,,,,,,,
160,94,1562890680.0,,,,,,,,,,,,,,,,,,,
161,99,1562891580.0,,,,,,,,,,,,,,,,,,,
162,102,1562892480.0,,,,,,,,,,,,,,,,,,,
163,101,1562893380.0,,,,,,,,,,,,,,,,,,,
164,100,1562894280.0,,,,,,,,,,,,,,,,,,,
165,105,1562895180.0,,,,,,,,,,,,,,,,,,,
166,119,1562896080.0,,,,,,,,,,,,,,,,,,,
167,126,1562896980.0,,,,,,,,,,,,,,,,,,,
168,117,1562897880.0,,,,,,,,,,,,,,,,,,,
169,110,1562898780.0,,,,,,,,,,,,,,,,,,,
170,104,1562899680.0,,,,,,,,,,,,,,,,,,,
171,98,1562900580.0,,,,,,,,,,,,,,,,,,,
172,95,1562901480.0,,,,,,,,,,,,,,,,,,,
173,94,1562902380.0,1242,12-07-2019,Breakfast,40.9,4.9,2.6,6.4,235.0,2.0,2.0,54.07,09:03:00,94.0,117.0,10:03:00,90.0,09:03:00,2019-07-12,
174,96,1562903280.0,,,,,,,,,,,,,,,,,,,
175,106,1562904180.0,,,,,,,,,,,,,,,,,,,
176,115,1562905080.0,,,,,,,,,,,,,,,,,,,
177,117,1562905980.0,,,,,,,,,,,,,,,,,,,
178,114,1562906880.0,,,,,,,,,,,,,,,,,,,
179,112,1562907780.0,,,,,,,,,,,,,,,,,,,
180,128,1562908680.0,,,,,,,,,,,,,,,,,,,
181,157,1562909580.0,,,,,,,,,,,,,,,,,,,
182,172,1562910480.0,,,,,,,,,,,,,,,,,,,
183,166,1562911380.0,,,,,,,,,,,,,,,,,,,
184,154,1562912280.0,,,,,,,,,,,,,,,,,,,
185,143,1562913180.0,,,,,,,,,,,,,,,,,,,
186,138,1562914080.0,,,,,,,,,,,,,,,,,,,
187,125,1562914980.0,,,,,,,,,,,,,,,,,,,
188,100,1562915880.0,,,,,,,,,,,,,,,,,,,
189,90,1562916780.0,,,,,,,,,,,,,,,,,,,
190,88,1562917680.0,,,,,,,,,,,,,,,,,,,
191,89,1562918580.0,,,,,,,,,,,,,,,,,,,
192,91,1562919480.0,,,,,,,,,,,,,,,,,,,
193,89,1562920380.0,,,,,,,,,,,,,,,,,,,
194,91,1562921280.0,,,,,,,,,,,,,,,,,,,
195,102,1562922180.0,,,,,,,,,,,,,,,,,,,
196,106,1562923080.0,,,,,,,,,,,,,,,,,,,
197,100,1562923980.0,1242,12-07-2019,Lunch,28.6,1.4,5.0,4.6,145.0,2.0,4.0,78.37,15:03:00,100.0,181.0,16:03:00,150.0,15:03:00,2019-07-12,
198,110,1562924880.0,,,,,,,,,,,,,,,,,,,
199,141,1562925780.0,,,,,,,,,,,,,,,,,,,
200,168,1562926680.0,,,,,,,,,,,,,,,,,,,
201,181,1562927580.0,,,,,,,,,,,,,,,,,,,
202,181,1562928480.0,,,,,,,,,,,,,,,,,,,
203,168,1562929380.0,,,,,,,,,,,,,,,,,,,
204,146,1562930280.0,,,,,,,,,,,,,,,,,,,
205,126,1562931180.0,,,,,,,,,,,,,,,,,,,
206,113,1562932080.0,,,,,,,,,,,,,,,,,,,
207,114,1562932980.0,,,,,,,,,,,,,,,,,,,
208,117,1562933880.0,,,,,,,,,,,,,,,,,,,
209,114,1562934780.0,,,,,,,,,,,,,,,,,,,
210,109,1562935680.0,,,,,,,,,,,,,,,,,,,
211,98,1562936580.0,,,,,,,,,,,,,,,,,,,
212,91,1562937480.0,,,,,,,,,,,,,,,,,,,
213,85,1562938380.0,,,,,,,,,,,,,,,,,,,
214,84,1562939280.0,1242,12-07-2019,Dinner,31.7,8.7,2.6,5.2,226.0,2.0,4.0,78.57,19:18:00,84.0,187.0,20:33:00,120.0,19:18:00,2019-07-12,
215,86,1562940180.0,,,,,,,,,,,,,,,,,,,
216,101,1562941080.0,,,,,,,,,,,,,,,,,,,
217,139,1562941980.0,,,,,,,,,,,,,,,,,,,
218,174,1562942880.0,,,,,,,,,,,,,,,,,,,
219,187,1562943780.0,,,,,,,,,,,,,,,,,,,
220,181,1562944680.0,,,,,,,,,,,,,,,,,,,
221,167,1562945580.0,,,,,,,,,,,,,,,,,,,
222,162,1562946480.0,,,,,,,,,,,,,,,,,,,
223,169,1562947380.0,,,,,,,,,,,,,,,,,,,
224,180,1562948280.0,,,,,,,,,,,,,,,,,,,
225,180,1562949180.0,,,,,,,,,,,,,,,,,,,
226,173,1562950080.0,,,,,,,,,,,,,,,,,,,
227,171,1562950980.0,,,,,,,,,,,,,,,,,,,
228,162,1562951880.0,,,,,,,,,,,,,,,,,,,
229,142,1562952780.0,,,,,,,,,,,,,,,,,,,
230,128,1562953680.0,,,,,,,,,,,,,,,,,,,
231,131,1562954580.0,,,,,,,,,,,,,,,,,,,
232,133,1562955480.0,,,,,,,,,,,,,,,,,,,
233,128,1562956380.0,,,,,,,,,,,,,,,,,,,
234,120,1562957280.0,,,,,,,,,,,,,,,,,,,
235,110,1562958180.0,,,,,,,,,,,,,,,,,,,
236,104,1562959080.0,,,,,,,,,,,,,,,,,,,
237,102,1562959980.0,,,,,,,,,,,,,,,,,,,
238,102,1562960880.0,,,,,,,,,,,,,,,,,,,
239,102,1562961780.0,,,,,,,,,,,,,,,,,,,
240,97,1562962680.0,,,,,,,,,,,,,,,,,,,
241,88,1562963580.0,,,,,,,,,,,,,,,,,,,
242,82,1562964480.0,,,,,,,,,,,,,,,,,,,
243,86,1562965380.0,,,,,,,,,,,,,,,,,,,
244,85,1562966280.0,,,,,,,,,,,,,,,,,,,
245,79,1562967180.0,,,,,,,,,,,,,,,,,,,
246,77,1562968080.0,,,,,,,,,,,,,,,,,,,
247,78,1562968980.0,,,,,,,,,,,,,,,,,,,
248,82,1562969880.0,,,,,,,,,,,,,,,,,,,
249,86,1562970780.0,,,,,,,,,,,,,,,,,,,
250,85,1562971680.0,,,,,,,,,,,,,,,,,,,
251,79,1562972580.0,,,,,,,,,,,,,,,,,,,
252,76,1562973480.0,,,,,,,,,,,,,,,,,,,
253,78,1562974380.0,,,,,,,,,,,,,,,,,,,
254,82,1562975280.0,,,,,,,,,,,,,,,,,,,
255,84,1562976180.0,,,,,,,,,,,,,,,,,,,
256,86,1562977080.0,,,,,,,,,,,,,,,,,,,
257,90,1562977980.0,,,,,,,,,,,,,,,,,,,
258,91,1562978880.0,,,,,,,,,,,,,,,,,,,
259,90,1562979780.0,,,,,,,,,,,,,,,,,,,
260,94,1562980680.0,,,,,,,,,,,,,,,,,,,
261,98,1562981580.0,,,,,,,,,,,,,,,,,,,
262,101,1562982480.0,,,,,,,,,,,,,,,,,,,
263,101,1562983380.0,,,,,,,,,,,,,,,,,,,
264,101,1562984280.0,,,,,,,,,,,,,,,,,,,
265,99,1562985180.0,,,,,,,,,,,,,,,,,,,
266,108,1562986080.0,,,,,,,,,,,,,,,,,,,
267,122,1562986980.0,,,,,,,,,,,,,,,,,,,
268,122,1562987880.0,,,,,,,,,,,,,,,,,,,
269,122,1562988780.0,1242,13-07-2019,Breakfast,38.04,10.44,3.12,6.24,271.0,2.0,3.0,57.34,09:03:00,122.0,148.0,10:03:00,75.0,09:03:00,2019-07-13,
270,126,1562989680.0,,,,,,,,,,,,,,,,,,,
271,130,1562990580.0,,,,,,,,,,,,,,,,,,,
272,140,1562991480.0,,,,,,,,,,,,,,,,,,,
273,148,1562992380.0,,,,,,,,,,,,,,,,,,,
274,147,1562993280.0,,,,,,,,,,,,,,,,,,,
275,143,1562994180.0,,,,,,,,,,,,,,,,,,,
276,143,1562995080.0,,,,,,,,,,,,,,,,,,,
277,141,1562995980.0,,,,,,,,,,,,,,,,,,,
278,140,1562996880.0,,,,,,,,,,,,,,,,,,,
279,141,1562997780.0,,,,,,,,,,,,,,,,,,,
280,139,1562998680.0,,,,,,,,,,,,,,,,,,,
281,141,1562999580.0,,,,,,,,,,,,,,,,,,,
282,132,1563000480.0,,,,,,,,,,,,,,,,,,,
283,118,1563001380.0,,,,,,,,,,,,,,,,,,,
284,111,1563002280.0,,,,,,,,,,,,,,,,,,,
285,107,1563003180.0,,,,,,,,,,,,,,,,,,,
286,103,1563004080.0,,,,,,,,,,,,,,,,,,,
287,100,1563004980.0,,,,,,,,,,,,,,,,,,,
288,96,1563005880.0,,,,,,,,,,,,,,,,,,,
289,86,1563006780.0,,,,,,,,,,,,,,,,,,,
290,83,1563007680.0,1242,13-07-2019,Lunch,25.2,2.2,3.1,5.0,141.0,2.0,4.0,76.53,14:18:00,83.0,170.0,15:33:00,195.0,14:18:00,2019-07-13,
291,85,1563008580.0,,,,,,,,,,,,,,,,,,,
292,98,1563009480.0,,,,,,,,,,,,,,,,,,,
293,130,1563010380.0,,,,,,,,,,,,,,,,,,,
294,161,1563011280.0,,,,,,,,,,,,,,,,,,,
295,170,1563012180.0,,,,,,,,,,,,,,,,,,,
296,165,1563013080.0,,,,,,,,,,,,,,,,,,,
297,162,1563013980.0,,,,,,,,,,,,,,,,,,,
298,161,1563014880.0,,,,,,,,,,,,,,,,,,,
299,159,1563015780.0,,,,,,,,,,,,,,,,,,,
300,155,1563016680.0,,,,,,,,,,,,,,,,,,,
301,145,1563017580.0,,,,,,,,,,,,,,,,,,,
302,125,1563018480.0,,,,,,,,,,,,,,,,,,,
303,108,1563019380.0,,,,,,,,,,,,,,,,,,,
304,111,1563020280.0,,,,,,,,,,,,,,,,,,,
305,119,1563021180.0,,,,,,,,,,,,,,,,,,,
306,121,1563022080.0,,,,,,,,,,,,,,,,,,,
307,121,1563022980.0,,,,,,,,,,,,,,,,,,,
308,118,1563023880.0,,,,,,,,,,,,,,,,,,,
309,120,1563024780.0,,,,,,,,,,,,,,,,,,,
310,126,1563025680.0,,,,,,,,,,,,,,,,,,,
311,126,1563026580.0,,,,,,,,,,,,,,,,,,,
312,125,1563027480.0,,,,,,,,,,,,,,,,,,,
313,127,1563028380.0,,,,,,,,,,,,,,,,,,,
314,129,1563029280.0,,,,,,,,,,,,,,,,,,,
315,130,1563030180.0,,,,,,,,,,,,,,,,,,,
316,133,1563031080.0,,,,,,,,,,,,,,,,,,,
317,137,1563031980.0,,,,,,,,,,,,,,,,,,,
318,142,1563032880.0,,,,,,,,,,,,,,,,,,,
319,146,1563033780.0,,,,,,,,,,,,,,,,,,,
320,148,1563034680.0,,,,,,,,,,,,,,,,,,,
321,149,1563035580.0,,,,,,,,,,,,,,,,,,,
322,149,1563036480.0,,,,,,,,,,,,,,,,,,,
323,148,1563037380.0,,,,,,,,,,,,,,,,,,,
324,151,1563038280.0,,,,,,,,,,,,,,,,,,,
325,149,1563039180.0,,,,,,,,,,,,,,,,,,,
326,144,1563040080.0,,,,,,,,,,,,,,,,,,,
327,137,1563040980.0,,,,,,,,,,,,,,,,,,,
328,131,1563041880.0,,,,,,,,,,,,,,,,,,,
329,123,1563042780.0,,,,,,,,,,,,,,,,,,,
330,115,1563043680.0,,,,,,,,,,,,,,,,,,,
331,112,1563044580.0,,,,,,,,,,,,,,,,,,,
332,109,1563045480.0,,,,,,,,,,,,,,,,,,,
333,108,1563046380.0,,,,,,,,,,,,,,,,,,,
334,109,1563047280.0,,,,,,,,,,,,,,,,,,,
335,105,1563048180.0,,,,,,,,,,,,,,,,,,,
336,103,1563049080.0,,,,,,,,,,,,,,,,,,,
337,103,1563049980.0,,,,,,,,,,,,,,,,,,,
338,106,1563050880.0,,,,,,,,,,,,,,,,,,,
339,109,1563051780.0,,,,,,,,,,,,,,,,,,,
340,108,1563052680.0,,,,,,,,,,,,,,,,,,,
341,107,1563053580.0,,,,,,,,,,,,,,,,,,,
342,105,1563054480.0,,,,,,,,,,,,,,,,,,,
343,102,1563055380.0,,,,,,,,,,,,,,,,,,,
344,102,1563056280.0,,,,,,,,,,,,,,,,,,,
345,102,1563057180.0,,,,,,,,,,,,,,,,,,,
346,98,1563058080.0,,,,,,,,,,,,,,,,,,,
347,93,1563058980.0,,,,,,,,,,,,,,,,,,,
348,96,1563059880.0,,,,,,,,,,,,,,,,,,,
349,98,1563060780.0,,,,,,,,,,,,,,,,,,,
350,101,1563061680.0,,,,,,,,,,,,,,,,,,,
351,103,1563062580.0,,,,,,,,,,,,,,,,,,,
352,101,1563063480.0,,,,,,,,,,,,,,,,,,,
353,100,1563064380.0,,,,,,,,,,,,,,,,,,,
354,99,1563065280.0,,,,,,,,,,,,,,,,,,,
355,96,1563066180.0,,,,,,,,,,,,,,,,,,,
356,94,1563067080.0,,,,,,,,,,,,,,,,,,,
357,94,1563067980.0,,,,,,,,,,,,,,,,,,,
358,96,1563068880.0,,,,,,,,,,,,,,,,,,,
359,97,1563069780.0,,,,,,,,,,,,,,,,,,,
360,95,1563070680.0,,,,,,,,,,,,,,,,,,,
361,92,1563071580.0,,,,,,,,,,,,,,,,,,,
362,99,1563072480.0,,,,,,,,,,,,,,,,,,,
363,119,1563073380.0,,,,,,,,,,,,,,,,,,,
364,123,1563074280.0,,,,,,,,,,,,,,,,,,,
365,107,1563075180.0,,,,,,,,,,,,,,,,,,,
366,103,1563076080.0,,,,,,,,,,,,,,,,,,,
367,115,1563076980.0,,,,,,,,,,,,,,,,,,,
368,124,1563077880.0,,,,,,,,,,,,,,,,,,,
369,122,1563078780.0,,,,,,,,,,,,,,,,,,,
370,119,1563079680.0,,,,,,,,,,,,,,,,,,,
371,115,1563080580.0,,,,,,,,,,,,,,,,,,,
372,118,1563081480.0,,,,,,,,,,,,,,,,,,,
373,122,1563082380.0,,,,,,,,,,,,,,,,,,,
374,120,1563083280.0,,,,,,,,,,,,,,,,,,,
375,122,1563084180.0,,,,,,,,,,,,,,,,,,,
376,126,1563085080.0,,,,,,,,,,,,,,,,,,,
377,123,1563085980.0,,,,,,,,,,,,,,,,,,,
378,110,1563086880.0,,,,,,,,,,,,,,,,,,,
379,87,1563087780.0,,,,,,,,,,,,,,,,,,,
380,82,1563088680.0,1242,14-07-2019,Lunch,25.2,2.2,3.1,5.0,141.0,4.0,3.0,63.15,12:48:00,82.0,189.0,16:03:00,300.0,12:48:00,2019-07-14,
381,84,1563089580.0,,,,,,,,,,,,,,,,,,,
382,90,1563090480.0,,,,,,,,,,,,,,,,,,,
383,103,1563091380.0,,,,,,,,,,,,,,,,,,,
384,111,1563092280.0,,,,,,,,,,,,,,,,,,,
385,111,1563093180.0,,,,,,,,,,,,,,,,,,,
386,119,1563094080.0,,,,,,,,,,,,,,,,,,,
387,137,1563094980.0,,,,,,,,,,,,,,,,,,,
388,152,1563095880.0,,,,,,,,,,,,,,,,,,,
389,160,1563096780.0,,,,,,,,,,,,,,,,,,,
390,166,1563097680.0,,,,,,,,,,,,,,,,,,,
391,174,1563098580.0,,,,,,,,,,,,,,,,,,,
392,184,1563099480.0,,,,,,,,,,,,,,,,,,,
393,189,1563100380.0,,,,,,,,,,,,,,,,,,,
394,175,1563101280.0,,,,,,,,,,,,,,,,,,,
395,154,1563102180.0,,,,,,,,,,,,,,,,,,,
396,142,1563103080.0,,,,,,,,,,,,,,,,,,,
397,138,1563103980.0,,,,,,,,,,,,,,,,,,,
398,135,1563104880.0,,,,,,,,,,,,,,,,,,,
399,130,1563105780.0,,,,,,,,,,,,,,,,,,,
400,129,1563106680.0,,,,,,,,,,,,,,,,,,,
401,131,1563107580.0,,,,,,,,,,,,,,,,,,,
402,131,1563108480.0,,,,,,,,,,,,,,,,,,,
403,129,1563109380.0,,,,,,,,,,,,,,,,,,,
404,131,1563110280.0,,,,,,,,,,,,,,,,,,,
405,135,1563111180.0,,,,,,,,,,,,,,,,,,,
406,133,1563112080.0,,,,,,,,,,,,,,,,,,,
407,120,1563112980.0,,,,,,,,,,,,,,,,,,,
408,108,1563113880.0,1242,14-07-2019,Dinner,61.546,12.64,14.956,12.012,402.0,3.0,3.0,58.18,19:48:00,108.0,155.0,21:33:00,120.0,19:48:00,2019-07-14,
409,114,1563114780.0,,,,,,,,,,,,,,,,,,,
410,122,1563115680.0,,,,,,,,,,,,,,,,,,,
411,126,1563116580.0,,,,,,,,,,,,,,,,,,,
412,132,1563117480.0,,,,,,,,,,,,,,,,,,,
413,139,1563118380.0,,,,,,,,,,,,,,,,,,,
414,149,1563119280.0,,,,,,,,,,,,,,,,,,,
415,155,1563120180.0,,,,,,,,,,,,,,,,,,,
416,153,1563121080.0,,,,,,,,,,,,,,,,,,,
417,155,1563121980.0,,,,,,,,,,,,,,,,,,,
418,164,1563122880.0,,,,,,,,,,,,,,,,,,,
419,164,1563123780.0,,,,,,,,,,,,,,,,,,,
420,162,1563124680.0,,,,,,,,,,,,,,,,,,,
421,170,1563125580.0,,,,,,,,,,,,,,,,,,,
422,174,1563126480.0,,,,,,,,,,,,,,,,,,,
423,172,1563127380.0,,,,,,,,,,,,,,,,,,,
424,173,1563128280.0,,,,,,,,,,,,,,,,,,,
425,175,1563129180.0,,,,,,,,,,,,,,,,,,,
426,164,1563130080.0,,,,,,,,,,,,,,,,,,,
427,148,1563130980.0,,,,,,,,,,,,,,,,,,,
428,144,1563131880.0,,,,,,,,,,,,,,,,,,,
429,144,1563132780.0,,,,,,,,,,,,,,,,,,,
430,136,1563133680.0,,,,,,,,,,,,,,,,,,,
431,125,1563134580.0,,,,,,,,,,,,,,,,,,,
432,114,1563135480.0,,,,,,,,,,,,,,,,,,,
433,105,1563136380.0,,,,,,,,,,,,,,,,,,,
434,99,1563137280.0,,,,,,,,,,,,,,,,,,,
435,96,1563138180.0,,,,,,,,,,,,,,,,,,,
436,95,1563139080.0,,,,,,,,,,,,,,,,,,,
437,93,1563139980.0,,,,,,,,,,,,,,,,,,,
438,92,1563140880.0,,,,,,,,,,,,,,,,,,,
439,91,1563141780.0,,,,,,,,,,,,,,,,,,,
440,90,1563142680.0,,,,,,,,,,,,,,,,,,,
441,89,1563143580.0,,,,,,,,,,,,,,,,,,,
442,89,1563144480.0,,,,,,,,,,,,,,,,,,,
443,89,1563145380.0,,,,,,,,,,,,,,,,,,,
444,87,1563146280.0,,,,,,,,,,,,,,,,,,,
445,87,1563147180.0,,,,,,,,,,,,,,,,,,,
446,89,1563148080.0,,,,,,,,,,,,,,,,,,,
447,87,1563148980.0,,,,,,,,,,,,,,,,,,,
448,87,1563149880.0,,,,,,,,,,,,,,,,,,,
449,91,1563150780.0,,,,,,,,,,,,,,,,,,,
450,90,1563151680.0,,,,,,,,,,,,,,,,,,,
451,90,1563152580.0,,,,,,,,,,,,,,,,,,,
452,92,1563153480.0,,,,,,,,,,,,,,,,,,,
453,88,1563154380.0,,,,,,,,,,,,,,,,,,,
454,88,1563155280.0,,,,,,,,,,,,,,,,,,,
455,89,1563156180.0,,,,,,,,,,,,,,,,,,,
456,92,1563157080.0,,,,,,,,,,,,,,,,,,,
457,107,1563157980.0,,,,,,,,,,,,,,,,,,,
458,123,1563158880.0,,,,,,,,,,,,,,,,,,,
459,126,1563159780.0,,,,,,,,,,,,,,,,,,,
460,120,1563160680.0,,,,,,,,,,,,,,,,,,,
461,113,1563161580.0,,,,,,,,,,,,,,,,,,,
462,105,1563162480.0,,,,,,,,,,,,,,,,,,,
463,95,1563163380.0,,,,,,,,,,,,,,,,,,,
464,93,1563164280.0,1242,15-07-2019,Breakfast,64.946,17.04,11.856,13.012,448.0,2.0,4.0,77.63,09:48:00,93.0,169.0,10:48:00,150.0,09:48:00,2019-07-15,
465,98,1563165180.0,,,,,,,,,,,,,,,,,,,
466,127,1563166080.0,,,,,,,,,,,,,,,,,,,
467,161,1563166980.0,,,,,,,,,,,,,,,,,,,
468,169,1563167880.0,,,,,,,,,,,,,,,,,,,
469,166,1563168780.0,,,,,,,,,,,,,,,,,,,
470,162,1563169680.0,,,,,,,,,,,,,,,,,,,
471,157,1563170580.0,,,,,,,,,,,,,,,,,,,
472,151,1563171480.0,,,,,,,,,,,,,,,,,,,
473,141,1563172380.0,,,,,,,,,,,,,,,,,,,
474,140,1563173280.0,,,,,,,,,,,,,,,,,,,
475,150,1563174180.0,,,,,,,,,,,,,,,,,,,
476,153,1563175080.0,,,,,,,,,,,,,,,,,,,
477,148,1563175980.0,,,,,,,,,,,,,,,,,,,
478,144,1563176880.0,,,,,,,,,,,,,,,,,,,
479,142,1563177780.0,,,,,,,,,,,,,,,,,,,
480,141,1563178680.0,,,,,,,,,,,,,,,,,,,
481,149,1563179580.0,,,,,,,,,,,,,,,,,,,
482,147,1563180480.0,1242,15-07-2019,Lunch,25.2,2.2,3.1,5.0,141.0,2.0,2.0,46.56,14:18:00,149.0,171.0,15:33:00,120.0,14:18:00,2019-07-15,
483,127,1563181380.0,,,,,,,,,,,,,,,,,,,
484,117,1563182280.0,,,,,,,,,,,,,,,,,,,
485,134,1563183180.0,,,,,,,,,,,,,,,,,,,
486,162,1563184080.0,,,,,,,,,,,,,,,,,,,
487,171,1563184980.0,,,,,,,,,,,,,,,,,,,
488,166,1563185880.0,,,,,,,,,,,,,,,,,,,
489,152,1563186780.0,,,,,,,,,,,,,,,,,,,
490,144,1563187680.0,1242,15-07-2019,Lunch,25.2,2.2,3.1,5.0,141.0,2.0,4.0,73.43,16:18:00,144.0,200.0,17:18:00,75.0,16:18:00,2019-07-15,
491,153,1563188580.0,,,,,,,,,,,,,,,,,,,
492,170,1563189480.0,,,,,,,,,,,,,,,,,,,
493,190,1563190380.0,,,,,,,,,,,,,,,,,,,
494,200,1563191280.0,,,,,,,,,,,,,,,,,,,
495,199,1563192180.0,,,,,,,,,,,,,,,,,,,
496,193,1563193080.0,,,,,,,,,,,,,,,,,,,
497,178,1563193980.0,,,,,,,,,,,,,,,,,,,
498,162,1563194880.0,,,,,,,,,,,,,,,,,,,
499,156,1563195780.0,,,,,,,,,,,,,,,,,,,
500,147,1563196680.0,,,,,,,,,,,,,,,,,,,
501,140,1563197580.0,,,,,,,,,,,,,,,,,,,
502,139,1563198480.0,,,,,,,,,,,,,,,,,,,
503,140,1563199380.0,,,,,,,,,,,,,,,,,,,
504,141,1563200280.0,,,,,,,,,,,,,,,,,,,
505,140,1563201180.0,,,,,,,,,,,,,,,,,,,
506,142,1563202080.0,,,,,,,,,,,,,,,,,,,
507,149,1563202980.0,,,,,,,,,,,,,,,,,,,
508,154,1563203880.0,,,,,,,,,,,,,,,,,,,
509,147,1563204780.0,,,,,,,,,,,,,,,,,,,
510,134,1563205680.0,,,,,,,,,,,,,,,,,,,
511,131,1563206580.0,1242,15-07-2019,Dinner,59.146,11.04,11.056,11.412,377.0,2.0,3.0,58.31,21:33:00,131.0,158.0,22:33:00,75.0,21:33:00,2019-07-15,
512,140,1563207480.0,,,,,,,,,,,,,,,,,,,
513,150,1563208380.0,,,,,,,,,,,,,,,,,,,
514,157,1563209280.0,,,,,,,,,,,,,,,,,,,
515,158,1563210180.0,,,,,,,,,,,,,,,,,,,
516,158,1563211080.0,,,,,,,,,,,,,,,,,,,
517,157,1563211980.0,,,,,,,,,,,,,,,,,,,
518,152,1563212880.0,,,,,,,,,,,,,,,,,,,
519,145,1563213780.0,,,,,,,,,,,,,,,,,,,
520,147,1563214680.0,,,,,,,,,,,,,,,,,,,
521,150,1563215580.0,,,,,,,,,,,,,,,,,,,
522,143,1563216480.0,,,,,,,,,,,,,,,,,,,
523,127,1563217380.0,,,,,,,,,,,,,,,,,,,
524,119,1563218280.0,,,,,,,,,,,,,,,,,,,
525,117,1563219180.0,,,,,,,,,,,,,,,,,,,
526,116,1563220080.0,,,,,,,,,,,,,,,,,,,
527,113,1563220980.0,,,,,,,,,,,,,,,,,,,
528,107,1563221880.0,,,,,,,,,,,,,,,,,,,
529,104,1563222780.0,,,,,,,,,,,,,,,,,,,
530,100,1563223680.0,,,,,,,,,,,,,,,,,,,
531,95,1563224580.0,,,,,,,,,,,,,,,,,,,
532,90,1563225480.0,,,,,,,,,,,,,,,,,,,
533,86,1563226380.0,,,,,,,,,,,,,,,,,,,
534,85,1563227280.0,,,,,,,,,,,,,,,,,,,
535,83,1563228180.0,,,,,,,,,,,,,,,,,,,
536,81,1563229080.0,,,,,,,,,,,,,,,,,,,
537,83,1563229980.0,,,,,,,,,,,,,,,,,,,
538,81,1563230880.0,,,,,,,,,,,,,,,,,,,
539,75,1563231780.0,,,,,,,,,,,,,,,,,,,
540,73,1563232680.0,,,,,,,,,,,,,,,,,,,
541,77,1563233580.0,,,,,,,,,,,,,,,,,,,
542,83,1563234480.0,,,,,,,,,,,,,,,,,,,
543,83,1563235380.0,,,,,,,,,,,,,,,,,,,
544,83,1563236280.0,,,,,,,,,,,,,,,,,,,
545,85,1563237180.0,,,,,,,,,,,,,,,,,,,
546,88,1563238080.0,,,,,,,,,,,,,,,,,,,
547,91,1563238980.0,,,,,,,,,,,,,,,,,,,
548,94,1563239880.0,,,,,,,,,,,,,,,,,,,
549,97,1563240780.0,,,,,,,,,,,,,,,,,,,
550,97,1563241680.0,,,,,,,,,,,,,,,,,,,
551,100,1563242580.0,,,,,,,,,,,,,,,,,,,
552,105,1563243480.0,,,,,,,,,,,,,,,,,,,
553,104,1563244380.0,,,,,,,,,,,,,,,,,,,
554,99,1563245280.0,,,,,,,,,,,,,,,,,,,
555,96,1563246180.0,,,,,,,,,,,,,,,,,,,
556,92,1563247080.0,,,,,,,,,,,,,,,,,,,
557,88,1563247980.0,,,,,,,,,,,,,,,,,,,
558,91,1563248880.0,,,,,,,,,,,,,,,,,,,
559,103,1563249780.0,,,,,,,,,,,,,,,,,,,
560,109,1563250680.0,,,,,,,,,,,,,,,,,,,
561,103,1563251580.0,,,,,,,,,,,,,,,,,,,
562,94,1563252480.0,1242,16-07-2019,Breakfast,40.9,4.9,2.6,6.4,235.0,2.0,4.0,74.48,10:18:00,94.0,154.0,11:18:00,240.0,10:18:00,2019-07-16,
563,100,1563253380.0,,,,,,,,,,,,,,,,,,,
564,128,1563254280.0,,,,,,,,,,,,,,,,,,,
565,152,1563255180.0,,,,,,,,,,,,,,,,,,,
566,154,1563256080.0,,,,,,,,,,,,,,,,,,,
567,148,1563256980.0,,,,,,,,,,,,,,,,,,,
568,142,1563257880.0,,,,,,,,,,,,,,,,,,,
569,134,1563258780.0,,,,,,,,,,,,,,,,,,,
570,133,1563259680.0,,,,,,,,,,,,,,,,,,,
571,124,1563260580.0,,,,,,,,,,,,,,,,,,,
572,106,1563261480.0,,,,,,,,,,,,,,,,,,,
573,96,1563262380.0,,,,,,,,,,,,,,,,,,,
574,95,1563263280.0,,,,,,,,,,,,,,,,,,,
575,91,1563264180.0,,,,,,,,,,,,,,,,,,,
576,86,1563265080.0,,,,,,,,,,,,,,,,,,,
577,82,1563265980.0,,,,,,,,,,,,,,,,,,,
578,80,1563266880.0,1242,16-07-2019,Lunch,32.88,1.48,5.68,5.04,164.0,2.0,4.0,73.43,14:18:00,80.0,150.0,15:33:00,135.0,14:18:00,2019-07-16,
579,82,1563267780.0,,,,,,,,,,,,,,,,,,,
580,89,1563268680.0,,,,,,,,,,,,,,,,,,,
581,105,1563269580.0,,,,,,,,,,,,,,,,,,,
582,133,1563270480.0,,,,,,,,,,,,,,,,,,,
583,150,1563271380.0,,,,,,,,,,,,,,,,,,,
584,150,1563272280.0,,,,,,,,,,,,,,,,,,,
585,145,1563273180.0,,,,,,,,,,,,,,,,,,,
586,135,1563274080.0,,,,,,,,,,,,,,,,,,,
587,133,1563274980.0,,,,,,,,,,,,,,,,,,,
588,137,1563275880.0,,,,,,,,,,,,,,,,,,,
589,138,1563276780.0,,,,,,,,,,,,,,,,,,,
590,133,1563277680.0,,,,,,,,,,,,,,,,,,,
591,127,1563278580.0,,,,,,,,,,,,,,,,,,,
592,125,1563279480.0,,,,,,,,,,,,,,,,,,,
593,115,1563280380.0,,,,,,,,,,,,,,,,,,,
594,108,1563281280.0,,,,,,,,,,,,,,,,,,,
595,122,1563282180.0,,,,,,,,,,,,,,,,,,,
596,131,1563283080.0,,,,,,,,,,,,,,,,,,,
597,124,1563283980.0,,,,,,,,,,,,,,,,,,,
598,127,1563284880.0,,,,,,,,,,,,,,,,,,,
599,136,1563285780.0,,,,,,,,,,,,,,,,,,,
600,136,1563286680.0,,,,,,,,,,,,,,,,,,,
601,131,1563287580.0,,,,,,,,,,,,,,,,,,,
602,127,1563288480.0,,,,,,,,,,,,,,,,,,,
603,130,1563289380.0,,,,,,,,,,,,,,,,,,,
604,138,1563290280.0,,,,,,,,,,,,,,,,,,,
605,132,1563291180.0,,,,,,,,,,,,,,,,,,,
606,121,1563292080.0,1242,16-07-2019,Dinner,61.546,12.64,14.956,12.012,402.0,2.0,3.0,59.24,21:18:00,121.0,156.0,22:33:00,120.0,21:18:00,2019-07-16,
607,130,1563292980.0,,,,,,,,,,,,,,,,,,,
608,145,1563293880.0,,,,,,,,,,,,,,,,,,,
609,150,1563294780.0,,,,,,,,,,,,,,,,,,,
610,155,1563295680.0,,,,,,,,,,,,,,,,,,,
611,156,1563296580.0,,,,,,,,,,,,,,,,,,,
612,143,1563297480.0,,,,,,,,,,,,,,,,,,,
613,131,1563298380.0,,,,,,,,,,,,,,,,,,,
614,127,1563299280.0,,,,,,,,,,,,,,,,,,,
615,127,1563300180.0,,,,,,,,,,,,,,,,,,,
616,126,1563301080.0,,,,,,,,,,,,,,,,,,,
617,123,1563301980.0,,,,,,,,,,,,,,,,,,,
618,118,1563302880.0,,,,,,,,,,,,,,,,,,,
619,116,1563303780.0,,,,,,,,,,,,,,,,,,,
620,116,1563304680.0,,,,,,,,,,,,,,,,,,,
621,116,1563305580.0,,,,,,,,,,,,,,,,,,,
622,109,1563306480.0,,,,,,,,,,,,,,,,,,,
623,106,1563307380.0,,,,,,,,,,,,,,,,,,,
624,105,1563308280.0,,,,,,,,,,,,,,,,,,,
625,102,1563309180.0,,,,,,,,,,,,,,,,,,,
626,96,1563310080.0,,,,,,,,,,,,,,,,,,,
627,94,1563310980.0,,,,,,,,,,,,,,,,,,,
628,92,1563311880.0,,,,,,,,,,,,,,,,,,,
629,89,1563312780.0,,,,,,,,,,,,,,,,,,,
630,88,1563313680.0,,,,,,,,,,,,,,,,,,,
631,84,1563314580.0,,,,,,,,,,,,,,,,,,,
632,82,1563315480.0,,,,,,,,,,,,,,,,,,,
633,82,1563316380.0,,,,,,,,,,,,,,,,,,,
634,83,1563317280.0,,,,,,,,,,,,,,,,,,,
635,82,1563318180.0,,,,,,,,,,,,,,,,,,,
636,79,1563319080.0,,,,,,,,,,,,,,,,,,,
637,83,1563319980.0,,,,,,,,,,,,,,,,,,,
638,88,1563320880.0,,,,,,,,,,,,,,,,,,,
639,91,1563321780.0,,,,,,,,,,,,,,,,,,,
640,95,1563322680.0,,,,,,,,,,,,,,,,,,,
641,96,1563323580.0,,,,,,,,,,,,,,,,,,,
642,96,1563324480.0,,,,,,,,,,,,,,,,,,,
643,102,1563325380.0,,,,,,,,,,,,,,,,,,,
644,105,1563326280.0,,,,,,,,,,,,,,,,,,,
645,104,1563327180.0,,,,,,,,,,,,,,,,,,,
646,103,1563328080.0,,,,,,,,,,,,,,,,,,,
647,107,1563328980.0,,,,,,,,,,,,,,,,,,,
648,115,1563329880.0,,,,,,,,,,,,,,,,,,,
649,120,1563330780.0,,,,,,,,,,,,,,,,,,,
650,123,1563331680.0,,,,,,,,,,,,,,,,,,,
651,120,1563332580.0,,,,,,,,,,,,,,,,,,,
652,111,1563333480.0,,,,,,,,,,,,,,,,,,,
653,102,1563334380.0,,,,,,,,,,,,,,,,,,,
654,96,1563335280.0,,,,,,,,,,,,,,,,,,,
655,90,1563336180.0,,,,,,,,,,,,,,,,,,,
656,85,1563337080.0,,,,,,,,,,,,,,,,,,,
657,81,1563337980.0,,,,,,,,,,,,,,,,,,,
658,77,1563338880.0,,,,,,,,,,,,,,,,,,,
659,75,1563339780.0,1242,17-07-2019,Breakfast,40.9,4.9,2.6,6.4,235.0,2.0,3.0,59.24,10:33:00,75.0,103.0,11:33:00,105.0,10:33:00,2019-07-17,
660,80,1563340680.0,,,,,,,,,,,,,,,,,,,
661,91,1563341580.0,,,,,,,,,,,,,,,,,,,
662,100,1563342480.0,,,,,,,,,,,,,,,,,,,
663,103,1563343380.0,,,,,,,,,,,,,,,,,,,
664,103,1563344280.0,,,,,,,,,,,,,,,,,,,
665,99,1563345180.0,,,,,,,,,,,,,,,,,,,
666,90,1563346080.0,1242,17-07-2019,Lunch,27.6,3.8,7.0,5.6,166.0,2.0,4.0,78.88,12:18:00,90.0,196.0,13:33:00,210.0,12:18:00,2019-07-17,
667,97,1563346980.0,,,,,,,,,,,,,,,,,,,
668,130,1563347880.0,,,,,,,,,,,,,,,,,,,
669,165,1563348780.0,,,,,,,,,,,,,,,,,,,
670,189,1563349680.0,,,,,,,,,,,,,,,,,,,
671,196,1563350580.0,,,,,,,,,,,,,,,,,,,
672,192,1563351480.0,,,,,,,,,,,,,,,,,,,
673,188,1563352380.0,,,,,,,,,,,,,,,,,,,
674,183,1563353280.0,,,,,,,,,,,,,,,,,,,
675,177,1563354180.0,,,,,,,,,,,,,,,,,,,
676,172,1563355080.0,,,,,,,,,,,,,,,,,,,
677,169,1563355980.0,,,,,,,,,,,,,,,,,,,
678,166,1563356880.0,,,,,,,,,,,,,,,,,,,
679,159,1563357780.0,,,,,,,,,,,,,,,,,,,
680,156,1563358680.0,,,,,,,,,,,,,,,,,,,
681,159,1563359580.0,,,,,,,,,,,,,,,,,,,
682,162,1563360480.0,,,,,,,,,,,,,,,,,,,
683,157,1563361380.0,,,,,,,,,,,,,,,,,,,
684,155,1563362280.0,,,,,,,,,,,,,,,,,,,
685,160,1563363180.0,,,,,,,,,,,,,,,,,,,
686,161,1563364080.0,,,,,,,,,,,,,,,,,,,
687,154,1563364980.0,,,,,,,,,,,,,,,,,,,
688,148,1563365880.0,,,,,,,,,,,,,,,,,,,
689,149,1563366780.0,,,,,,,,,,,,,,,,,,,
690,159,1563367680.0,,,,,,,,,,,,,,,,,,,
691,168,1563368580.0,,,,,,,,,,,,,,,,,,,
692,165,1563369480.0,,,,,,,,,,,,,,,,,,,
693,162,1563370380.0,,,,,,,,,,,,,,,,,,,
694,166,1563371280.0,,,,,,,,,,,,,,,,,,,
695,166,1563372180.0,,,,,,,,,,,,,,,,,,,
696,161,1563373080.0,,,,,,,,,,,,,,,,,,,
697,150,1563373980.0,,,,,,,,,,,,,,,,,,,
698,141,1563374880.0,,,,,,,,,,,,,,,,,,,
699,141,1563375780.0,,,,,,,,,,,,,,,,,,,
700,135,1563376680.0,,,,,,,,,,,,,,,,,,,
701,120,1563377580.0,,,,,,,,,,,,,,,,,,,
702,106,1563378480.0,,,,,,,,,,,,,,,,,,,
703,100,1563379380.0,1242,17-07-2019,Dinner,61.546,12.64,14.956,12.012,402.0,2.0,3.0,69.25,21:33:00,100.0,144.0,22:33:00,90.0,21:33:00,2019-07-17,
704,108,1563380280.0,,,,,,,,,,,,,,,,,,,
705,122,1563381180.0,,,,,,,,,,,,,,,,,,,
706,134,1563382080.0,,,,,,,,,,,,,,,,,,,
707,144,1563382980.0,,,,,,,,,,,,,,,,,,,
708,144,1563383880.0,,,,,,,,,,,,,,,,,,,
709,142,1563384780.0,,,,,,,,,,,,,,,,,,,
710,145,1563385680.0,,,,,,,,,,,,,,,,,,,
711,147,1563386580.0,,,,,,,,,,,,,,,,,,,
712,145,1563387480.0,,,,,,,,,,,,,,,,,,,
713,142,1563388380.0,,,,,,,,,,,,,,,,,,,
714,131,1563389280.0,,,,,,,,,,,,,,,,,,,
715,118,1563390180.0,,,,,,,,,,,,,,,,,,,
716,114,1563391080.0,,,,,,,,,,,,,,,,,,,
717,114,1563391980.0,,,,,,,,,,,,,,,,,,,
718,116,1563392880.0,,,,,,,,,,,,,,,,,,,
719,116,1563393780.0,,,,,,,,,,,,,,,,,,,
720,116,1563394680.0,,,,,,,,,,,,,,,,,,,
721,113,1563395580.0,,,,,,,,,,,,,,,,,,,
722,108,1563396480.0,,,,,,,,,,,,,,,,,,,
723,102,1563397380.0,,,,,,,,,,,,,,,,,,,
724,101,1563398280.0,,,,,,,,,,,,,,,,,,,
725,99,1563399180.0,,,,,,,,,,,,,,,,,,,
726,94,1563400080.0,,,,,,,,,,,,,,,,,,,
727,94,1563400980.0,,,,,,,,,,,,,,,,,,,
728,100,1563401880.0,,,,,,,,,,,,,,,,,,,
729,102,1563402780.0,,,,,,,,,,,,,,,,,,,
730,97,1563403680.0,,,,,,,,,,,,,,,,,,,
731,94,1563404580.0,,,,,,,,,,,,,,,,,,,
732,92,1563405480.0,,,,,,,,,,,,,,,,,,,
733,90,1563406380.0,,,,,,,,,,,,,,,,,,,
734,91,1563407280.0,,,,,,,,,,,,,,,,,,,
735,94,1563408180.0,,,,,,,,,,,,,,,,,,,
736,99,1563409080.0,,,,,,,,,,,,,,,,,,,
737,99,1563409980.0,,,,,,,,,,,,,,,,,,,
738,97,1563410880.0,,,,,,,,,,,,,,,,,,,
739,93,1563411780.0,,,,,,,,,,,,,,,,,,,
740,91,1563412680.0,,,,,,,,,,,,,,,,,,,
741,90,1563413580.0,,,,,,,,,,,,,,,,,,,
742,89,1563414480.0,,,,,,,,,,,,,,,,,,,
743,90,1563415380.0,,,,,,,,,,,,,,,,,,,
744,90,1563416280.0,,,,,,,,,,,,,,,,,,,
745,96,1563417180.0,,,,,,,,,,,,,,,,,,,
746,111,1563418080.0,,,,,,,,,,,,,,,,,,,
747,125,1563418980.0,,,,,,,,,,,,,,,,,,,
748,132,1563419880.0,,,,,,,,,,,,,,,,,,,
749,131,1563420780.0,,,,,,,,,,,,,,,,,,,
750,123,1563421680.0,,,,,,,,,,,,,,,,,,,
751,113,1563422580.0,,,,,,,,,,,,,,,,,,,
752,103,1563423480.0,,,,,,,,,,,,,,,,,,,
753,101,1563424380.0,,,,,,,,,,,,,,,,,,,
754,112,1563425280.0,,,,,,,,,,,,,,,,,,,
755,125,1563426180.0,,,,,,,,,,,,,,,,,,,
756,140,1563427080.0,,,,,,,,,,,,,,,,,,,
757,155,1563427980.0,,,,,,,,,,,,,,,,,,,
758,162,1563428880.0,,,,,,,,,,,,,,,,,,,
759,159,1563429780.0,,,,,,,,,,,,,,,,,,,
760,150,1563430680.0,,,,,,,,,,,,,,,,,,,
761,145,1563431580.0,,,,,,,,,,,,,,,,,,,
762,140,1563432480.0,,,,,,,,,,,,,,,,,,,
763,125,1563433380.0,,,,,,,,,,,,,,,,,,,
764,119,1563434280.0,,,,,,,,,,,,,,,,,,,
765,116,1563435180.0,,,,,,,,,,,,,,,,,,,
766,117,1563436080.0,,,,,,,,,,,,,,,,,,,
767,120,1563436980.0,,,,,,,,,,,,,,,,,,,
768,118,1563437880.0,,,,,,,,,,,,,,,,,,,
769,119,1563438780.0,,,,,,,,,,,,,,,,,,,
770,120,1563439680.0,,,,,,,,,,,,,,,,,,,
771,115,1563440580.0,,,,,,,,,,,,,,,,,,,
772,113,1563441480.0,,,,,,,,,,,,,,,,,,,
773,118,1563442380.0,,,,,,,,,,,,,,,,,,,
774,116,1563443280.0,,,,,,,,,,,,,,,,,,,
775,113,1563444180.0,1242,18-07-2019,Lunch,39.98,1.98,6.88,8.14,116.0,2.0,2.0,41.99,15:33:00,113.0,128.0,16:33:00,135.0,15:33:00,2019-07-18,
776,116,1563445080.0,,,,,,,,,,,,,,,,,,,
777,120,1563445980.0,,,,,,,,,,,,,,,,,,,
778,126,1563446880.0,,,,,,,,,,,,,,,,,,,
779,128,1563447780.0,,,,,,,,,,,,,,,,,,,
780,122,1563448680.0,,,,,,,,,,,,,,,,,,,
781,113,1563449580.0,,,,,,,,,,,,,,,,,,,
782,108,1563450480.0,,,,,,,,,,,,,,,,,,,
783,100,1563451380.0,,,,,,,,,,,,,,,,,,,
784,95,1563452280.0,,,,,,,,,,,,,,,,,,,
785,103,1563453180.0,,,,,,,,,,,,,,,,,,,
786,115,1563454080.0,,,,,,,,,,,,,,,,,,,
787,121,1563454980.0,,,,,,,,,,,,,,,,,,,
788,124,1563455880.0,,,,,,,,,,,,,,,,,,,
789,128,1563456780.0,,,,,,,,,,,,,,,,,,,
790,126,1563457680.0,,,,,,,,,,,,,,,,,,,
791,116,1563458580.0,,,,,,,,,,,,,,,,,,,
792,112,1563459480.0,,,,,,,,,,,,,,,,,,,
793,113,1563460380.0,,,,,,,,,,,,,,,,,,,
794,118,1563461280.0,,,,,,,,,,,,,,,,,,,
795,127,1563462180.0,,,,,,,,,,,,,,,,,,,
796,137,1563463080.0,,,,,,,,,,,,,,,,,,,
797,148,1563463980.0,,,,,,,,,,,,,,,,,,,
798,158,1563464880.0,,,,,,,,,,,,,,,,,,,
799,163,1563465780.0,,,,,,,,,,,,,,,,,,,
800,165,1563466680.0,,,,,,,,,,,,,,,,,,,
801,162,1563467580.0,,,,,,,,,,,,,,,,,,,
802,149,1563468480.0,,,,,,,,,,,,,,,,,,,
803,142,1563469380.0,,,,,,,,,,,,,,,,,,,
804,144,1563470280.0,,,,,,,,,,,,,,,,,,,
805,140,1563471180.0,,,,,,,,,,,,,,,,,,,
806,128,1563472080.0,,,,,,,,,,,,,,,,,,,
807,116,1563472980.0,,,,,,,,,,,,,,,,,,,
808,107,1563473880.0,,,,,,,,,,,,,,,,,,,
809,102,1563474780.0,,,,,,,,,,,,,,,,,,,
810,99,1563475680.0,,,,,,,,,,,,,,,,,,,
811,94,1563476580.0,,,,,,,,,,,,,,,,,,,
812,86,1563477480.0,,,,,,,,,,,,,,,,,,,
813,84,1563478380.0,,,,,,,,,,,,,,,,,,,
814,85,1563479280.0,,,,,,,,,,,,,,,,,,,
815,84,1563480180.0,,,,,,,,,,,,,,,,,,,
816,79,1563481080.0,,,,,,,,,,,,,,,,,,,
817,75,1563481980.0,,,,,,,,,,,,,,,,,,,
818,72,1563482880.0,,,,,,,,,,,,,,,,,,,
819,69,1563483780.0,,,,,,,,,,,,,,,,,,,
820,70,1563484680.0,,,,,,,,,,,,,,,,,,,
821,70,1563485580.0,,,,,,,,,,,,,,,,,,,
822,70,1563486480.0,,,,,,,,,,,,,,,,,,,
823,73,1563487380.0,,,,,,,,,,,,,,,,,,,
824,74,1563488280.0,,,,,,,,,,,,,,,,,,,
825,75,1563489180.0,,,,,,,,,,,,,,,,,,,
826,75,1563490080.0,,,,,,,,,,,,,,,,,,,
827,76,1563490980.0,,,,,,,,,,,,,,,,,,,
828,75,1563491880.0,,,,,,,,,,,,,,,,,,,
829,76,1563492780.0,,,,,,,,,,,,,,,,,,,
830,77,1563493680.0,,,,,,,,,,,,,,,,,,,
831,77,1563494580.0,,,,,,,,,,,,,,,,,,,
832,79,1563495480.0,,,,,,,,,,,,,,,,,,,
833,81,1563496380.0,,,,,,,,,,,,,,,,,,,
834,82,1563497280.0,,,,,,,,,,,,,,,,,,,
835,86,1563498180.0,,,,,,,,,,,,,,,,,,,
836,89,1563499080.0,,,,,,,,,,,,,,,,,,,
837,92,1563499980.0,,,,,,,,,,,,,,,,,,,
838,102,1563500880.0,,,,,,,,,,,,,,,,,,,
839,111,1563501780.0,,,,,,,,,,,,,,,,,,,
840,113,1563502680.0,,,,,,,,,,,,,,,,,,,
841,111,1563503580.0,,,,,,,,,,,,,,,,,,,
842,103,1563504480.0,,,,,,,,,,,,,,,,,,,
843,94,1563505380.0,,,,,,,,,,,,,,,,,,,
844,87,1563506280.0,,,,,,,,,,,,,,,,,,,
845,84,1563507180.0,,,,,,,,,,,,,,,,,,,
846,97,1563508080.0,,,,,,,,,,,,,,,,,,,
847,122,1563508980.0,,,,,,,,,,,,,,,,,,,
848,133,1563509880.0,,,,,,,,,,,,,,,,,,,
849,131,1563510780.0,,,,,,,,,,,,,,,,,,,
850,129,1563511680.0,,,,,,,,,,,,,,,,,,,
851,128,1563512580.0,,,,,,,,,,,,,,,,,,,
852,122,1563513480.0,,,,,,,,,,,,,,,,,,,
853,111,1563514380.0,,,,,,,,,,,,,,,,,,,
854,101,1563515280.0,,,,,,,,,,,,,,,,,,,
855,90,1563516180.0,,,,,,,,,,,,,,,,,,,
856,82,1563517080.0,,,,,,,,,,,,,,,,,,,
857,76,1563517980.0,,,,,,,,,,,,,,,,,,,
858,69,1563518880.0,,,,,,,,,,,,,,,,,,,
859,66,1563519780.0,,,,,,,,,,,,,,,,,,,
860,65,1563520680.0,1242,19-07-2019,Lunch,27.5,7.3,2.4,6.6,208.0,2.0,4.0,77.37,12:48:00,65.0,158.0,14:03:00,150.0,12:48:00,2019-07-19,
861,71,1563521580.0,,,,,,,,,,,,,,,,,,,
862,103,1563522480.0,,,,,,,,,,,,,,,,,,,
863,139,1563523380.0,,,,,,,,,,,,,,,,,,,
864,156,1563524280.0,,,,,,,,,,,,,,,,,,,
865,158,1563525180.0,,,,,,,,,,,,,,,,,,,
866,150,1563526080.0,,,,,,,,,,,,,,,,,,,
867,141,1563526980.0,,,,,,,,,,,,,,,,,,,
868,135,1563527880.0,,,,,,,,,,,,,,,,,,,
869,129,1563528780.0,,,,,,,,,,,,,,,,,,,
870,129,1563529680.0,,,,,,,,,,,,,,,,,,,
871,129,1563530580.0,,,,,,,,,,,,,,,,,,,
872,119,1563531480.0,,,,,,,,,,,,,,,,,,,
873,104,1563532380.0,,,,,,,,,,,,,,,,,,,
874,98,1563533280.0,,,,,,,,,,,,,,,,,,,
875,95,1563534180.0,,,,,,,,,,,,,,,,,,,
876,101,1563535080.0,,,,,,,,,,,,,,,,,,,
877,116,1563535980.0,,,,,,,,,,,,,,,,,,,
878,123,1563536880.0,,,,,,,,,,,,,,,,,,,
879,125,1563537780.0,,,,,,,,,,,,,,,,,,,
880,128,1563538680.0,,,,,,,,,,,,,,,,,,,
881,123,1563539580.0,,,,,,,,,,,,,,,,,,,
882,118,1563540480.0,,,,,,,,,,,,,,,,,,,
883,119,1563541380.0,,,,,,,,,,,,,,,,,,,
884,124,1563542280.0,,,,,,,,,,,,,,,,,,,
885,128,1563543180.0,,,,,,,,,,,,,,,,,,,
886,133,1563544080.0,,,,,,,,,,,,,,,,,,,
887,131,1563544980.0,,,,,,,,,,,,,,,,,,,
888,124,1563545880.0,,,,,,,,,,,,,,,,,,,
889,122,1563546780.0,1242,19-07-2019,Dinner,40.3,6.5,2.7,6.4,250.0,2.0,3.0,55.22,20:03:00,122.0,146.0,21:03:00,90.0,20:03:00,2019-07-19,
890,129,1563547680.0,,,,,,,,,,,,,,,,,,,
891,139,1563548580.0,,,,,,,,,,,,,,,,,,,
892,145,1563549480.0,,,,,,,,,,,,,,,,,,,
893,146,1563550380.0,,,,,,,,,,,,,,,,,,,
894,141,1563551280.0,,,,,,,,,,,,,,,,,,,
895,136,1563552180.0,,,,,,,,,,,,,,,,,,,
896,138,1563553080.0,,,,,,,,,,,,,,,,,,,
897,138,1563553980.0,,,,,,,,,,,,,,,,,,,
898,131,1563554880.0,,,,,,,,,,,,,,,,,,,
899,128,1563555780.0,,,,,,,,,,,,,,,,,,,
900,126,1563556680.0,,,,,,,,,,,,,,,,,,,
901,122,1563557580.0,,,,,,,,,,,,,,,,,,,
902,117,1563558480.0,,,,,,,,,,,,,,,,,,,
903,119,1563559380.0,,,,,,,,,,,,,,,,,,,
904,119,1563560280.0,,,,,,,,,,,,,,,,,,,
905,114,1563561180.0,,,,,,,,,,,,,,,,,,,
906,111,1563562080.0,,,,,,,,,,,,,,,,,,,
907,107,1563562980.0,,,,,,,,,,,,,,,,,,,
908,101,1563563880.0,,,,,,,,,,,,,,,,,,,
909,102,1563564780.0,,,,,,,,,,,,,,,,,,,
910,104,1563565680.0,,,,,,,,,,,,,,,,,,,
911,107,1563566580.0,,,,,,,,,,,,,,,,,,,
912,105,1563567480.0,,,,,,,,,,,,,,,,,,,
913,95,1563568380.0,,,,,,,,,,,,,,,,,,,
914,91,1563569280.0,,,,,,,,,,,,,,,,,,,
915,91,1563570180.0,,,,,,,,,,,,,,,,,,,
916,88,1563571080.0,,,,,,,,,,,,,,,,,,,
917,82,1563571980.0,,,,,,,,,,,,,,,,,,,
918,79,1563572880.0,,,,,,,,,,,,,,,,,,,
919,79,1563573780.0,,,,,,,,,,,,,,,,,,,
920,78,1563574680.0,,,,,,,,,,,,,,,,,,,
921,78,1563575580.0,,,,,,,,,,,,,,,,,,,
922,80,1563576480.0,,,,,,,,,,,,,,,,,,,
923,80,1563577380.0,,,,,,,,,,,,,,,,,,,
924,81,1563578280.0,,,,,,,,,,,,,,,,,,,
925,82,1563579180.0,,,,,,,,,,,,,,,,,,,
926,80,1563580080.0,,,,,,,,,,,,,,,,,,,
927,79,1563580980.0,,,,,,,,,,,,,,,,,,,
928,80,1563581880.0,,,,,,,,,,,,,,,,,,,
929,81,1563582780.0,,,,,,,,,,,,,,,,,,,
930,80,1563583680.0,,,,,,,,,,,,,,,,,,,
931,78,1563584580.0,,,,,,,,,,,,,,,,,,,
932,80,1563585480.0,,,,,,,,,,,,,,,,,,,
933,82,1563586380.0,,,,,,,,,,,,,,,,,,,
934,84,1563587280.0,,,,,,,,,,,,,,,,,,,
935,85,1563588180.0,,,,,,,,,,,,,,,,,,,
936,85,1563589080.0,,,,,,,,,,,,,,,,,,,
937,86,1563589980.0,,,,,,,,,,,,,,,,,,,
938,85,1563590880.0,1242,20-07-2019,Breakfast,40.3,6.5,2.7,6.4,250.0,2.0,2.0,51.3,08:18:00,85.0,111.0,09:33:00,105.0,08:18:00,2019-07-20,
939,87,1563591780.0,,,,,,,,,,,,,,,,,,,
940,90,1563592680.0,,,,,,,,,,,,,,,,,,,
941,98,1563593580.0,,,,,,,,,,,,,,,,,,,
942,108,1563594480.0,,,,,,,,,,,,,,,,,,,
943,111,1563595380.0,,,,,,,,,,,,,,,,,,,
944,108,1563596280.0,,,,,,,,,,,,,,,,,,,
945,108,1563597180.0,,,,,,,,,,,,,,,,,,,
946,116,1563598080.0,,,,,,,,,,,,,,,,,,,
947,127,1563598980.0,,,,,,,,,,,,,,,,,,,
948,128,1563599880.0,,,,,,,,,,,,,,,,,,,
949,119,1563600780.0,,,,,,,,,,,,,,,,,,,
950,115,1563601680.0,,,,,,,,,,,,,,,,,,,
951,115,1563602580.0,,,,,,,,,,,,,,,,,,,
952,115,1563603480.0,,,,,,,,,,,,,,,,,,,
953,110,1563604380.0,,,,,,,,,,,,,,,,,,,
954,99,1563605280.0,,,,,,,,,,,,,,,,,,,
955,89,1563606180.0,,,,,,,,,,,,,,,,,,,
956,87,1563607080.0,,,,,,,,,,,,,,,,,,,
957,93,1563607980.0,,,,,,,,,,,,,,,,,,,
958,106,1563608880.0,,,,,,,,,,,,,,,,,,,
959,117,1563609780.0,,,,,,,,,,,,,,,,,,,
960,112,1563610680.0,,,,,,,,,,,,,,,,,,,
961,101,1563611580.0,,,,,,,,,,,,,,,,,,,
962,100,1563612480.0,1242,20-07-2019,Lunch,26.3,5.1,5.9,3.4,164.0,2.0,3.0,69.68,14:18:00,100.0,145.0,15:18:00,195.0,14:18:00,2019-07-20,
963,113,1563613380.0,,,,,,,,,,,,,,,,,,,
964,130,1563614280.0,,,,,,,,,,,,,,,,,,,
965,141,1563615180.0,,,,,,,,,,,,,,,,,,,
966,145,1563616080.0,,,,,,,,,,,,,,,,,,,
967,140,1563616980.0,,,,,,,,,,,,,,,,,,,
968,135,1563617880.0,,,,,,,,,,,,,,,,,,,
969,129,1563618780.0,,,,,,,,,,,,,,,,,,,
970,123,1563619680.0,,,,,,,,,,,,,,,,,,,
971,120,1563620580.0,,,,,,,,,,,,,,,,,,,
972,117,1563621480.0,,,,,,,,,,,,,,,,,,,
973,112,1563622380.0,,,,,,,,,,,,,,,,,,,
974,105,1563623280.0,,,,,,,,,,,,,,,,,,,
975,105,1563624180.0,,,,,,,,,,,,,,,,,,,
976,111,1563625080.0,,,,,,,,,,,,,,,,,,,
977,121,1563625980.0,,,,,,,,,,,,,,,,,,,
978,126,1563626880.0,,,,,,,,,,,,,,,,,,,
979,119,1563627780.0,,,,,,,,,,,,,,,,,,,
980,108,1563628680.0,,,,,,,,,,,,,,,,,,,
981,110,1563629580.0,,,,,,,,,,,,,,,,,,,
982,114,1563630480.0,,,,,,,,,,,,,,,,,,,
983,105,1563631380.0,,,,,,,,,,,,,,,,,,,
984,92,1563632280.0,,,,,,,,,,,,,,,,,,,
985,90,1563633180.0,1242,20-07-2019,Dinner,18.9,1.9,3.5,3.4,105.0,2.0,3.0,68.54,20:03:00,90.0,143.0,21:18:00,90.0,20:03:00,2019-07-20,
986,105,1563634080.0,,,,,,,,,,,,,,,,,,,
987,121,1563634980.0,,,,,,,,,,,,,,,,,,,
988,130,1563635880.0,,,,,,,,,,,,,,,,,,,
989,138,1563636780.0,,,,,,,,,,,,,,,,,,,
990,143,1563637680.0,,,,,,,,,,,,,,,,,,,
991,141,1563638580.0,1242,20-07-2019,Dinner,18.9,1.9,3.5,3.4,105.0,2.0,2.0,54.31,21:33:00,141.0,170.0,22:48:00,120.0,21:33:00,2019-07-20,
992,144,1563639480.0,,,,,,,,,,,,,,,,,,,
993,155,1563640380.0,,,,,,,,,,,,,,,,,,,
994,164,1563641280.0,,,,,,,,,,,,,,,,,,,
995,167,1563642180.0,,,,,,,,,,,,,,,,,,,
996,170,1563643080.0,,,,,,,,,,,,,,,,,,,
997,166,1563643980.0,,,,,,,,,,,,,,,,,,,
998,151,1563644880.0,,,,,,,,,,,,,,,,,,,
999,142,1563645780.0,,,,,,,,,,,,,,,,,,,
1000,143,1563646680.0,,,,,,,,,,,,,,,,,,,
1001,145,1563647580.0,,,,,,,,,,,,,,,,,,,
1002,141,1563648480.0,,,,,,,,,,,,,,,,,,,
1003,138,1563649380.0,,,,,,,,,,,,,,,,,,,
1004,139,1563650280.0,,,,,,,,,,,,,,,,,,,
1005,131,1563651180.0,,,,,,,,,,,,,,,,,,,
1006,120,1563652080.0,,,,,,,,,,,,,,,,,,,
1007,114,1563652980.0,,,,,,,,,,,,,,,,,,,
1008,104,1563653880.0,,,,,,,,,,,,,,,,,,,
1009,97,1563654780.0,,,,,,,,,,,,,,,,,,,
1010,92,1563655680.0,,,,,,,,,,,,,,,,,,,
1011,87,1563656580.0,,,,,,,,,,,,,,,,,,,
1012,86,1563657480.0,,,,,,,,,,,,,,,,,,,
1013,83,1563658380.0,,,,,,,,,,,,,,,,,,,
1014,77,1563659280.0,,,,,,,,,,,,,,,,,,,
1015,73,1563660180.0,,,,,,,,,,,,,,,,,,,
1016,70,1563661080.0,,,,,,,,,,,,,,,,,,,
1017,68,1563661980.0,,,,,,,,,,,,,,,,,,,
1018,68,1563662880.0,,,,,,,,,,,,,,,,,,,
1019,70,1563663780.0,,,,,,,,,,,,,,,,,,,
1020,75,1563664680.0,,,,,,,,,,,,,,,,,,,
1021,82,1563665580.0,,,,,,,,,,,,,,,,,,,
1022,85,1563666480.0,,,,,,,,,,,,,,,,,,,
1023,87,1563667380.0,,,,,,,,,,,,,,,,,,,
1024,90,1563668280.0,,,,,,,,,,,,,,,,,,,
1025,88,1563669180.0,,,,,,,,,,,,,,,,,,,
1026,87,1563670080.0,,,,,,,,,,,,,,,,,,,
1027,88,1563670980.0,,,,,,,,,,,,,,,,,,,
1028,89,1563671880.0,,,,,,,,,,,,,,,,,,,
1029,89,1563672780.0,,,,,,,,,,,,,,,,,,,
1030,89,1563673680.0,,,,,,,,,,,,,,,,,,,
1031,88,1563674580.0,,,,,,,,,,,,,,,,,,,
1032,92,1563675480.0,,,,,,,,,,,,,,,,,,,
1033,102,1563676380.0,,,,,,,,,,,,,,,,,,,
1034,110,1563677280.0,,,,,,,,,,,,,,,,,,,
1035,113,1563678180.0,,,,,,,,,,,,,,,,,,,
1036,109,1563679080.0,,,,,,,,,,,,,,,,,,,
1037,110,1563679980.0,,,,,,,,,,,,,,,,,,,
1038,114,1563680880.0,,,,,,,,,,,,,,,,,,,
1039,110,1563681780.0,1242,21-07-2019,Breakfast,22.8,5.6,2.3,4.8,164.0,2.0,3.0,59.24,09:33:00,110.0,145.0,10:48:00,105.0,09:33:00,2019-07-21,
1040,116,1563682680.0,,,,,,,,,,,,,,,,,,,
1041,134,1563683580.0,,,,,,,,,,,,,,,,,,,
1042,143,1563684480.0,,,,,,,,,,,,,,,,,,,
1043,144,1563685380.0,,,,,,,,,,,,,,,,,,,
1044,145,1563686280.0,,,,,,,,,,,,,,,,,,,
1045,145,1563687180.0,,,,,,,,,,,,,,,,,,,
1046,144,1563688080.0,,,,,,,,,,,,,,,,,,,
1047,150,1563688980.0,,,,,,,,,,,,,,,,,,,
1048,152,1563689880.0,,,,,,,,,,,,,,,,,,,
1049,137,1563690780.0,,,,,,,,,,,,,,,,,,,
1050,125,1563691680.0,,,,,,,,,,,,,,,,,,,
1051,116,1563692580.0,,,,,,,,,,,,,,,,,,,
1052,105,1563693480.0,,,,,,,,,,,,,,,,,,,
1053,96,1563694380.0,,,,,,,,,,,,,,,,,,,
1054,86,1563695280.0,,,,,,,,,,,,,,,,,,,
1055,86,1563696180.0,,,,,,,,,,,,,,,,,,,
1056,79,1563697080.0,,,,,,,,,,,,,,,,,,,
1057,67,1563697980.0,,,,,,,,,,,,,,,,,,,
1058,65,1563698880.0,1242,21-07-2019,Lunch,30.63,13.1,4.68,7.26,260.0,3.0,3.0,58.42,14:18:00,65.0,126.0,16:33:00,165.0,14:18:00,2019-07-21,
1059,77,1563699780.0,,,,,,,,,,,,,,,,,,,
1060,91,1563700680.0,,,,,,,,,,,,,,,,,,,
1061,98,1563701580.0,,,,,,,,,,,,,,,,,,,
1062,103,1563702480.0,,,,,,,,,,,,,,,,,,,
1063,110,1563703380.0,,,,,,,,,,,,,,,,,,,
1064,114,1563704280.0,,,,,,,,,,,,,,,,,,,
1065,118,1563705180.0,,,,,,,,,,,,,,,,,,,
1066,123,1563706080.0,,,,,,,,,,,,,,,,,,,
1067,126,1563706980.0,,,,,,,,,,,,,,,,,,,
1068,125,1563707880.0,,,,,,,,,,,,,,,,,,,
1069,124,1563708780.0,,,,,,,,,,,,,,,,,,,
1070,125,1563709680.0,,,,,,,,,,,,,,,,,,,
1071,130,1563710580.0,,,,,,,,,,,,,,,,,,,
1072,132,1563711480.0,,,,,,,,,,,,,,,,,,,
1073,130,1563712380.0,,,,,,,,,,,,,,,,,,,
1074,128,1563713280.0,,,,,,,,,,,,,,,,,,,
1075,126,1563714180.0,,,,,,,,,,,,,,,,,,,
1076,121,1563715080.0,,,,,,,,,,,,,,,,,,,
1077,116,1563715980.0,,,,,,,,,,,,,,,,,,,
1078,107,1563716880.0,,,,,,,,,,,,,,,,,,,
1079,101,1563717780.0,,,,,,,,,,,,,,,,,,,
1080,100,1563718680.0,,,,,,,,,,,,,,,,,,,
1081,102,1563719580.0,,,,,,,,,,,,,,,,,,,
1082,102,1563720480.0,,,,,,,,,,,,,,,,,,,
1083,100,1563721380.0,,,,,,,,,,,,,,,,,,,
1084,100,1563722280.0,1242,21-07-2019,Dinner,43.04,5.8,6.9,7.86,264.0,3.0,2.0,41.71,20:48:00,100.0,126.0,22:33:00,165.0,20:48:00,2019-07-21,
1085,103,1563723180.0,,,,,,,,,,,,,,,,,,,
1086,106,1563724080.0,,,,,,,,,,,,,,,,,,,
1087,107,1563724980.0,,,,,,,,,,,,,,,,,,,
1088,110,1563725880.0,,,,,,,,,,,,,,,,,,,
1089,116,1563726780.0,,,,,,,,,,,,,,,,,,,
1090,122,1563727680.0,,,,,,,,,,,,,,,,,,,
1091,126,1563728580.0,,,,,,,,,,,,,,,,,,,
1092,126,1563729480.0,,,,,,,,,,,,,,,,,,,
1093,122,1563730380.0,,,,,,,,,,,,,,,,,,,
1094,117,1563731280.0,,,,,,,,,,,,,,,,,,,
1095,111,1563732180.0,,,,,,,,,,,,,,,,,,,
1096,107,1563733080.0,,,,,,,,,,,,,,,,,,,
1097,104,1563733980.0,,,,,,,,,,,,,,,,,,,
1098,103,1563734880.0,,,,,,,,,,,,,,,,,,,
1099,100,1563735780.0,,,,,,,,,,,,,,,,,,,
1100,95,1563736680.0,,,,,,,,,,,,,,,,,,,
1101,88,1563737580.0,,,,,,,,,,,,,,,,,,,
1102,81,1563738480.0,,,,,,,,,,,,,,,,,,,
1103,77,1563739380.0,,,,,,,,,,,,,,,,,,,
1104,75,1563740280.0,,,,,,,,,,,,,,,,,,,
1105,77,1563741180.0,,,,,,,,,,,,,,,,,,,
1106,76,1563742080.0,,,,,,,,,,,,,,,,,,,
1107,71,1563742980.0,,,,,,,,,,,,,,,,,,,
1108,72,1563743880.0,,,,,,,,,,,,,,,,,,,
1109,75,1563744780.0,,,,,,,,,,,,,,,,,,,
1110,74,1563745680.0,,,,,,,,,,,,,,,,,,,
1111,74,1563746580.0,,,,,,,,,,,,,,,,,,,
1112,76,1563747480.0,,,,,,,,,,,,,,,,,,,
1113,76,1563748380.0,,,,,,,,,,,,,,,,,,,
1114,74,1563749280.0,,,,,,,,,,,,,,,,,,,
1115,73,1563750180.0,,,,,,,,,,,,,,,,,,,
1116,72,1563751080.0,,,,,,,,,,,,,,,,,,,
1117,73,1563751980.0,,,,,,,,,,,,,,,,,,,
1118,79,1563752880.0,,,,,,,,,,,,,,,,,,,
1119,81,1563753780.0,,,,,,,,,,,,,,,,,,,
1120,82,1563754680.0,,,,,,,,,,,,,,,,,,,
1121,83,1563755580.0,,,,,,,,,,,,,,,,,,,
1122,84,1563756480.0,,,,,,,,,,,,,,,,,,,
1123,82,1563757380.0,,,,,,,,,,,,,,,,,,,
1124,79,1563758280.0,,,,,,,,,,,,,,,,,,,
1125,77,1563759180.0,,,,,,,,,,,,,,,,,,,
1126,75,1563760080.0,,,,,,,,,,,,,,,,,,,
1127,75,1563760980.0,1242,22-07-2019,Breakfast,17.4,2.6,2.0,3.0,107.0,2.0,3.0,67.78,07:33:00,75.0,126.0,08:48:00,195.0,07:33:00,2019-07-22,
1128,77,1563761880.0,,,,,,,,,,,,,,,,,,,
1129,79,1563762780.0,,,,,,,,,,,,,,,,,,,
1130,93,1563763680.0,,,,,,,,,,,,,,,,,,,
1131,118,1563764580.0,,,,,,,,,,,,,,,,,,,
1132,126,1563765480.0,,,,,,,,,,,,,,,,,,,
1133,118,1563766380.0,,,,,,,,,,,,,,,,,,,
1134,110,1563767280.0,,,,,,,,,,,,,,,,,,,
1135,100,1563768180.0,,,,,,,,,,,,,,,,,,,
1136,92,1563769080.0,,,,,,,,,,,,,,,,,,,
1137,86,1563769980.0,,,,,,,,,,,,,,,,,,,
1138,79,1563770880.0,,,,,,,,,,,,,,,,,,,
1139,71,1563771780.0,,,,,,,,,,,,,,,,,,,
1140,66,1563772680.0,1242,22-07-2019,Breakfast,17.4,2.6,2.0,3.0,107.0,2.0,3.0,69.25,10:48:00,66.0,110.0,11:48:00,195.0,10:48:00,2019-07-22,
1141,75,1563773580.0,,,,,,,,,,,,,,,,,,,
1142,92,1563774480.0,,,,,,,,,,,,,,,,,,,
1143,105,1563775380.0,,,,,,,,,,,,,,,,,,,
1144,110,1563776280.0,,,,,,,,,,,,,,,,,,,
1145,108,1563777180.0,,,,,,,,,,,,,,,,,,,
1146,103,1563778080.0,,,,,,,,,,,,,,,,,,,
1147,101,1563778980.0,,,,,,,,,,,,,,,,,,,
1148,100,1563779880.0,,,,,,,,,,,,,,,,,,,
1149,95,1563780780.0,,,,,,,,,,,,,,,,,,,
1150,82,1563781680.0,,,,,,,,,,,,,,,,,,,
1151,71,1563782580.0,,,,,,,,,,,,,,,,,,,
1152,64,1563783480.0,,,,,,,,,,,,,,,,,,,
1153,63,1563784380.0,1242,22-07-2019,Lunch,16.2,9.3,1.9,9.1,190.0,2.0,3.0,68.9,14:03:00,63.0,117.0,15:18:00,150.0,14:03:00,2019-07-22,
1154,76,1563785280.0,,,,,,,,,,,,,,,,,,,
1155,97,1563786180.0,,,,,,,,,,,,,,,,,,,
1156,112,1563787080.0,,,,,,,,,,,,,,,,,,,
1157,116,1563787980.0,,,,,,,,,,,,,,,,,,,
1158,117,1563788880.0,,,,,,,,,,,,,,,,,,,
1159,116,1563789780.0,,,,,,,,,,,,,,,,,,,
1160,109,1563790680.0,,,,,,,,,,,,,,,,,,,
1161,100,1563791580.0,,,,,,,,,,,,,,,,,,,
1162,92,1563792480.0,,,,,,,,,,,,,,,,,,,
1163,88,1563793380.0,,,,,,,,,,,,,,,,,,,
1164,92,1563794280.0,,,,,,,,,,,,,,,,,,,
1165,101,1563795180.0,,,,,,,,,,,,,,,,,,,
1166,100,1563796080.0,,,,,,,,,,,,,,,,,,,
1167,88,1563796980.0,,,,,,,,,,,,,,,,,,,
1168,82,1563797880.0,,,,,,,,,,,,,,,,,,,
1169,82,1563798780.0,,,,,,,,,,,,,,,,,,,
1170,79,1563799680.0,,,,,,,,,,,,,,,,,,,
1171,77,1563800580.0,,,,,,,,,,,,,,,,,,,
1172,78,1563801480.0,,,,,,,,,,,,,,,,,,,
1173,75,1563802380.0,,,,,,,,,,,,,,,,,,,
1174,69,1563803280.0,,,,,,,,,,,,,,,,,,,
1175,65,1563804180.0,1242,22-07-2019,Dinner,43.04,5.8,6.9,7.86,264.0,3.0,3.0,66.16,19:33:00,65.0,131.0,21:18:00,180.0,19:33:00,2019-07-22,
1176,73,1563805080.0,,,,,,,,,,,,,,,,,,,
1177,97,1563805980.0,,,,,,,,,,,,,,,,,,,
1178,116,1563806880.0,,,,,,,,,,,,,,,,,,,
1179,121,1563807780.0,,,,,,,,,,,,,,,,,,,
1180,122,1563808680.0,,,,,,,,,,,,,,,,,,,
1181,128,1563809580.0,,,,,,,,,,,,,,,,,,,
1182,131,1563810480.0,,,,,,,,,,,,,,,,,,,
1183,126,1563811380.0,,,,,,,,,,,,,,,,,,,
1184,114,1563812280.0,,,,,,,,,,,,,,,,,,,
1185,108,1563813180.0,,,,,,,,,,,,,,,,,,,
1186,103,1563814080.0,,,,,,,,,,,,,,,,,,,
1187,101,1563814980.0,,,,,,,,,,,,,,,,,,,
1188,104,1563815880.0,,,,,,,,,,,,,,,,,,,
1189,101,1563816780.0,,,,,,,,,,,,,,,,,,,
1190,98,1563817680.0,,,,,,,,,,,,,,,,,,,
1191,97,1563818580.0,,,,,,,,,,,,,,,,,,,
1192,94,1563819480.0,,,,,,,,,,,,,,,,,,,
1193,88,1563820380.0,,,,,,,,,,,,,,,,,,,
1194,81,1563821280.0,,,,,,,,,,,,,,,,,,,
1195,78,1563822180.0,,,,,,,,,,,,,,,,,,,
1196,78,1563823080.0,,,,,,,,,,,,,,,,,,,
1197,76,1563823980.0,,,,,,,,,,,,,,,,,,,
1198,75,1563824880.0,,,,,,,,,,,,,,,,,,,
1199,73,1563825780.0,,,,,,,,,,,,,,,,,,,
1200,69,1563826680.0,,,,,,,,,,,,,,,,,,,
1201,66,1563827580.0,,,,,,,,,,,,,,,,,,,
1202,64,1563828480.0,,,,,,,,,,,,,,,,,,,
1203,64,1563829380.0,,,,,,,,,,,,,,,,,,,
1204,66,1563830280.0,,,,,,,,,,,,,,,,,,,
1205,70,1563831180.0,,,,,,,,,,,,,,,,,,,
1206,73,1563832080.0,,,,,,,,,,,,,,,,,,,
1207,70,1563832980.0,,,,,,,,,,,,,,,,,,,
1208,71,1563833880.0,,,,,,,,,,,,,,,,,,,
1209,72,1563834780.0,,,,,,,,,,,,,,,,,,,
1210,70,1563835680.0,,,,,,,,,,,,,,,,,,,
1211,70,1563836580.0,,,,,,,,,,,,,,,,,,,
1212,72,1563837480.0,,,,,,,,,,,,,,,,,,,
1213,74,1563838380.0,,,,,,,,,,,,,,,,,,,
1214,74,1563839280.0,,,,,,,,,,,,,,,,,,,
1215,75,1563840180.0,,,,,,,,,,,,,,,,,,,
1216,77,1563841080.0,,,,,,,,,,,,,,,,,,,
1217,78,1563841980.0,,,,,,,,,,,,,,,,,,,
1218,79,1563842880.0,,,,,,,,,,,,,,,,,,,
1219,83,1563843780.0,,,,,,,,,,,,,,,,,,,
1220,83,1563844680.0,,,,,,,,,,,,,,,,,,,
1221,81,1563845580.0,,,,,,,,,,,,,,,,,,,
1222,81,1563846480.0,,,,,,,,,,,,,,,,,,,
1223,80,1563847380.0,,,,,,,,,,,,,,,,,,,
1224,82,1563848280.0,,,,,,,,,,,,,,,,,,,
1225,94,1563849180.0,,,,,,,,,,,,,,,,,,,
1226,105,1563850080.0,,,,,,,,,,,,,,,,,,,
1227,107,1563850980.0,,,,,,,,,,,,,,,,,,,
1228,100,1563851880.0,,,,,,,,,,,,,,,,,,,
1229,93,1563852780.0,,,,,,,,,,,,,,,,,,,
1230,88,1563853680.0,,,,,,,,,,,,,,,,,,,
1231,81,1563854580.0,,,,,,,,,,,,,,,,,,,
1232,75,1563855480.0,,,,,,,,,,,,,,,,,,,
1233,70,1563856380.0,,,,,,,,,,,,,,,,,,,
1234,76,1563857280.0,,,,,,,,,,,,,,,,,,,
1235,90,1563858180.0,,,,,,,,,,,,,,,,,,,
1236,101,1563859080.0,,,,,,,,,,,,,,,,,,,
1237,101,1563859980.0,,,,,,,,,,,,,,,,,,,
1238,94,1563860880.0,,,,,,,,,,,,,,,,,,,
1239,87,1563861780.0,,,,,,,,,,,,,,,,,,,
1240,90,1563862680.0,,,,,,,,,,,,,,,,,,,
1241,93,1563863580.0,,,,,,,,,,,,,,,,,,,
1242,84,1563864480.0,,,,,,,,,,,,,,,,,,,
1243,85,1563865380.0,,,,,,,,,,,,,,,,,,,
1244,88,1563866280.0,,,,,,,,,,,,,,,,,,,
1245,87,1563867180.0,,,,,,,,,,,,,,,,,,,
1246,81,1563868080.0,,,,,,,,,,,,,,,,,,,
1247,76,1563868980.0,,,,,,,,,,,,,,,,,,,
1248,74,1563869880.0,,,,,,,,,,,,,,,,,,,
1249,72,1563870780.0,,,,,,,,,,,,,,,,,,,
1250,71,1563871680.0,,,,,,,,,,,,,,,,,,,
1251,69,1563872580.0,,,,,,,,,,,,,,,,,,,
1252,64,1563873480.0,,,,,,,,,,,,,,,,,,,
1253,64,1563874380.0,1242,23-07-2019,Lunch,27.4,8.3,2.3,5.8,212.0,2.0,3.0,69.68,15:03:00,64.0,109.0,16:03:00,135.0,15:03:00,2019-07-23,
1254,79,1563875280.0,,,,,,,,,,,,,,,,,,,
1255,97,1563876180.0,,,,,,,,,,,,,,,,,,,
1256,107,1563877080.0,,,,,,,,,,,,,,,,,,,
1257,109,1563877980.0,,,,,,,,,,,,,,,,,,,
1258,107,1563878880.0,,,,,,,,,,,,,,,,,,,
1259,104,1563879780.0,,,,,,,,,,,,,,,,,,,
1260,101,1563880680.0,,,,,,,,,,,,,,,,,,,
1261,96,1563881580.0,,,,,,,,,,,,,,,,,,,
1262,94,1563882480.0,,,,,,,,,,,,,,,,,,,
1263,98,1563883380.0,,,,,,,,,,,,,,,,,,,
1264,100,1563884280.0,,,,,,,,,,,,,,,,,,,
1265,97,1563885180.0,,,,,,,,,,,,,,,,,,,
1266,98,1563886080.0,,,,,,,,,,,,,,,,,,,
1267,99,1563886980.0,,,,,,,,,,,,,,,,,,,
1268,95,1563887880.0,,,,,,,,,,,,,,,,,,,
1269,92,1563888780.0,,,,,,,,,,,,,,,,,,,
1270,92,1563889680.0,1242,23-07-2019,Dinner,43.04,5.8,6.9,7.86,264.0,3.0,2.0,40.03,19:18:00,92.0,113.0,20:48:00,120.0,19:18:00,2019-07-23,
1271,96,1563890580.0,,,,,,,,,,,,,,,,,,,
1272,99,1563891480.0,,,,,,,,,,,,,,,,,,,
1273,102,1563892380.0,,,,,,,,,,,,,,,,,,,
1274,107,1563893280.0,,,,,,,,,,,,,,,,,,,
1275,110,1563894180.0,,,,,,,,,,,,,,,,,,,
1276,113,1563895080.0,,,,,,,,,,,,,,,,,,,
1277,113,1563895980.0,,,,,,,,,,,,,,,,,,,
1278,107,1563896880.0,,,,,,,,,,,,,,,,,,,
1279,109,1563897780.0,,,,,,,,,,,,,,,,,,,
1280,116,1563898680.0,,,,,,,,,,,,,,,,,,,
1281,117,1563899580.0,,,,,,,,,,,,,,,,,,,
1282,117,1563900480.0,,,,,,,,,,,,,,,,,,,
1283,119,1563901380.0,,,,,,,,,,,,,,,,,,,
1284,119,1563902280.0,,,,,,,,,,,,,,,,,,,
1285,111,1563903180.0,,,,,,,,,,,,,,,,,,,
1286,96,1563904080.0,,,,,,,,,,,,,,,,,,,
1287,85,1563904980.0,,,,,,,,,,,,,,,,,,,
1288,82,1563905880.0,,,,,,,,,,,,,,,,,,,
1289,82,1563906780.0,,,,,,,,,,,,,,,,,,,0.0
1290,78,1563907680.0,,,,,,,,,,,,,,,,,,,
1291,72,1563908580.0,,,,,,,,,,,,,,,,,,,
1292,69,1563909480.0,,,,,,,,,,,,,,,,,,,
1293,69,1563910380.0,,,,,,,,,,,,,,,,,,,0.0
1294,70,1563911280.0,,,,,,,,,,,,,,,,,,,
1295,68,1563912180.0,,,,,,,,,,,,,,,,,,,
1296,66,1563913080.0,,,,,,,,,,,,,,,,,,,
1297,67,1563913980.0,,,,,,,,,,,,,,,,,,,0.0
1298,65,1563914880.0,,,,,,,,,,,,,,,,,,,
1299,65,1563915780.0,,,,,,,,,,,,,,,,,,,
1300,63,1563916680.0,,,,,,,,,,,,,,,,,,,
1301,65,1563917580.0,,,,,,,,,,,,,,,,,,,0.0
1302,68,1563918480.0,,,,,,,,,,,,,,,,,,,
1303,70,1563919380.0,,,,,,,,,,,,,,,,,,,
1304,73,1563920280.0,,,,,,,,,,,,,,,,,,,
1305,76,1563921180.0,,,,,,,,,,,,,,,,,,,0.0
1306,76,1563922080.0,,,,,,,,,,,,,,,,,,,
1307,76,1563922980.0,,,,,,,,,,,,,,,,,,,
1308,76,1563923880.0,,,,,,,,,,,,,,,,,,,
1309,78,1563924780.0,,,,,,,,,,,,,,,,,,,0.0
1310,80,1563925680.0,,,,,,,,,,,,,,,,,,,
1311,81,1563926580.0,,,,,,,,,,,,,,,,,,,
1312,82,1563927480.0,,,,,,,,,,,,,,,,,,,
1313,83,1563928380.0,,,,,,,,,,,,,,,,,,,0.0
1314,81,1563929280.0,,,,,,,,,,,,,,,,,,,
1315,79,1563930180.0,,,,,,,,,,,,,,,,,,,
1316,80,1563931080.0,,,,,,,,,,,,,,,,,,,
1317,77,1563931980.0,,,,,,,,,,,,,,,,,,,0.0
1318,75,1563932880.0,,,,,,,,,,,,,,,,,,,
1319,80,1563933780.0,,,,,,,,,,,,,,,,,,,
1320,92,1563934680.0,,,,,,,,,,,,,,,,,,,
1321,101,1563935580.0,,,,,,,,,,,,,,,,,,,0.0
1322,103,1563936480.0,,,,,,,,,,,,,,,,,,,
1323,101,1563937380.0,,,,,,,,,,,,,,,,,,,
1324,95,1563938280.0,,,,,,,,,,,,,,,,,,,
1325,87,1563939180.0,,,,,,,,,,,,,,,,,,,0.0
1326,82,1563940080.0,,,,,,,,,,,,,,,,,,,
1327,80,1563940980.0,,,,,,,,,,,,,,,,,,,
1328,88,1563941880.0,,,,,,,,,,,,,,,,,,,
1329,109,1563942780.0,,,,,,,,,,,,,,,,,,,0.0
1330,124,1563943680.0,,,,,,,,,,,,,,,,,,,
1331,121,1563944580.0,,,,,,,,,,,,,,,,,,,
1332,119,1563945480.0,,,,,,,,,,,,,,,,,,,
1333,123,1563946380.0,,,,,,,,,,,,,,,,,,,0.0
1334,124,1563947280.0,,,,,,,,,,,,,,,,,,,
1335,121,1563948180.0,,,,,,,,,,,,,,,,,,,
