,glucose,timestamp,id,date,time,carbs,fat,fiber,protein,calories,mealSize,mealType,slope,mealTime,initialGlucose,peakGlucose,peakTime,cycleDuration,init_time,day,steps
0,109,1563613500.0,,,,,,,,,,,,,,,,,,,
1,105,1563614400.0,,,,,,,,,,,,,,,,,,,
2,108,1563615300.0,,,,,,,,,,,,,,,,,,,
3,133,1563616200.0,,,,,,,,,,,,,,,,,,,
4,164,1563617100.0,,,,,,,,,,,,,,,,,,,
5,191,1563618000.0,,,,,,,,,,,,,,,,,,,
6,207,1563618900.0,,,,,,,,,,,,,,,,,,,
7,216,1563619800.0,,,,,,,,,,,,,,,,,,,
8,226,1563620700.0,,,,,,,,,,,,,,,,,,,
9,235,1563621600.0,,,,,,,,,,,,,,,,,,,
10,244,1563622500.0,,,,,,,,,,,,,,,,,,,
11,250,1563623400.0,,,,,,,,,,,,,,,,,,,
12,253,1563624300.0,,,,,,,,,,,,,,,,,,,
13,254,1563625200.0,,,,,,,,,,,,,,,,,,,
14,249,1563626100.0,,,,,,,,,,,,,,,,,,,
15,239,1563627000.0,,,,,,,,,,,,,,,,,,,
16,231,1563627900.0,,,,,,,,,,,,,,,,,,,
17,227,1563628800.0,,,,,,,,,,,,,,,,,,,
18,219,1563629700.0,,,,,,,,,,,,,,,,,,,
19,209,1563630600.0,,,,,,,,,,,,,,,,,,,
20,196,1563631500.0,,,,,,,,,,,,,,,,,,,
21,177,1563632400.0,,,,,,,,,,,,,,,,,,,
22,169,1563633300.0,,,,,,,,,,,,,,,,,,,
23,170,1563634200.0,,,,,,,,,,,,,,,,,,,
24,163,1563635100.0,,,,,,,,,,,,,,,,,,,
25,152,1563636000.0,,,,,,,,,,,,,,,,,,,
26,153,1563636900.0,,,,,,,,,,,,,,,,,,,
27,177,1563637800.0,,,,,,,,,,,,,,,,,,,
28,205,1563638700.0,,,,,,,,,,,,,,,,,,,
29,219,1563639600.0,,,,,,,,,,,,,,,,,,,
30,230,1563640500.0,,,,,,,,,,,,,,,,,,,
31,240,1563641400.0,,,,,,,,,,,,,,,,,,,
32,246,1563642300.0,,,,,,,,,,,,,,,,,,,
33,253,1563643200.0,,,,,,,,,,,,,,,,,,,
34,257,1563644100.0,,,,,,,,,,,,,,,,,,,
35,252,1563645000.0,,,,,,,,,,,,,,,,,,,
36,243,1563645900.0,,,,,,,,,,,,,,,,,,,
37,240,1563646800.0,,,,,,,,,,,,,,,,,,,
38,230,1563647700.0,,,,,,,,,,,,,,,,,,,
39,218,1563648600.0,,,,,,,,,,,,,,,,,,,
40,211,1563649500.0,,,,,,,,,,,,,,,,,,,
41,201,1563650400.0,,,,,,,,,,,,,,,,,,,
42,188,1563651300.0,,,,,,,,,,,,,,,,,,,
43,176,1563652200.0,,,,,,,,,,,,,,,,,,,
44,168,1563653100.0,,,,,,,,,,,,,,,,,,,
45,156,1563654000.0,,,,,,,,,,,,,,,,,,,
46,138,1563654900.0,,,,,,,,,,,,,,,,,,,
47,120,1563655800.0,,,,,,,,,,,,,,,,,,,
48,112,1563656700.0,,,,,,,,,,,,,,,,,,,
49,107,1563657600.0,,,,,,,,,,,,,,,,,,,
50,100,1563658500.0,,,,,,,,,,,,,,,,,,,
51,98,1563659400.0,,,,,,,,,,,,,,,,,,,
52,98,1563660300.0,,,,,,,,,,,,,,,,,,,
53,94,1563661200.0,,,,,,,,,,,,,,,,,,,
54,90,1563662100.0,,,,,,,,,,,,,,,,,,,
55,91,1563663000.0,,,,,,,,,,,,,,,,,,,
56,92,1563663900.0,,,,,,,,,,,,,,,,,,,
57,91,1563664800.0,,,,,,,,,,,,,,,,,,,
58,89,1563665700.0,,,,,,,,,,,,,,,,,,,
59,89,1563666600.0,,,,,,,,,,,,,,,,,,,
60,85,1563667500.0,,,,,,,,,,,,,,,,,,,
61,86,1563668400.0,,,,,,,,,,,,,,,,,,,
62,97,1563669300.0,,,,,,,,,,,,,,,,,,,
63,105,1563670200.0,,,,,,,,,,,,,,,,,,,
64,105,1563671100.0,,,,,,,,,,,,,,,,,,,
65,102,1563672000.0,,,,,,,,,,,,,,,,,,,
66,102,1563672900.0,,,,,,,,,,,,,,,,,,,
67,103,1563673800.0,,,,,,,,,,,,,,,,,,,
68,101,1563674700.0,,,,,,,,,,,,,,,,,,,
69,101,1563675600.0,,,,,,,,,,,,,,,,,,,
70,98,1563676500.0,,,,,,,,,,,,,,,,,,,
71,81,1563677400.0,,,,,,,,,,,,,,,,,,,
72,67,1563678300.0,1275,21-07-2019,Breakfast,38.6,9.4,3.7,10.4,286.0,3.0,4.0,78.89,08:35:00,67.0,258.0,10:50:00,150.0,08:35:00,2019-07-21,
73,69,1563679200.0,,,,,,,,,,,,,,,,,,,
74,96,1563680100.0,,,,,,,,,,,,,,,,,,,
75,114,1563681000.0,,,,,,,,,,,,,,,,,,,
76,143,1563681900.0,,,,,,,,,,,,,,,,,,,
77,186,1563682800.0,,,,,,,,,,,,,,,,,,,
78,211,1563683700.0,,,,,,,,,,,,,,,,,,,
79,225,1563684600.0,,,,,,,,,,,,,,,,,,,
80,246,1563685500.0,,,,,,,,,,,,,,,,,,,
81,258,1563686400.0,,,,,,,,,,,,,,,,,,,
82,257,1563687300.0,,,,,,,,,,,,,,,,,,,
83,266,1563688200.0,,,,,,,,,,,,,,,,,,,
84,267,1563689100.0,,,,,,,,,,,,,,,,,,,
85,255,1563690000.0,,,,,,,,,,,,,,,,,,,
86,240,1563690900.0,,,,,,,,,,,,,,,,,,,
87,229,1563691800.0,,,,,,,,,,,,,,,,,,,
88,215,1563692700.0,,,,,,,,,,,,,,,,,,,
89,193,1563693600.0,,,,,,,,,,,,,,,,,,,
90,173,1563694500.0,,,,,,,,,,,,,,,,,,,
91,157,1563695400.0,,,,,,,,,,,,,,,,,,,
92,153,1563696300.0,,,,,,,,,,,,,,,,,,,
93,165,1563697200.0,,,,,,,,,,,,,,,,,,,
94,177,1563698100.0,,,,,,,,,,,,,,,,,,,
95,175,1563699000.0,,,,,,,,,,,,,,,,,,,
96,167,1563699900.0,,,,,,,,,,,,,,,,,,,
97,164,1563700800.0,,,,,,,,,,,,,,,,,,,
98,158,1563701700.0,,,,,,,,,,,,,,,,,,,
99,148,1563702600.0,,,,,,,,,,,,,,,,,,,
100,145,1563703500.0,,,,,,,,,,,,,,,,,,,
101,142,1563704400.0,,,,,,,,,,,,,,,,,,,
102,139,1563705300.0,,,,,,,,,,,,,,,,,,,
103,136,1563706200.0,,,,,,,,,,,,,,,,,,,
104,135,1563707100.0,,,,,,,,,,,,,,,,,,,
105,139,1563708000.0,,,,,,,,,,,,,,,,,,,
106,138,1563708900.0,,,,,,,,,,,,,,,,,,,
107,132,1563709800.0,,,,,,,,,,,,,,,,,,,
108,136,1563710700.0,,,,,,,,,,,,,,,,,,,
109,138,1563711600.0,,,,,,,,,,,,,,,,,,,
110,135,1563712500.0,,,,,,,,,,,,,,,,,,,
111,135,1563713400.0,,,,,,,,,,,,,,,,,,,
112,134,1563714300.0,,,,,,,,,,,,,,,,,,,
113,126,1563715200.0,,,,,,,,,,,,,,,,,,,
114,118,1563716100.0,,,,,,,,,,,,,,,,,,,
115,109,1563717000.0,,,,,,,,,,,,,,,,,,,
116,100,1563717900.0,,,,,,,,,,,,,,,,,,,
117,94,1563718800.0,,,,,,,,,,,,,,,,,,,
118,88,1563719700.0,,,,,,,,,,,,,,,,,,,
119,82,1563720600.0,,,,,,,,,,,,,,,,,,,
120,93,1563721500.0,,,,,,,,,,,,,,,,,,,
121,125,1563722400.0,,,,,,,,,,,,,,,,,,,
122,156,1563723300.0,,,,,,,,,,,,,,,,,,,
123,178,1563724200.0,,,,,,,,,,,,,,,,,,,
124,192,1563725100.0,,,,,,,,,,,,,,,,,,,
125,204,1563726000.0,,,,,,,,,,,,,,,,,,,
126,210,1563726900.0,,,,,,,,,,,,,,,,,,,
127,209,1563727800.0,,,,,,,,,,,,,,,,,,,
128,206,1563728700.0,,,,,,,,,,,,,,,,,,,
129,202,1563729600.0,,,,,,,,,,,,,,,,,,,
130,201,1563730500.0,,,,,,,,,,,,,,,,,,,
131,203,1563731400.0,,,,,,,,,,,,,,,,,,,
132,192,1563732300.0,,,,,,,,,,,,,,,,,,,
133,165,1563733200.0,,,,,,,,,,,,,,,,,,,
134,142,1563734100.0,,,,,,,,,,,,,,,,,,,0.0
135,125,1563735000.0,,,,,,,,,,,,,,,,,,,
136,116,1563735900.0,,,,,,,,,,,,,,,,,,,
137,107,1563736800.0,,,,,,,,,,,,,,,,,,,
138,93,1563737700.0,,,,,,,,,,,,,,,,,,,0.0
139,81,1563738600.0,,,,,,,,,,,,,,,,,,,
140,75,1563739500.0,,,,,,,,,,,,,,,,,,,
141,72,1563740400.0,,,,,,,,,,,,,,,,,,,
142,71,1563741300.0,,,,,,,,,,,,,,,,,,,0.0
143,70,1563742200.0,,,,,,,,,,,,,,,,,,,
144,67,1563743100.0,,,,,,,,,,,,,,,,,,,
145,66,1563744000.0,,,,,,,,,,,,,,,,,,,
146,67,1563744900.0,,,,,,,,,,,,,,,,,,,0.0
147,72,1563745800.0,,,,,,,,,,,,,,,,,,,
148,72,1563746700.0,,,,,,,,,,,,,,,,,,,
149,72,1563747600.0,,,,,,,,,,,,,,,,,,,
150,71,1563748500.0,,,,,,,,,,,,,,,,,,,0.0
151,72,1563749400.0,,,,,,,,,,,,,,,,,,,
152,74,1563750300.0,,,,,,,,,,,,,,,,,,,
153,77,1563751200.0,,,,,,,,,,,,,,,,,,,
154,81,1563752100.0,,,,,,,,,,,,,,,,,,,0.0
155,86,1563753000.0,,,,,,,,,,,,,,,,,,,
156,87,1563753900.0,,,,,,,,,,,,,,,,,,,
157,84,1563754800.0,,,,,,,,,,,,,,,,,,,
158,84,1563755700.0,,,,,,,,,,,,,,,,,,,0.0
159,89,1563756600.0,,,,,,,,,,,,,,,,,,,
160,97,1563757500.0,,,,,,,,,,,,,,,,,,,
161,102,1563758400.0,,,,,,,,,,,,,,,,,,,
162,99,1563759300.0,,,,,,,,,,,,,,,,,,,0.0
163,99,1563760200.0,,,,,,,,,,,,,,,,,,,
164,117,1563761100.0,,,,,,,,,,,,,,,,,,,
165,149,1563762000.0,,,,,,,,,,,,,,,,,,,
166,169,1563762900.0,,,,,,,,,,,,,,,,,,,20.0
167,163,1563763800.0,,,,,,,,,,,,,,,,,,,
168,146,1563764700.0,,,,,,,,,,,,,,,,,,,
169,146,1563765600.0,1275,22-07-2019,Breakfast,34.6,12.55,3.9,7.85,287.0,2.0,4.0,73.14,08:50:00,146.0,201.0,09:50:00,135.0,08:50:00,2019-07-22,
170,163,1563766500.0,,,,,,,,,,,,,,,,,,,182.0
171,179,1563767400.0,,,,,,,,,,,,,,,,,,,
172,190,1563768300.0,,,,,,,,,,,,,,,,,,,
173,201,1563769200.0,,,,,,,,,,,,,,,,,,,
174,200,1563770100.0,,,,,,,,,,,,,,,,,,,725.0
175,185,1563771000.0,,,,,,,,,,,,,,,,,,,
176,169,1563771900.0,,,,,,,,,,,,,,,,,,,
177,154,1563772800.0,,,,,,,,,,,,,,,,,,,
178,148,1563773700.0,,,,,,,,,,,,,,,,,,,467.0
179,152,1563774600.0,,,,,,,,,,,,,,,,,,,
180,151,1563775500.0,,,,,,,,,,,,,,,,,,,
181,136,1563776400.0,,,,,,,,,,,,,,,,,,,
182,122,1563777300.0,,,,,,,,,,,,,,,,,,,642.0
183,112,1563778200.0,,,,,,,,,,,,,,,,,,,
184,99,1563779100.0,,,,,,,,,,,,,,,,,,,
185,88,1563780000.0,,,,,,,,,,,,,,,,,,,
186,87,1563780900.0,1275,22-07-2019,Lunch,89.15,20.8,12.05,19.2,631.0,4.0,3.0,61.74,13:05:00,87.0,180.0,16:05:00,330.0,13:05:00,2019-07-22,90.0
187,99,1563781800.0,,,,,,,,,,,,,,,,,,,
188,109,1563782700.0,,,,,,,,,,,,,,,,,,,
189,109,1563783600.0,,,,,,,,,,,,,,,,,,,
190,112,1563784500.0,,,,,,,,,,,,,,,,,,,759.0
191,116,1563785400.0,,,,,,,,,,,,,,,,,,,
192,123,1563786300.0,,,,,,,,,,,,,,,,,,,
193,139,1563787200.0,,,,,,,,,,,,,,,,,,,
194,152,1563788100.0,,,,,,,,,,,,,,,,,,,403.0
195,163,1563789000.0,,,,,,,,,,,,,,,,,,,
196,171,1563789900.0,,,,,,,,,,,,,,,,,,,
197,177,1563790800.0,,,,,,,,,,,,,,,,,,,
198,180,1563791700.0,,,,,,,,,,,,,,,,,,,331.0
199,174,1563792600.0,,,,,,,,,,,,,,,,,,,
200,162,1563793500.0,,,,,,,,,,,,,,,,,,,
201,152,1563794400.0,,,,,,,,,,,,,,,,,,,
202,144,1563795300.0,,,,,,,,,,,,,,,,,,,1638.0
203,136,1563796200.0,,,,,,,,,,,,,,,,,,,
204,127,1563797100.0,,,,,,,,,,,,,,,,,,,
205,115,1563798000.0,,,,,,,,,,,,,,,,,,,
206,106,1563798900.0,,,,,,,,,,,,,,,,,,,481.0
207,97,1563799800.0,,,,,,,,,,,,,,,,,,,
208,93,1563800700.0,1275,22-07-2019,Dinner,75.14,13.24,11.54,16.34,479.0,3.0,4.0,73.58,18:35:00,93.0,192.0,20:20:00,165.0,18:35:00,2019-07-22,
209,104,1563801600.0,,,,,,,,,,,,,,,,,,,
210,127,1563802500.0,,,,,,,,,,,,,,,,,,,120.0
211,154,1563803400.0,,,,,,,,,,,,,,,,,,,
212,173,1563804300.0,,,,,,,,,,,,,,,,,,,
213,181,1563805200.0,,,,,,,,,,,,,,,,,,,
214,188,1563806100.0,,,,,,,,,,,,,,,,,,,233.0
215,192,1563807000.0,,,,,,,,,,,,,,,,,,,
216,187,1563807900.0,,,,,,,,,,,,,,,,,,,
217,177,1563808800.0,,,,,,,,,,,,,,,,,,,
218,166,1563809700.0,,,,,,,,,,,,,,,,,,,10.0
219,165,1563810600.0,1275,22-07-2019,Dinner,75.14,13.24,11.54,16.34,479.0,2.0,3.0,56.93,21:20:00,165.0,197.0,22:35:00,105.0,21:20:00,2019-07-22,
220,172,1563811500.0,,,,,,,,,,,,,,,,,,,
221,180,1563812400.0,,,,,,,,,,,,,,,,,,,
222,187,1563813300.0,,,,,,,,,,,,,,,,,,,158.0
223,193,1563814200.0,,,,,,,,,,,,,,,,,,,
224,197,1563815100.0,,,,,,,,,,,,,,,,,,,
225,195,1563816000.0,,,,,,,,,,,,,,,,,,,
226,192,1563816900.0,,,,,,,,,,,,,,,,,,,16.0
227,194,1563817800.0,,,,,,,,,,,,,,,,,,,
228,196,1563818700.0,,,,,,,,,,,,,,,,,,,
229,190,1563819600.0,,,,,,,,,,,,,,,,,,,
230,171,1563820500.0,,,,,,,,,,,,,,,,,,,0.0
231,151,1563821400.0,,,,,,,,,,,,,,,,,,,
232,133,1563822300.0,,,,,,,,,,,,,,,,,,,
233,118,1563823200.0,,,,,,,,,,,,,,,,,,,
234,106,1563824100.0,,,,,,,,,,,,,,,,,,,0.0
235,100,1563825000.0,,,,,,,,,,,,,,,,,,,
236,97,1563825900.0,,,,,,,,,,,,,,,,,,,
237,92,1563826800.0,,,,,,,,,,,,,,,,,,,
238,82,1563827700.0,,,,,,,,,,,,,,,,,,,0.0
239,75,1563828600.0,,,,,,,,,,,,,,,,,,,
240,76,1563829500.0,,,,,,,,,,,,,,,,,,,
241,84,1563830400.0,,,,,,,,,,,,,,,,,,,
242,90,1563831300.0,,,,,,,,,,,,,,,,,,,0.0
243,90,1563832200.0,,,,,,,,,,,,,,,,,,,
244,85,1563833100.0,,,,,,,,,,,,,,,,,,,
245,80,1563834000.0,,,,,,,,,,,,,,,,,,,
246,81,1563834900.0,,,,,,,,,,,,,,,,,,,0.0
247,81,1563835800.0,,,,,,,,,,,,,,,,,,,
248,85,1563836700.0,,,,,,,,,,,,,,,,,,,
249,89,1563837600.0,,,,,,,,,,,,,,,,,,,
250,89,1563838500.0,,,,,,,,,,,,,,,,,,,0.0
251,90,1563839400.0,,,,,,,,,,,,,,,,,,,
252,91,1563840300.0,,,,,,,,,,,,,,,,,,,
253,90,1563841200.0,,,,,,,,,,,,,,,,,,,
254,91,1563842100.0,,,,,,,,,,,,,,,,,,,0.0
255,93,1563843000.0,,,,,,,,,,,,,,,,,,,
256,89,1563843900.0,,,,,,,,,,,,,,,,,,,
257,86,1563844800.0,,,,,,,,,,,,,,,,,,,
258,88,1563845700.0,,,,,,,,,,,,,,,,,,,0.0
259,92,1563846600.0,,,,,,,,,,,,,,,,,,,
260,92,1563847500.0,,,,,,,,,,,,,,,,,,,
261,88,1563848400.0,,,,,,,,,,,,,,,,,,,
262,87,1563849300.0,,,,,,,,,,,,,,,,,,,0.0
263,96,1563850200.0,,,,,,,,,,,,,,,,,,,
264,105,1563851100.0,,,,,,,,,,,,,,,,,,,
265,97,1563852000.0,,,,,,,,,,,,,,,,,,,
266,94,1563852900.0,1275,23-07-2019,Breakfast,33.2,9.5,2.4,8.7,259.0,2.0,4.0,78.37,09:05:00,94.0,175.0,10:05:00,270.0,09:05:00,2019-07-23,671.0
267,110,1563853800.0,,,,,,,,,,,,,,,,,,,
268,143,1563854700.0,,,,,,,,,,,,,,,,,,,
269,167,1563855600.0,,,,,,,,,,,,,,,,,,,
270,175,1563856500.0,,,,,,,,,,,,,,,,,,,405.0
271,173,1563857400.0,,,,,,,,,,,,,,,,,,,
272,168,1563858300.0,,,,,,,,,,,,,,,,,,,
273,162,1563859200.0,,,,,,,,,,,,,,,,,,,
274,152,1563860100.0,,,,,,,,,,,,,,,,,,,925.0
275,138,1563861000.0,,,,,,,,,,,,,,,,,,,
276,124,1563861900.0,,,,,,,,,,,,,,,,,,,
277,111,1563862800.0,,,,,,,,,,,,,,,,,,,
278,101,1563863700.0,,,,,,,,,,,,,,,,,,,915.0
279,98,1563864600.0,,,,,,,,,,,,,,,,,,,
280,96,1563865500.0,,,,,,,,,,,,,,,,,,,
281,89,1563866400.0,,,,,,,,,,,,,,,,,,,
282,80,1563867300.0,,,,,,,,,,,,,,,,,,,114.0
283,72,1563868200.0,,,,,,,,,,,,,,,,,,,
284,67,1563869100.0,1275,23-07-2019,Lunch,101.06,35.7,16.66,25.32,803.0,4.0,3.0,69.43,13:35:00,67.0,178.0,16:05:00,330.0,13:35:00,2019-07-23,
285,77,1563870000.0,,,,,,,,,,,,,,,,,,,
286,101,1563870900.0,,,,,,,,,,,,,,,,,,,229.0
287,118,1563871800.0,,,,,,,,,,,,,,,,,,,
288,126,1563872700.0,,,,,,,,,,,,,,,,,,,
289,137,1563873600.0,,,,,,,,,,,,,,,,,,,
290,146,1563874500.0,,,,,,,,,,,,,,,,,,,564.0
291,154,1563875400.0,,,,,,,,,,,,,,,,,,,
292,163,1563876300.0,,,,,,,,,,,,,,,,,,,
293,173,1563877200.0,,,,,,,,,,,,,,,,,,,
294,178,1563878100.0,,,,,,,,,,,,,,,,,,,746.0
295,178,1563879000.0,,,,,,,,,,,,,,,,,,,
296,175,1563879900.0,,,,,,,,,,,,,,,,,,,
297,164,1563880800.0,,,,,,,,,,,,,,,,,,,
298,147,1563881700.0,,,,,,,,,,,,,,,,,,,363.0
299,132,1563882600.0,,,,,,,,,,,,,,,,,,,
300,119,1563883500.0,,,,,,,,,,,,,,,,,,,
301,108,1563884400.0,,,,,,,,,,,,,,,,,,,
302,98,1563885300.0,,,,,,,,,,,,,,,,,,,0.0
303,89,1563886200.0,,,,,,,,,,,,,,,,,,,
304,83,1563887100.0,,,,,,,,,,,,,,,,,,,
305,76,1563888000.0,,,,,,,,,,,,,,,,,,,
306,72,1563888900.0,,,,,,,,,,,,,,,,,,,66.0
307,79,1563889800.0,,,,,,,,,,,,,,,,,,,
308,84,1563890700.0,,,,,,,,,,,,,,,,,,,
309,77,1563891600.0,,,,,,,,,,,,,,,,,,,
310,69,1563892500.0,,,,,,,,,,,,,,,,,,,289.0
311,63,1563893400.0,,,,,,,,,,,,,,,,,,,
312,61,1563894300.0,,,,,,,,,,,,,,,,,,,
313,71,1563895200.0,,,,,,,,,,,,,,,,,,,
314,106,1563896100.0,,,,,,,,,,,,,,,,,,,188.0
315,136,1563897000.0,,,,,,,,,,,,,,,,,,,
316,152,1563897900.0,,,,,,,,,,,,,,,,,,,
317,164,1563898800.0,,,,,,,,,,,,,,,,,,,
318,169,1563899700.0,,,,,,,,,,,,,,,,,,,0.0
319,166,1563900600.0,,,,,,,,,,,,,,,,,,,
320,157,1563901500.0,,,,,,,,,,,,,,,,,,,
321,152,1563902400.0,,,,,,,,,,,,,,,,,,,
322,152,1563903300.0,,,,,,,,,,,,,,,,,,,0.0
323,141,1563904200.0,,,,,,,,,,,,,,,,,,,
324,128,1563905100.0,,,,,,,,,,,,,,,,,,,
325,118,1563906000.0,,,,,,,,,,,,,,,,,,,
326,109,1563906900.0,,,,,,,,,,,,,,,,,,,0.0
327,102,1563907800.0,,,,,,,,,,,,,,,,,,,
328,98,1563908700.0,,,,,,,,,,,,,,,,,,,
329,97,1563909600.0,,,,,,,,,,,,,,,,,,,
330,98,1563910500.0,,,,,,,,,,,,,,,,,,,0.0
331,99,1563911400.0,,,,,,,,,,,,,,,,,,,
332,96,1563912300.0,,,,,,,,,,,,,,,,,,,
333,88,1563913200.0,,,,,,,,,,,,,,,,,,,
334,79,1563914100.0,,,,,,,,,,,,,,,,,,,0.0
335,75,1563915000.0,,,,,,,,,,,,,,,,,,,
336,73,1563915900.0,,,,,,,,,,,,,,,,,,,
337,70,1563916800.0,,,,,,,,,,,,,,,,,,,
338,72,1563917700.0,,,,,,,,,,,,,,,,,,,0.0
339,78,1563918600.0,,,,,,,,,,,,,,,,,,,
340,78,1563919500.0,,,,,,,,,,,,,,,,,,,
341,75,1563920400.0,,,,,,,,,,,,,,,,,,,
342,73,1563921300.0,,,,,,,,,,,,,,,,,,,0.0
343,77,1563922200.0,,,,,,,,,,,,,,,,,,,
344,82,1563923100.0,,,,,,,,,,,,,,,,,,,
345,83,1563924000.0,,,,,,,,,,,,,,,,,,,
346,81,1563924900.0,,,,,,,,,,,,,,,,,,,0.0
347,79,1563925800.0,,,,,,,,,,,,,,,,,,,
348,82,1563926700.0,,,,,,,,,,,,,,,,,,,
349,85,1563927600.0,,,,,,,,,,,,,,,,,,,
350,87,1563928500.0,,,,,,,,,,,,,,,,,,,881.0
351,87,1563929400.0,,,,,,,,,,,,,,,,,,,
352,86,1563930300.0,,,,,,,,,,,,,,,,,,,
353,86,1563931200.0,,,,,,,,,,,,,,,,,,,
354,82,1563932100.0,,,,,,,,,,,,,,,,,,,2507.0
355,79,1563933000.0,,,,,,,,,,,,,,,,,,,
356,89,1563933900.0,,,,,,,,,,,,,,,,,,,
357,100,1563934800.0,,,,,,,,,,,,,,,,,,,
358,96,1563935700.0,,,,,,,,,,,,,,,,,,,170.0
359,93,1563936600.0,1275,24-07-2019,Breakfast,48.8,7.7,2.5,8.1,300.0,2.0,4.0,75.74,08:20:00,93.0,175.0,09:35:00,240.0,08:20:00,2019-07-24,
360,103,1563937500.0,,,,,,,,,,,,,,,,,,,
361,128,1563938400.0,,,,,,,,,,,,,,,,,,,
362,156,1563939300.0,,,,,,,,,,,,,,,,,,,0.0
363,170,1563940200.0,,,,,,,,,,,,,,,,,,,
364,175,1563941100.0,,,,,,,,,,,,,,,,,,,
365,172,1563942000.0,,,,,,,,,,,,,,,,,,,
366,156,1563942900.0,,,,,,,,,,,,,,,,,,,0.0
367,136,1563943800.0,,,,,,,,,,,,,,,,,,,
368,124,1563944700.0,,,,,,,,,,,,,,,,,,,
369,114,1563945600.0,,,,,,,,,,,,,,,,,,,
370,108,1563946500.0,,,,,,,,,,,,,,,,,,,0.0
371,104,1563947400.0,,,,,,,,,,,,,,,,,,,
372,96,1563948300.0,,,,,,,,,,,,,,,,,,,
373,85,1563949200.0,,,,,,,,,,,,,,,,,,,
374,76,1563950100.0,,,,,,,,,,,,,,,,,,,0.0
375,72,1563951000.0,,,,,,,,,,,,,,,,,,,
376,75,1563951900.0,,,,,,,,,,,,,,,,,,,
377,79,1563952800.0,,,,,,,,,,,,,,,,,,,
378,73,1563953700.0,,,,,,,,,,,,,,,,,,,0.0
379,69,1563954600.0,1275,24-07-2019,Lunch,30.64,18.1,5.4,6.86,319.0,3.0,3.0,66.48,13:20:00,69.0,136.0,15:05:00,120.0,13:20:00,2019-07-24,
380,83,1563955500.0,,,,,,,,,,,,,,,,,,,
381,101,1563956400.0,,,,,,,,,,,,,,,,,,,
382,112,1563957300.0,,,,,,,,,,,,,,,,,,,0.0
383,121,1563958200.0,,,,,,,,,,,,,,,,,,,
384,129,1563959100.0,,,,,,,,,,,,,,,,,,,
385,135,1563960000.0,,,,,,,,,,,,,,,,,,,
386,136,1563960900.0,,,,,,,,,,,,,,,,,,,0.0
387,136,1563961800.0,,,,,,,,,,,,,,,,,,,
388,136,1563962700.0,,,,,,,,,,,,,,,,,,,
389,130,1563963600.0,,,,,,,,,,,,,,,,,,,
390,120,1563964500.0,,,,,,,,,,,,,,,,,,,0.0
391,110,1563965400.0,,,,,,,,,,,,,,,,,,,
392,108,1563966300.0,,,,,,,,,,,,,,,,,,,
393,109,1563967200.0,,,,,,,,,,,,,,,,,,,
394,106,1563968100.0,,,,,,,,,,,,,,,,,,,0.0
395,103,1563969000.0,,,,,,,,,,,,,,,,,,,
396,108,1563969900.0,,,,,,,,,,,,,,,,,,,
397,110,1563970800.0,,,,,,,,,,,,,,,,,,,
398,108,1563971700.0,,,,,,,,,,,,,,,,,,,0.0
399,102,1563972600.0,,,,,,,,,,,,,,,,,,,
400,98,1563973500.0,,,,,,,,,,,,,,,,,,,
401,94,1563974400.0,,,,,,,,,,,,,,,,,,,
402,87,1563975300.0,,,,,,,,,,,,,,,,,,,0.0
403,81,1563976200.0,,,,,,,,,,,,,,,,,,,
404,78,1563977100.0,,,,,,,,,,,,,,,,,,,
405,76,1563978000.0,,,,,,,,,,,,,,,,,,,
406,74,1563978900.0,,,,,,,,,,,,,,,,,,,0.0
407,72,1563979800.0,1275,24-07-2019,Dinner,18.3,2.0,4.5,3.4,102.0,3.0,4.0,71.79,20:20:00,72.0,148.0,21:50:00,195.0,20:20:00,2019-07-24,
408,76,1563980700.0,,,,,,,,,,,,,,,,,,,
409,97,1563981600.0,,,,,,,,,,,,,,,,,,,
410,122,1563982500.0,,,,,,,,,,,,,,,,,,,0.0
411,136,1563983400.0,,,,,,,,,,,,,,,,,,,
412,146,1563984300.0,,,,,,,,,,,,,,,,,,,
413,148,1563985200.0,,,,,,,,,,,,,,,,,,,
414,141,1563986100.0,,,,,,,,,,,,,,,,,,,0.0
415,128,1563987000.0,,,,,,,,,,,,,,,,,,,
416,115,1563987900.0,,,,,,,,,,,,,,,,,,,
417,102,1563988800.0,,,,,,,,,,,,,,,,,,,
418,89,1563989700.0,,,,,,,,,,,,,,,,,,,0.0
419,80,1563990600.0,,,,,,,,,,,,,,,,,,,
420,73,1563991500.0,,,,,,,,,,,,,,,,,,,
421,68,1563992400.0,,,,,,,,,,,,,,,,,,,
422,64,1563993300.0,,,,,,,,,,,,,,,,,,,
423,60,1563994200.0,,,,,,,,,,,,,,,,,,,
424,56,1563995100.0,,,,,,,,,,,,,,,,,,,
425,54,1563996000.0,,,,,,,,,,,,,,,,,,,
426,55,1563996900.0,,,,,,,,,,,,,,,,,,,
427,58,1563997800.0,,,,,,,,,,,,,,,,,,,
428,58,1563998700.0,,,,,,,,,,,,,,,,,,,
429,56,1563999600.0,,,,,,,,,,,,,,,,,,,
430,55,1564000500.0,,,,,,,,,,,,,,,,,,,
431,57,1564001400.0,,,,,,,,,,,,,,,,,,,
432,57,1564002300.0,,,,,,,,,,,,,,,,,,,
433,61,1564003200.0,,,,,,,,,,,,,,,,,,,
434,66,1564004100.0,,,,,,,,,,,,,,,,,,,
435,64,1564005000.0,,,,,,,,,,,,,,,,,,,
436,61,1564005900.0,,,,,,,,,,,,,,,,,,,
437,62,1564006800.0,,,,,,,,,,,,,,,,,,,
438,65,1564007700.0,,,,,,,,,,,,,,,,,,,
439,64,1564008600.0,,,,,,,,,,,,,,,,,,,
440,61,1564009500.0,,,,,,,,,,,,,,,,,,,
441,61,1564010400.0,,,,,,,,,,,,,,,,,,,
442,62,1564011300.0,,,,,,,,,,,,,,,,,,,
443,63,1564012200.0,,,,,,,,,,,,,,,,,,,
444,63,1564013100.0,,,,,,,,,,,,,,,,,,,
445,68,1564014000.0,,,,,,,,,,,,,,,,,,,
446,73,1564014900.0,,,,,,,,,,,,,,,,,,,
447,74,1564015800.0,,,,,,,,,,,,,,,,,,,
448,76,1564016700.0,,,,,,,,,,,,,,,,,,,
449,86,1564017600.0,,,,,,,,,,,,,,,,,,,
450,93,1564018500.0,,,,,,,,,,,,,,,,,,,
451,86,1564019400.0,,,,,,,,,,,,,,,,,,,
452,81,1564020300.0,,,,,,,,,,,,,,,,,,,
453,81,1564021200.0,,,,,,,,,,,,,,,,,,,
454,85,1564022100.0,,,,,,,,,,,,,,,,,,,
455,105,1564023000.0,,,,,,,,,,,,,,,,,,,
456,129,1564023900.0,,,,,,,,,,,,,,,,,,,
457,139,1564024800.0,,,,,,,,,,,,,,,,,,,
458,145,1564025700.0,,,,,,,,,,,,,,,,,,,
459,146,1564026600.0,,,,,,,,,,,,,,,,,,,
460,143,1564027500.0,,,,,,,,,,,,,,,,,,,
461,140,1564028400.0,,,,,,,,,,,,,,,,,,,
462,126,1564029300.0,,,,,,,,,,,,,,,,,,,
463,110,1564030200.0,,,,,,,,,,,,,,,,,,,
464,99,1564031100.0,,,,,,,,,,,,,,,,,,,
465,91,1564032000.0,,,,,,,,,,,,,,,,,,,
466,82,1564032900.0,,,,,,,,,,,,,,,,,,,
467,74,1564033800.0,,,,,,,,,,,,,,,,,,,
468,68,1564034700.0,,,,,,,,,,,,,,,,,,,
469,62,1564035600.0,,,,,,,,,,,,,,,,,,,
470,59,1564036500.0,,,,,,,,,,,,,,,,,,,
471,57,1564037400.0,,,,,,,,,,,,,,,,,,,
472,55,1564038300.0,,,,,,,,,,,,,,,,,,,
473,53,1564039200.0,,,,,,,,,,,,,,,,,,,
474,51,1564040100.0,,,,,,,,,,,,,,,,,,,
475,52,1564041000.0,,,,,,,,,,,,,,,,,,,
476,57,1564041900.0,,,,,,,,,,,,,,,,,,,
477,60,1564042800.0,,,,,,,,,,,,,,,,,,,
478,57,1564043700.0,1275,25-07-2019,Lunch,48.4,3.7,9.3,7.7,255.0,3.0,4.0,74.31,14:05:00,57.0,146.0,15:35:00,150.0,14:05:00,2019-07-25,
479,61,1564044600.0,,,,,,,,,,,,,,,,,,,
480,86,1564045500.0,,,,,,,,,,,,,,,,,,,
481,110,1564046400.0,,,,,,,,,,,,,,,,,,,
482,125,1564047300.0,,,,,,,,,,,,,,,,,,,
483,139,1564048200.0,,,,,,,,,,,,,,,,,,,
484,146,1564049100.0,,,,,,,,,,,,,,,,,,,
485,145,1564050000.0,,,,,,,,,,,,,,,,,,,
486,142,1564050900.0,,,,,,,,,,,,,,,,,,,
487,140,1564051800.0,,,,,,,,,,,,,,,,,,,
488,138,1564052700.0,,,,,,,,,,,,,,,,,,,
489,139,1564053600.0,,,,,,,,,,,,,,,,,,,
490,137,1564054500.0,,,,,,,,,,,,,,,,,,,
491,130,1564055400.0,,,,,,,,,,,,,,,,,,,
492,124,1564056300.0,,,,,,,,,,,,,,,,,,,
493,120,1564057200.0,,,,,,,,,,,,,,,,,,,
494,116,1564058100.0,,,,,,,,,,,,,,,,,,,
495,112,1564059000.0,,,,,,,,,,,,,,,,,,,
496,111,1564059900.0,1275,25-07-2019,Dinner,56.405,7.86,5.25,9.11,332.0,2.0,2.0,45.57,18:35:00,111.0,128.0,19:35:00,135.0,18:35:00,2019-07-25,
497,116,1564060800.0,,,,,,,,,,,,,,,,,,,
498,122,1564061700.0,,,,,,,,,,,,,,,,,,,
499,126,1564062600.0,,,,,,,,,,,,,,,,,,,
500,128,1564063500.0,,,,,,,,,,,,,,,,,,,
501,124,1564064400.0,,,,,,,,,,,,,,,,,,,
502,119,1564065300.0,,,,,,,,,,,,,,,,,,,
503,116,1564066200.0,,,,,,,,,,,,,,,,,,,
504,108,1564067100.0,,,,,,,,,,,,,,,,,,,
505,109,1564068000.0,,,,,,,,,,,,,,,,,,,
506,120,1564068900.0,,,,,,,,,,,,,,,,,,,
507,131,1564069800.0,,,,,,,,,,,,,,,,,,,
508,140,1564070700.0,,,,,,,,,,,,,,,,,,,
509,146,1564071600.0,,,,,,,,,,,,,,,,,,,
510,151,1564072500.0,,,,,,,,,,,,,,,,,,,
511,157,1564073400.0,,,,,,,,,,,,,,,,,,,
512,163,1564074300.0,,,,,,,,,,,,,,,,,,,
513,167,1564075200.0,,,,,,,,,,,,,,,,,,,
514,170,1564076100.0,,,,,,,,,,,,,,,,,,,
515,175,1564077000.0,,,,,,,,,,,,,,,,,,,
516,175,1564077900.0,,,,,,,,,,,,,,,,,,,
517,167,1564078800.0,,,,,,,,,,,,,,,,,,,
518,158,1564079700.0,,,,,,,,,,,,,,,,,,,
519,146,1564080600.0,,,,,,,,,,,,,,,,,,,
520,128,1564081500.0,,,,,,,,,,,,,,,,,,,
521,112,1564082400.0,,,,,,,,,,,,,,,,,,,
522,99,1564083300.0,,,,,,,,,,,,,,,,,,,
523,88,1564084200.0,,,,,,,,,,,,,,,,,,,
524,78,1564085100.0,,,,,,,,,,,,,,,,,,,
525,69,1564086000.0,,,,,,,,,,,,,,,,,,,
526,64,1564086900.0,,,,,,,,,,,,,,,,,,,
527,66,1564087800.0,,,,,,,,,,,,,,,,,,,
528,78,1564088700.0,,,,,,,,,,,,,,,,,,,
529,88,1564089600.0,,,,,,,,,,,,,,,,,,,
530,93,1564090500.0,,,,,,,,,,,,,,,,,,,
531,97,1564091400.0,,,,,,,,,,,,,,,,,,,
532,99,1564092300.0,,,,,,,,,,,,,,,,,,,
533,98,1564093200.0,,,,,,,,,,,,,,,,,,,
534,94,1564094100.0,,,,,,,,,,,,,,,,,,,
535,89,1564095000.0,,,,,,,,,,,,,,,,,,,
536,84,1564095900.0,,,,,,,,,,,,,,,,,,,
537,81,1564096800.0,,,,,,,,,,,,,,,,,,,
538,80,1564097700.0,,,,,,,,,,,,,,,,,,,
539,80,1564098600.0,,,,,,,,,,,,,,,,,,,
540,76,1564099500.0,,,,,,,,,,,,,,,,,,,
541,70,1564100400.0,,,,,,,,,,,,,,,,,,,
542,69,1564101300.0,,,,,,,,,,,,,,,,,,,
543,69,1564102200.0,,,,,,,,,,,,,,,,,,,
544,69,1564103100.0,,,,,,,,,,,,,,,,,,,
545,73,1564104000.0,,,,,,,,,,,,,,,,,,,
546,74,1564104900.0,,,,,,,,,,,,,,,,,,,
547,73,1564105800.0,,,,,,,,,,,,,,,,,,,
548,78,1564106700.0,,,,,,,,,,,,,,,,,,,
549,86,1564107600.0,,,,,,,,,,,,,,,,,,,
550,83,1564108500.0,,,,,,,,,,,,,,,,,,,
551,84,1564109400.0,,,,,,,,,,,,,,,,,,,
552,85,1564110300.0,,,,,,,,,,,,,,,,,,,
553,90,1564111200.0,,,,,,,,,,,,,,,,,,,
554,103,1564112100.0,,,,,,,,,,,,,,,,,,,
555,115,1564113000.0,,,,,,,,,,,,,,,,,,,
556,123,1564113900.0,,,,,,,,,,,,,,,,,,,
557,122,1564114800.0,,,,,,,,,,,,,,,,,,,
558,122,1564115700.0,,,,,,,,,,,,,,,,,,,
559,123,1564116600.0,,,,,,,,,,,,,,,,,,,
560,118,1564117500.0,,,,,,,,,,,,,,,,,,,
561,113,1564118400.0,,,,,,,,,,,,,,,,,,,
562,110,1564119300.0,,,,,,,,,,,,,,,,,,,
563,107,1564120200.0,,,,,,,,,,,,,,,,,,,
564,103,1564121100.0,,,,,,,,,,,,,,,,,,,
565,101,1564122000.0,,,,,,,,,,,,,,,,,,,
566,99,1564122900.0,,,,,,,,,,,,,,,,,,,
567,97,1564123800.0,,,,,,,,,,,,,,,,,,,
568,98,1564124700.0,,,,,,,,,,,,,,,,,,,
569,96,1564125600.0,,,,,,,,,,,,,,,,,,,
570,93,1564126500.0,,,,,,,,,,,,,,,,,,,
571,92,1564127400.0,,,,,,,,,,,,,,,,,,,
572,85,1564128300.0,,,,,,,,,,,,,,,,,,,
573,82,1564129200.0,1275,26-07-2019,Lunch,69.05,21.4,9.7,17.7,569.0,4.0,3.0,58.12,13:50:00,82.0,149.0,16:20:00,330.0,13:50:00,2019-07-26,
574,91,1564130100.0,,,,,,,,,,,,,,,,,,,
575,102,1564131000.0,,,,,,,,,,,,,,,,,,,
576,108,1564131900.0,,,,,,,,,,,,,,,,,,,
577,113,1564132800.0,,,,,,,,,,,,,,,,,,,
578,119,1564133700.0,,,,,,,,,,,,,,,,,,,
579,126,1564134600.0,,,,,,,,,,,,,,,,,,,
580,134,1564135500.0,,,,,,,,,,,,,,,,,,,
581,137,1564136400.0,,,,,,,,,,,,,,,,,,,
582,143,1564137300.0,,,,,,,,,,,,,,,,,,,
583,149,1564138200.0,,,,,,,,,,,,,,,,,,,
584,149,1564139100.0,,,,,,,,,,,,,,,,,,,
585,147,1564140000.0,,,,,,,,,,,,,,,,,,,
586,144,1564140900.0,,,,,,,,,,,,,,,,,,,
587,141,1564141800.0,,,,,,,,,,,,,,,,,,,
588,136,1564142700.0,,,,,,,,,,,,,,,,,,,
589,126,1564143600.0,,,,,,,,,,,,,,,,,,,
590,118,1564144500.0,,,,,,,,,,,,,,,,,,,
591,112,1564145400.0,,,,,,,,,,,,,,,,,,,
592,106,1564146300.0,,,,,,,,,,,,,,,,,,,
593,101,1564147200.0,,,,,,,,,,,,,,,,,,,
594,95,1564148100.0,,,,,,,,,,,,,,,,,,,
595,94,1564149000.0,,,,,,,,,,,,,,,,,,,
596,101,1564149900.0,,,,,,,,,,,,,,,,,,,
597,105,1564150800.0,,,,,,,,,,,,,,,,,,,
598,98,1564151700.0,,,,,,,,,,,,,,,,,,,
599,88,1564152600.0,,,,,,,,,,,,,,,,,,,
600,80,1564153500.0,,,,,,,,,,,,,,,,,,,
601,78,1564154400.0,1275,26-07-2019,Dinner,89.73,28.6,10.88,21.86,689.0,3.0,3.0,68.96,20:50:00,78.0,143.0,22:20:00,120.0,20:50:00,2019-07-26,
602,97,1564155300.0,,,,,,,,,,,,,,,,,,,
603,121,1564156200.0,,,,,,,,,,,,,,,,,,,
604,131,1564157100.0,,,,,,,,,,,,,,,,,,,
605,131,1564158000.0,,,,,,,,,,,,,,,,,,,
606,137,1564158900.0,,,,,,,,,,,,,,,,,,,
607,143,1564159800.0,,,,,,,,,,,,,,,,,,,
608,141,1564160700.0,,,,,,,,,,,,,,,,,,,
609,140,1564161600.0,,,,,,,,,,,,,,,,,,,
610,141,1564162500.0,,,,,,,,,,,,,,,,,,,
611,138,1564163400.0,,,,,,,,,,,,,,,,,,,
612,125,1564164300.0,,,,,,,,,,,,,,,,,,,
613,109,1564165200.0,,,,,,,,,,,,,,,,,,,
614,98,1564166100.0,,,,,,,,,,,,,,,,,,,
615,90,1564167000.0,,,,,,,,,,,,,,,,,,,
616,87,1564167900.0,,,,,,,,,,,,,,,,,,,
617,84,1564168800.0,,,,,,,,,,,,,,,,,,,
618,79,1564169700.0,,,,,,,,,,,,,,,,,,,
619,73,1564170600.0,,,,,,,,,,,,,,,,,,,
620,68,1564171500.0,,,,,,,,,,,,,,,,,,,
621,62,1564172400.0,,,,,,,,,,,,,,,,,,,
622,59,1564173300.0,,,,,,,,,,,,,,,,,,,
623,57,1564174200.0,,,,,,,,,,,,,,,,,,,
624,56,1564175100.0,,,,,,,,,,,,,,,,,,,
625,55,1564176000.0,,,,,,,,,,,,,,,,,,,
626,54,1564176900.0,,,,,,,,,,,,,,,,,,,
627,55,1564177800.0,,,,,,,,,,,,,,,,,,,
628,57,1564178700.0,,,,,,,,,,,,,,,,,,,
629,57,1564179600.0,,,,,,,,,,,,,,,,,,,
630,58,1564180500.0,,,,,,,,,,,,,,,,,,,
631,57,1564181400.0,,,,,,,,,,,,,,,,,,,
632,60,1564182300.0,,,,,,,,,,,,,,,,,,,
633,63,1564183200.0,,,,,,,,,,,,,,,,,,,
634,63,1564184100.0,,,,,,,,,,,,,,,,,,,
635,65,1564185000.0,,,,,,,,,,,,,,,,,,,
636,67,1564185900.0,,,,,,,,,,,,,,,,,,,
637,68,1564186800.0,,,,,,,,,,,,,,,,,,,
638,70,1564187700.0,,,,,,,,,,,,,,,,,,,
639,71,1564188600.0,,,,,,,,,,,,,,,,,,,
640,71,1564189500.0,,,,,,,,,,,,,,,,,,,
641,71,1564190400.0,,,,,,,,,,,,,,,,,,,
642,70,1564191300.0,,,,,,,,,,,,,,,,,,,
643,70,1564192200.0,,,,,,,,,,,,,,,,,,,
644,72,1564193100.0,,,,,,,,,,,,,,,,,,,
645,77,1564194000.0,,,,,,,,,,,,,,,,,,,
646,86,1564194900.0,,,,,,,,,,,,,,,,,,,
647,89,1564195800.0,,,,,,,,,,,,,,,,,,,
648,85,1564196700.0,,,,,,,,,,,,,,,,,,,
649,83,1564197600.0,,,,,,,,,,,,,,,,,,,
650,90,1564198500.0,,,,,,,,,,,,,,,,,,,
651,108,1564199400.0,,,,,,,,,,,,,,,,,,,
652,127,1564200300.0,,,,,,,,,,,,,,,,,,,
653,136,1564201200.0,,,,,,,,,,,,,,,,,,,
654,136,1564202100.0,,,,,,,,,,,,,,,,,,,
655,133,1564203000.0,,,,,,,,,,,,,,,,,,,
656,127,1564203900.0,,,,,,,,,,,,,,,,,,,
657,120,1564204800.0,,,,,,,,,,,,,,,,,,,
658,110,1564205700.0,,,,,,,,,,,,,,,,,,,
659,100,1564206600.0,,,,,,,,,,,,,,,,,,,
660,92,1564207500.0,,,,,,,,,,,,,,,,,,,
661,86,1564208400.0,,,,,,,,,,,,,,,,,,,
662,82,1564209300.0,,,,,,,,,,,,,,,,,,,
663,76,1564210200.0,,,,,,,,,,,,,,,,,,,
664,70,1564211100.0,,,,,,,,,,,,,,,,,,,
665,64,1564212000.0,,,,,,,,,,,,,,,,,,,
666,60,1564212900.0,,,,,,,,,,,,,,,,,,,
667,57,1564213800.0,,,,,,,,,,,,,,,,,,,
668,54,1564214700.0,,,,,,,,,,,,,,,,,,,
669,54,1564215600.0,1275,27-07-2019,Lunch,55.55,19.1,14.7,13.1,451.0,4.0,3.0,61.09,13:50:00,54.0,137.0,16:35:00,225.0,13:50:00,2019-07-27,
670,72,1564216500.0,,,,,,,,,,,,,,,,,,,
671,95,1564217400.0,,,,,,,,,,,,,,,,,,,
672,111,1564218300.0,,,,,,,,,,,,,,,,,,,
673,121,1564219200.0,,,,,,,,,,,,,,,,,,,
674,124,1564220100.0,,,,,,,,,,,,,,,,,,,
675,127,1564221000.0,,,,,,,,,,,,,,,,,,,
676,129,1564221900.0,,,,,,,,,,,,,,,,,,,
677,133,1564222800.0,,,,,,,,,,,,,,,,,,,
678,134,1564223700.0,,,,,,,,,,,,,,,,,,,
679,135,1564224600.0,,,,,,,,,,,,,,,,,,,
680,137,1564225500.0,,,,,,,,,,,,,,,,,,,
681,136,1564226400.0,,,,,,,,,,,,,,,,,,,
682,134,1564227300.0,,,,,,,,,,,,,,,,,,,
683,131,1564228200.0,,,,,,,,,,,,,,,,,,,
684,126,1564229100.0,,,,,,,,,,,,,,,,,,,
685,127,1564230000.0,,,,,,,,,,,,,,,,,,,
686,128,1564230900.0,,,,,,,,,,,,,,,,,,,
687,124,1564231800.0,,,,,,,,,,,,,,,,,,,
688,116,1564232700.0,,,,,,,,,,,,,,,,,,,
689,107,1564233600.0,,,,,,,,,,,,,,,,,,,
690,102,1564234500.0,,,,,,,,,,,,,,,,,,,
691,104,1564235400.0,,,,,,,,,,,,,,,,,,,
692,104,1564236300.0,,,,,,,,,,,,,,,,,,,
693,102,1564237200.0,,,,,,,,,,,,,,,,,,,
694,100,1564238100.0,,,,,,,,,,,,,,,,,,,
695,98,1564239000.0,,,,,,,,,,,,,,,,,,,
696,93,1564239900.0,,,,,,,,,,,,,,,,,,,
697,85,1564240800.0,,,,,,,,,,,,,,,,,,,
698,80,1564241700.0,,,,,,,,,,,,,,,,,,,
699,90,1564242600.0,,,,,,,,,,,,,,,,,,,
700,105,1564243500.0,,,,,,,,,,,,,,,,,,,
701,110,1564244400.0,,,,,,,,,,,,,,,,,,,
702,106,1564245300.0,,,,,,,,,,,,,,,,,,,
703,104,1564246200.0,,,,,,,,,,,,,,,,,,,
704,111,1564247100.0,,,,,,,,,,,,,,,,,,,
705,122,1564248000.0,,,,,,,,,,,,,,,,,,,
706,131,1564248900.0,,,,,,,,,,,,,,,,,,,
707,134,1564249800.0,,,,,,,,,,,,,,,,,,,
708,134,1564250700.0,,,,,,,,,,,,,,,,,,,
709,132,1564251600.0,,,,,,,,,,,,,,,,,,,
710,124,1564252500.0,,,,,,,,,,,,,,,,,,,
711,116,1564253400.0,,,,,,,,,,,,,,,,,,,
712,111,1564254300.0,,,,,,,,,,,,,,,,,,,
713,102,1564255200.0,,,,,,,,,,,,,,,,,,,
714,91,1564256100.0,,,,,,,,,,,,,,,,,,,
715,83,1564257000.0,,,,,,,,,,,,,,,,,,,
716,78,1564257900.0,,,,,,,,,,,,,,,,,,,
717,77,1564258800.0,,,,,,,,,,,,,,,,,,,
718,76,1564259700.0,,,,,,,,,,,,,,,,,,,
719,75,1564260600.0,,,,,,,,,,,,,,,,,,,
720,75,1564261500.0,,,,,,,,,,,,,,,,,,,
721,73,1564262400.0,,,,,,,,,,,,,,,,,,,
722,70,1564263300.0,,,,,,,,,,,,,,,,,,,
723,67,1564264200.0,,,,,,,,,,,,,,,,,,,
724,65,1564265100.0,,,,,,,,,,,,,,,,,,,
725,64,1564266000.0,,,,,,,,,,,,,,,,,,,
726,66,1564266900.0,,,,,,,,,,,,,,,,,,,
727,66,1564267800.0,,,,,,,,,,,,,,,,,,,
728,64,1564268700.0,,,,,,,,,,,,,,,,,,,
729,63,1564269600.0,,,,,,,,,,,,,,,,,,,
730,66,1564270500.0,,,,,,,,,,,,,,,,,,,
731,69,1564271400.0,,,,,,,,,,,,,,,,,,,
732,68,1564272300.0,,,,,,,,,,,,,,,,,,,
733,66,1564273200.0,,,,,,,,,,,,,,,,,,,
734,65,1564274100.0,,,,,,,,,,,,,,,,,,,
735,68,1564275000.0,,,,,,,,,,,,,,,,,,,
736,69,1564275900.0,,,,,,,,,,,,,,,,,,,
737,62,1564276800.0,,,,,,,,,,,,,,,,,,,
738,59,1564277700.0,,,,,,,,,,,,,,,,,,,
739,65,1564278600.0,,,,,,,,,,,,,,,,,,,
740,76,1564279500.0,,,,,,,,,,,,,,,,,,,
741,74,1564280400.0,,,,,,,,,,,,,,,,,,,
742,72,1564281300.0,,,,,,,,,,,,,,,,,,,
743,75,1564282200.0,,,,,,,,,,,,,,,,,,,
744,77,1564283100.0,,,,,,,,,,,,,,,,,,,
745,82,1564284000.0,,,,,,,,,,,,,,,,,,,
746,86,1564284900.0,,,,,,,,,,,,,,,,,,,
747,94,1564285800.0,,,,,,,,,,,,,,,,,,,
748,109,1564286700.0,,,,,,,,,,,,,,,,,,,
749,124,1564287600.0,,,,,,,,,,,,,,,,,,,
750,134,1564288500.0,,,,,,,,,,,,,,,,,,,
751,137,1564289400.0,,,,,,,,,,,,,,,,,,,
752,139,1564290300.0,,,,,,,,,,,,,,,,,,,
753,141,1564291200.0,,,,,,,,,,,,,,,,,,,
754,135,1564292100.0,,,,,,,,,,,,,,,,,,,
755,128,1564293000.0,,,,,,,,,,,,,,,,,,,
756,125,1564293900.0,,,,,,,,,,,,,,,,,,,
757,118,1564294800.0,,,,,,,,,,,,,,,,,,,
758,109,1564295700.0,,,,,,,,,,,,,,,,,,,
759,98,1564296600.0,,,,,,,,,,,,,,,,,,,
760,88,1564297500.0,,,,,,,,,,,,,,,,,,,
761,80,1564298400.0,,,,,,,,,,,,,,,,,,,
762,72,1564299300.0,,,,,,,,,,,,,,,,,,,
763,64,1564300200.0,,,,,,,,,,,,,,,,,,,
764,61,1564301100.0,1275,28-07-2019,Lunch,82.565,25.73,10.04,19.57,631.0,3.0,3.0,55.95,13:35:00,61.0,98.0,15:05:00,120.0,13:35:00,2019-07-28,
765,68,1564302000.0,,,,,,,,,,,,,,,,,,,
766,80,1564302900.0,,,,,,,,,,,,,,,,,,,
767,87,1564303800.0,,,,,,,,,,,,,,,,,,,
768,92,1564304700.0,,,,,,,,,,,,,,,,,,,
769,97,1564305600.0,,,,,,,,,,,,,,,,,,,
770,98,1564306500.0,,,,,,,,,,,,,,,,,,,
771,96,1564307400.0,,,,,,,,,,,,,,,,,,,
772,94,1564308300.0,,,,,,,,,,,,,,,,,,,
773,94,1564309200.0,,,,,,,,,,,,,,,,,,,
774,97,1564310100.0,,,,,,,,,,,,,,,,,,,
775,96,1564311000.0,,,,,,,,,,,,,,,,,,,
776,91,1564311900.0,,,,,,,,,,,,,,,,,,,
777,78,1564312800.0,,,,,,,,,,,,,,,,,,,
778,68,1564313700.0,,,,,,,,,,,,,,,,,,,
779,71,1564314600.0,,,,,,,,,,,,,,,,,,,
780,81,1564315500.0,,,,,,,,,,,,,,,,,,,
781,83,1564316400.0,,,,,,,,,,,,,,,,,,,
782,86,1564317300.0,,,,,,,,,,,,,,,,,,,
783,90,1564318200.0,,,,,,,,,,,,,,,,,,,
784,90,1564319100.0,,,,,,,,,,,,,,,,,,,
785,89,1564320000.0,,,,,,,,,,,,,,,,,,,
786,93,1564320900.0,,,,,,,,,,,,,,,,,,,
787,99,1564321800.0,,,,,,,,,,,,,,,,,,,
788,101,1564322700.0,,,,,,,,,,,,,,,,,,,
789,103,1564323600.0,,,,,,,,,,,,,,,,,,,
790,104,1564324500.0,,,,,,,,,,,,,,,,,,,
791,100,1564325400.0,,,,,,,,,,,,,,,,,,,
792,102,1564326300.0,,,,,,,,,,,,,,,,,,,
793,108,1564327200.0,,,,,,,,,,,,,,,,,,,
794,116,1564328100.0,,,,,,,,,,,,,,,,,,,
795,123,1564329000.0,,,,,,,,,,,,,,,,,,,
796,130,1564329900.0,,,,,,,,,,,,,,,,,,,
797,136,1564330800.0,,,,,,,,,,,,,,,,,,,
798,138,1564331700.0,,,,,,,,,,,,,,,,,,,
799,137,1564332600.0,,,,,,,,,,,,,,,,,,,
800,124,1564333500.0,,,,,,,,,,,,,,,,,,,
801,110,1564334400.0,,,,,,,,,,,,,,,,,,,
802,108,1564335300.0,,,,,,,,,,,,,,,,,,,
803,106,1564336200.0,,,,,,,,,,,,,,,,,,,
804,98,1564337100.0,,,,,,,,,,,,,,,,,,,
805,91,1564338000.0,,,,,,,,,,,,,,,,,,,
806,87,1564338900.0,,,,,,,,,,,,,,,,,,,
807,83,1564339800.0,,,,,,,,,,,,,,,,,,,
808,81,1564340700.0,,,,,,,,,,,,,,,,,,,
809,82,1564341600.0,,,,,,,,,,,,,,,,,,,
810,77,1564342500.0,,,,,,,,,,,,,,,,,,,
811,68,1564343400.0,,,,,,,,,,,,,,,,,,,
812,63,1564344300.0,,,,,,,,,,,,,,,,,,,
813,64,1564345200.0,,,,,,,,,,,,,,,,,,,
814,64,1564346100.0,,,,,,,,,,,,,,,,,,,
815,62,1564347000.0,,,,,,,,,,,,,,,,,,,
816,63,1564347900.0,,,,,,,,,,,,,,,,,,,
817,67,1564348800.0,,,,,,,,,,,,,,,,,,,
818,68,1564349700.0,,,,,,,,,,,,,,,,,,,
819,68,1564350600.0,,,,,,,,,,,,,,,,,,,
820,70,1564351500.0,,,,,,,,,,,,,,,,,,,
821,73,1564352400.0,,,,,,,,,,,,,,,,,,,
822,71,1564353300.0,,,,,,,,,,,,,,,,,,,
823,70,1564354200.0,,,,,,,,,,,,,,,,,,,
824,70,1564355100.0,,,,,,,,,,,,,,,,,,,
825,69,1564356000.0,,,,,,,,,,,,,,,,,,,
826,69,1564356900.0,,,,,,,,,,,,,,,,,,,
827,67,1564357800.0,,,,,,,,,,,,,,,,,,,
828,68,1564358700.0,,,,,,,,,,,,,,,,,,,
829,69,1564359600.0,,,,,,,,,,,,,,,,,,,
830,68,1564360500.0,,,,,,,,,,,,,,,,,,,
831,67,1564361400.0,,,,,,,,,,,,,,,,,,,
832,69,1564362300.0,,,,,,,,,,,,,,,,,,,
833,70,1564363200.0,,,,,,,,,,,,,,,,,,,
834,70,1564364100.0,,,,,,,,,,,,,,,,,,,
835,74,1564365000.0,,,,,,,,,,,,,,,,,,,
836,83,1564365900.0,,,,,,,,,,,,,,,,,,,
837,92,1564366800.0,,,,,,,,,,,,,,,,,,,
838,93,1564367700.0,,,,,,,,,,,,,,,,,,,
839,91,1564368600.0,,,,,,,,,,,,,,,,,,,
840,91,1564369500.0,,,,,,,,,,,,,,,,,,,
841,105,1564370400.0,,,,,,,,,,,,,,,,,,,
842,129,1564371300.0,,,,,,,,,,,,,,,,,,,
843,141,1564372200.0,,,,,,,,,,,,,,,,,,,
844,146,1564373100.0,,,,,,,,,,,,,,,,,,,
845,147,1564374000.0,,,,,,,,,,,,,,,,,,,
846,139,1564374900.0,,,,,,,,,,,,,,,,,,,
847,126,1564375800.0,,,,,,,,,,,,,,,,,,,
848,112,1564376700.0,,,,,,,,,,,,,,,,,,,
849,100,1564377600.0,,,,,,,,,,,,,,,,,,,
850,91,1564378500.0,,,,,,,,,,,,,,,,,,,
851,81,1564379400.0,,,,,,,,,,,,,,,,,,,
852,76,1564380300.0,,,,,,,,,,,,,,,,,,,
853,80,1564381200.0,,,,,,,,,,,,,,,,,,,
854,87,1564382100.0,,,,,,,,,,,,,,,,,,,
855,84,1564383000.0,,,,,,,,,,,,,,,,,,,
856,77,1564383900.0,,,,,,,,,,,,,,,,,,,
857,68,1564384800.0,,,,,,,,,,,,,,,,,,,
858,62,1564385700.0,,,,,,,,,,,,,,,,,,,
859,59,1564386600.0,1275,29-07-2019,Lunch,81.28,11.62,12.18,19.52,520.0,3.0,3.0,64.81,13:20:00,59.0,121.0,15:05:00,135.0,13:20:00,2019-07-29,
860,63,1564387500.0,,,,,,,,,,,,,,,,,,,
861,83,1564388400.0,,,,,,,,,,,,,,,,,,,
862,100,1564389300.0,,,,,,,,,,,,,,,,,,,
863,108,1564390200.0,,,,,,,,,,,,,,,,,,,
864,113,1564391100.0,,,,,,,,,,,,,,,,,,,
865,120,1564392000.0,,,,,,,,,,,,,,,,,,,
866,121,1564392900.0,,,,,,,,,,,,,,,,,,,
867,118,1564393800.0,,,,,,,,,,,,,,,,,,,
868,118,1564394700.0,,,,,,,,,,,,,,,,,,,
869,122,1564395600.0,,,,,,,,,,,,,,,,,,,
870,125,1564396500.0,,,,,,,,,,,,,,,,,,,
871,123,1564397400.0,,,,,,,,,,,,,,,,,,,
872,117,1564398300.0,,,,,,,,,,,,,,,,,,,
873,114,1564399200.0,,,,,,,,,,,,,,,,,,,
874,110,1564400100.0,,,,,,,,,,,,,,,,,,,
875,101,1564401000.0,,,,,,,,,,,,,,,,,,,
876,95,1564401900.0,,,,,,,,,,,,,,,,,,,
877,90,1564402800.0,,,,,,,,,,,,,,,,,,,
878,82,1564403700.0,,,,,,,,,,,,,,,,,,,
879,75,1564404600.0,,,,,,,,,,,,,,,,,,,
880,72,1564405500.0,,,,,,,,,,,,,,,,,,,
881,69,1564406400.0,,,,,,,,,,,,,,,,,,,
882,63,1564407300.0,,,,,,,,,,,,,,,,,,,
883,59,1564408200.0,,,,,,,,,,,,,,,,,,,
884,58,1564409100.0,,,,,,,,,,,,,,,,,,,
885,56,1564410000.0,,,,,,,,,,,,,,,,,,,
886,55,1564410900.0,,,,,,,,,,,,,,,,,,,
887,64,1564411800.0,,,,,,,,,,,,,,,,,,,
888,84,1564412700.0,,,,,,,,,,,,,,,,,,,
889,94,1564413600.0,,,,,,,,,,,,,,,,,,,
890,98,1564414500.0,,,,,,,,,,,,,,,,,,,
891,99,1564415400.0,,,,,,,,,,,,,,,,,,,
892,99,1564416300.0,,,,,,,,,,,,,,,,,,,
893,101,1564417200.0,,,,,,,,,,,,,,,,,,,
894,105,1564418100.0,,,,,,,,,,,,,,,,,,,
895,107,1564419000.0,,,,,,,,,,,,,,,,,,,
896,106,1564419900.0,,,,,,,,,,,,,,,,,,,
897,101,1564420800.0,,,,,,,,,,,,,,,,,,,
898,95,1564421700.0,,,,,,,,,,,,,,,,,,,
899,93,1564422600.0,,,,,,,,,,,,,,,,,,,
900,99,1564423500.0,,,,,,,,,,,,,,,,,,,
901,104,1564424400.0,,,,,,,,,,,,,,,,,,,
902,103,1564425300.0,,,,,,,,,,,,,,,,,,,
903,105,1564426200.0,,,,,,,,,,,,,,,,,,,
904,111,1564427100.0,,,,,,,,,,,,,,,,,,,
905,113,1564428000.0,,,,,,,,,,,,,,,,,,,
906,114,1564428900.0,,,,,,,,,,,,,,,,,,,
907,113,1564429800.0,,,,,,,,,,,,,,,,,,,
908,113,1564430700.0,,,,,,,,,,,,,,,,,,,
909,114,1564431600.0,,,,,,,,,,,,,,,,,,,
910,119,1564432500.0,,,,,,,,,,,,,,,,,,,
911,125,1564433400.0,,,,,,,,,,,,,,,,,,,
912,123,1564434300.0,,,,,,,,,,,,,,,,,,,
913,113,1564435200.0,,,,,,,,,,,,,,,,,,,
914,104,1564436100.0,,,,,,,,,,,,,,,,,,,
915,99,1564437000.0,,,,,,,,,,,,,,,,,,,
916,97,1564437900.0,,,,,,,,,,,,,,,,,,,
917,93,1564438800.0,,,,,,,,,,,,,,,,,,,
918,92,1564439700.0,,,,,,,,,,,,,,,,,,,
919,97,1564440600.0,,,,,,,,,,,,,,,,,,,
920,102,1564441500.0,,,,,,,,,,,,,,,,,,,
921,100,1564442400.0,,,,,,,,,,,,,,,,,,,
922,95,1564443300.0,,,,,,,,,,,,,,,,,,,
923,90,1564444200.0,,,,,,,,,,,,,,,,,,,
924,86,1564445100.0,,,,,,,,,,,,,,,,,,,
925,85,1564446000.0,,,,,,,,,,,,,,,,,,,
926,85,1564446900.0,,,,,,,,,,,,,,,,,,,
927,83,1564447800.0,,,,,,,,,,,,,,,,,,,
928,81,1564448700.0,,,,,,,,,,,,,,,,,,,
929,78,1564449600.0,,,,,,,,,,,,,,,,,,,
930,74,1564450500.0,,,,,,,,,,,,,,,,,,,
931,75,1564451400.0,,,,,,,,,,,,,,,,,,,
932,77,1564452300.0,,,,,,,,,,,,,,,,,,,
933,73,1564453200.0,,,,,,,,,,,,,,,,,,,
934,80,1564454100.0,,,,,,,,,,,,,,,,,,,
935,92,1564455000.0,,,,,,,,,,,,,,,,,,,
936,90,1564455900.0,,,,,,,,,,,,,,,,,,,
937,84,1564456800.0,,,,,,,,,,,,,,,,,,,
938,82,1564457700.0,,,,,,,,,,,,,,,,,,,
939,90,1564458600.0,,,,,,,,,,,,,,,,,,,
940,103,1564459500.0,,,,,,,,,,,,,,,,,,,
941,111,1564460400.0,,,,,,,,,,,,,,,,,,,
942,116,1564461300.0,,,,,,,,,,,,,,,,,,,
943,120,1564462200.0,,,,,,,,,,,,,,,,,,,
944,121,1564463100.0,,,,,,,,,,,,,,,,,,,
945,118,1564464000.0,,,,,,,,,,,,,,,,,,,
946,109,1564464900.0,,,,,,,,,,,,,,,,,,,
947,99,1564465800.0,,,,,,,,,,,,,,,,,,,
948,91,1564466700.0,,,,,,,,,,,,,,,,,,,
949,87,1564467600.0,,,,,,,,,,,,,,,,,,,
950,88,1564468500.0,,,,,,,,,,,,,,,,,,,
951,91,1564469400.0,,,,,,,,,,,,,,,,,,,
952,92,1564470300.0,,,,,,,,,,,,,,,,,,,
953,86,1564471200.0,,,,,,,,,,,,,,,,,,,
954,77,1564472100.0,,,,,,,,,,,,,,,,,,,
955,69,1564473000.0,,,,,,,,,,,,,,,,,,,
956,66,1564473900.0,1275,30-07-2019,Lunch,61.0,8.5,11.0,12.5,359.0,4.0,2.0,52.35,13:35:00,66.0,120.0,16:05:00,255.0,13:35:00,2019-07-30,
957,69,1564474800.0,,,,,,,,,,,,,,,,,,,
958,76,1564475700.0,,,,,,,,,,,,,,,,,,,
959,86,1564476600.0,,,,,,,,,,,,,,,,,,,
960,92,1564477500.0,,,,,,,,,,,,,,,,,,,
961,96,1564478400.0,,,,,,,,,,,,,,,,,,,
962,102,1564479300.0,,,,,,,,,,,,,,,,,,,
963,106,1564480200.0,,,,,,,,,,,,,,,,,,,
964,110,1564481100.0,,,,,,,,,,,,,,,,,,,
965,116,1564482000.0,,,,,,,,,,,,,,,,,,,
966,120,1564482900.0,,,,,,,,,,,,,,,,,,,
967,118,1564483800.0,,,,,,,,,,,,,,,,,,,
968,112,1564484700.0,,,,,,,,,,,,,,,,,,,
969,105,1564485600.0,,,,,,,,,,,,,,,,,,,
970,100,1564486500.0,,,,,,,,,,,,,,,,,,,
971,94,1564487400.0,,,,,,,,,,,,,,,,,,,
972,85,1564488300.0,,,,,,,,,,,,,,,,,,,
973,79,1564489200.0,,,,,,,,,,,,,,,,,,,
974,86,1564490100.0,,,,,,,,,,,,,,,,,,,
975,96,1564491000.0,,,,,,,,,,,,,,,,,,,
976,91,1564491900.0,,,,,,,,,,,,,,,,,,,
977,79,1564492800.0,,,,,,,,,,,,,,,,,,,
978,72,1564493700.0,,,,,,,,,,,,,,,,,,,
979,68,1564494600.0,,,,,,,,,,,,,,,,,,,
980,64,1564495500.0,,,,,,,,,,,,,,,,,,,
981,61,1564496400.0,,,,,,,,,,,,,,,,,,,
982,58,1564497300.0,,,,,,,,,,,,,,,,,,,
983,56,1564498200.0,,,,,,,,,,,,,,,,,,,
984,55,1564499100.0,,,,,,,,,,,,,,,,,,,
985,57,1564500000.0,,,,,,,,,,,,,,,,,,,
986,72,1564500900.0,,,,,,,,,,,,,,,,,,,
987,96,1564501800.0,,,,,,,,,,,,,,,,,,,
988,113,1564502700.0,,,,,,,,,,,,,,,,,,,
989,124,1564503600.0,,,,,,,,,,,,,,,,,,,
990,131,1564504500.0,,,,,,,,,,,,,,,,,,,
991,136,1564505400.0,,,,,,,,,,,,,,,,,,,
992,137,1564506300.0,,,,,,,,,,,,,,,,,,,
993,135,1564507200.0,,,,,,,,,,,,,,,,,,,
994,127,1564508100.0,,,,,,,,,,,,,,,,,,,
995,115,1564509000.0,,,,,,,,,,,,,,,,,,,
996,106,1564509900.0,,,,,,,,,,,,,,,,,,,
997,99,1564510800.0,,,,,,,,,,,,,,,,,,,
998,90,1564511700.0,,,,,,,,,,,,,,,,,,,
999,84,1564512600.0,,,,,,,,,,,,,,,,,,,
1000,78,1564513500.0,,,,,,,,,,,,,,,,,,,
1001,74,1564514400.0,,,,,,,,,,,,,,,,,,,
1002,69,1564515300.0,,,,,,,,,,,,,,,,,,,
1003,65,1564516200.0,,,,,,,,,,,,,,,,,,,
1004,62,1564517100.0,,,,,,,,,,,,,,,,,,,
1005,60,1564518000.0,,,,,,,,,,,,,,,,,,,
1006,58,1564518900.0,,,,,,,,,,,,,,,,,,,
1007,56,1564519800.0,,,,,,,,,,,,,,,,,,,
1008,55,1564520700.0,,,,,,,,,,,,,,,,,,,
1009,53,1564521600.0,,,,,,,,,,,,,,,,,,,
1010,51,1564522500.0,,,,,,,,,,,,,,,,,,,
1011,49,1564523400.0,,,,,,,,,,,,,,,,,,,
1012,49,1564524300.0,,,,,,,,,,,,,,,,,,,
1013,49,1564525200.0,,,,,,,,,,,,,,,,,,,
1014,51,1564526100.0,,,,,,,,,,,,,,,,,,,
1015,53,1564527000.0,,,,,,,,,,,,,,,,,,,
1016,54,1564527900.0,,,,,,,,,,,,,,,,,,,
1017,53,1564528800.0,,,,,,,,,,,,,,,,,,,
1018,52,1564529700.0,,,,,,,,,,,,,,,,,,,
1019,52,1564530600.0,,,,,,,,,,,,,,,,,,,
1020,54,1564531500.0,,,,,,,,,,,,,,,,,,,
1021,64,1564532400.0,,,,,,,,,,,,,,,,,,,
1022,64,1564533300.0,,,,,,,,,,,,,,,,,,,
1023,60,1564534200.0,,,,,,,,,,,,,,,,,,,
1024,58,1564535100.0,,,,,,,,,,,,,,,,,,,
1025,59,1564536000.0,,,,,,,,,,,,,,,,,,,
1026,61,1564536900.0,,,,,,,,,,,,,,,,,,,
1027,69,1564537800.0,,,,,,,,,,,,,,,,,,,
1028,91,1564538700.0,,,,,,,,,,,,,,,,,,,
1029,113,1564539600.0,,,,,,,,,,,,,,,,,,,
1030,124,1564540500.0,,,,,,,,,,,,,,,,,,,
1031,128,1564541400.0,,,,,,,,,,,,,,,,,,,
1032,129,1564542300.0,,,,,,,,,,,,,,,,,,,
1033,124,1564543200.0,,,,,,,,,,,,,,,,,,,
1034,115,1564544100.0,,,,,,,,,,,,,,,,,,,
1035,105,1564545000.0,,,,,,,,,,,,,,,,,,,
1036,93,1564545900.0,,,,,,,,,,,,,,,,,,,
1037,85,1564546800.0,,,,,,,,,,,,,,,,,,,
1038,80,1564547700.0,,,,,,,,,,,,,,,,,,,
1039,74,1564548600.0,,,,,,,,,,,,,,,,,,,
1040,68,1564549500.0,,,,,,,,,,,,,,,,,,,
1041,64,1564550400.0,,,,,,,,,,,,,,,,,,,
1042,61,1564551300.0,,,,,,,,,,,,,,,,,,,
1043,58,1564552200.0,,,,,,,,,,,,,,,,,,,
1044,55,1564553100.0,,,,,,,,,,,,,,,,,,,
1045,54,1564554000.0,,,,,,,,,,,,,,,,,,,
1046,52,1564554900.0,,,,,,,,,,,,,,,,,,,
1047,51,1564555800.0,,,,,,,,,,,,,,,,,,,
1048,51,1564556700.0,,,,,,,,,,,,,,,,,,,
1049,59,1564557600.0,,,,,,,,,,,,,,,,,,,
1050,78,1564558500.0,,,,,,,,,,,,,,,,,,,
1051,82,1564559400.0,,,,,,,,,,,,,,,,,,,
1052,82,1564560300.0,1275,31-07-2019,Lunch,86.7,15.9,10.2,17.2,552.0,3.0,3.0,61.99,13:35:00,82.0,129.0,15:05:00,270.0,13:35:00,2019-07-31,
1053,86,1564561200.0,,,,,,,,,,,,,,,,,,,
1054,95,1564562100.0,,,,,,,,,,,,,,,,,,,
1055,107,1564563000.0,,,,,,,,,,,,,,,,,,,
1056,115,1564563900.0,,,,,,,,,,,,,,,,,,,
1057,123,1564564800.0,,,,,,,,,,,,,,,,,,,
1058,129,1564565700.0,,,,,,,,,,,,,,,,,,,
1059,129,1564566600.0,,,,,,,,,,,,,,,,,,,
1060,124,1564567500.0,,,,,,,,,,,,,,,,,,,
1061,116,1564568400.0,,,,,,,,,,,,,,,,,,,
1062,109,1564569300.0,,,,,,,,,,,,,,,,,,,
1063,103,1564570200.0,,,,,,,,,,,,,,,,,,,
1064,95,1564571100.0,,,,,,,,,,,,,,,,,,,
1065,87,1564572000.0,,,,,,,,,,,,,,,,,,,
1066,80,1564572900.0,,,,,,,,,,,,,,,,,,,
1067,73,1564573800.0,,,,,,,,,,,,,,,,,,,
1068,65,1564574700.0,,,,,,,,,,,,,,,,,,,
1069,60,1564575600.0,,,,,,,,,,,,,,,,,,,
1070,60,1564576500.0,,,,,,,,,,,,,,,,,,,
1071,74,1564577400.0,,,,,,,,,,,,,,,,,,,
1072,86,1564578300.0,,,,,,,,,,,,,,,,,,,
1073,86,1564579200.0,,,,,,,,,,,,,,,,,,,
1074,81,1564580100.0,,,,,,,,,,,,,,,,,,,
1075,77,1564581000.0,,,,,,,,,,,,,,,,,,,
1076,72,1564581900.0,,,,,,,,,,,,,,,,,,,
1077,67,1564582800.0,,,,,,,,,,,,,,,,,,,
1078,65,1564583700.0,1275,31-07-2019,Dinner,50.54,9.4,3.1,7.06,324.0,2.0,3.0,58.5,20:05:00,65.0,99.0,21:20:00,210.0,20:05:00,2019-07-31,
1079,69,1564584600.0,,,,,,,,,,,,,,,,,,,
1080,77,1564585500.0,,,,,,,,,,,,,,,,,,,
1081,87,1564586400.0,,,,,,,,,,,,,,,,,,,
1082,95,1564587300.0,,,,,,,,,,,,,,,,,,,
1083,99,1564588200.0,,,,,,,,,,,,,,,,,,,
1084,99,1564589100.0,,,,,,,,,,,,,,,,,,,
1085,96,1564590000.0,,,,,,,,,,,,,,,,,,,
1086,94,1564590900.0,,,,,,,,,,,,,,,,,,,
1087,90,1564591800.0,,,,,,,,,,,,,,,,,,,
1088,88,1564592700.0,,,,,,,,,,,,,,,,,,,
1089,85,1564593600.0,,,,,,,,,,,,,,,,,,,
1090,78,1564594500.0,,,,,,,,,,,,,,,,,,,
1091,72,1564595400.0,,,,,,,,,,,,,,,,,,,
1092,69,1564596300.0,,,,,,,,,,,,,,,,,,,
1093,65,1564597200.0,,,,,,,,,,,,,,,,,,,
1094,60,1564598100.0,,,,,,,,,,,,,,,,,,,
1095,58,1564599000.0,,,,,,,,,,,,,,,,,,,
1096,56,1564599900.0,,,,,,,,,,,,,,,,,,,
1097,54,1564600800.0,,,,,,,,,,,,,,,,,,,
1098,52,1564601700.0,,,,,,,,,,,,,,,,,,,
1099,50,1564602600.0,,,,,,,,,,,,,,,,,,,
1100,50,1564603500.0,,,,,,,,,,,,,,,,,,,
1101,51,1564604400.0,,,,,,,,,,,,,,,,,,,
1102,50,1564605300.0,,,,,,,,,,,,,,,,,,,
1103,49,1564606200.0,,,,,,,,,,,,,,,,,,,
1104,50,1564607100.0,,,,,,,,,,,,,,,,,,,
1105,49,1564608000.0,,,,,,,,,,,,,,,,,,,
1106,49,1564608900.0,,,,,,,,,,,,,,,,,,,
1107,50,1564609800.0,,,,,,,,,,,,,,,,,,,
1108,51,1564610700.0,,,,,,,,,,,,,,,,,,,
1109,51,1564611600.0,,,,,,,,,,,,,,,,,,,
1110,52,1564612500.0,,,,,,,,,,,,,,,,,,,
1111,54,1564613400.0,,,,,,,,,,,,,,,,,,,
1112,53,1564614300.0,,,,,,,,,,,,,,,,,,,
1113,51,1564615200.0,,,,,,,,,,,,,,,,,,,
1114,52,1564616100.0,,,,,,,,,,,,,,,,,,,
1115,55,1564617000.0,,,,,,,,,,,,,,,,,,,
1116,58,1564617900.0,,,,,,,,,,,,,,,,,,,
1117,57,1564618800.0,,,,,,,,,,,,,,,,,,,
1118,59,1564619700.0,,,,,,,,,,,,,,,,,,,
1119,61,1564620600.0,,,,,,,,,,,,,,,,,,,
1120,60,1564621500.0,,,,,,,,,,,,,,,,,,,
1121,64,1564622400.0,,,,,,,,,,,,,,,,,,,
1122,65,1564623300.0,,,,,,,,,,,,,,,,,,,
1123,63,1564624200.0,,,,,,,,,,,,,,,,,,,
1124,62,1564625100.0,,,,,,,,,,,,,,,,,,,
1125,66,1564626000.0,,,,,,,,,,,,,,,,,,,
1126,88,1564626900.0,,,,,,,,,,,,,,,,,,,
1127,108,1564627800.0,,,,,,,,,,,,,,,,,,,
1128,105,1564628700.0,,,,,,,,,,,,,,,,,,,
1129,101,1564629600.0,,,,,,,,,,,,,,,,,,,
1130,108,1564630500.0,,,,,,,,,,,,,,,,,,,
1131,115,1564631400.0,,,,,,,,,,,,,,,,,,,
1132,122,1564632300.0,,,,,,,,,,,,,,,,,,,
1133,127,1564633200.0,,,,,,,,,,,,,,,,,,,
1134,129,1564634100.0,,,,,,,,,,,,,,,,,,,
1135,124,1564635000.0,,,,,,,,,,,,,,,,,,,
1136,115,1564635900.0,,,,,,,,,,,,,,,,,,,
1137,106,1564636800.0,,,,,,,,,,,,,,,,,,,
1138,98,1564637700.0,,,,,,,,,,,,,,,,,,,
1139,95,1564638600.0,,,,,,,,,,,,,,,,,,,
1140,98,1564639500.0,,,,,,,,,,,,,,,,,,,
1141,96,1564640400.0,,,,,,,,,,,,,,,,,,,
1142,89,1564641300.0,,,,,,,,,,,,,,,,,,,
1143,83,1564642200.0,,,,,,,,,,,,,,,,,,,
1144,76,1564643100.0,,,,,,,,,,,,,,,,,,,
1145,69,1564644000.0,,,,,,,,,,,,,,,,,,,
1146,66,1564644900.0,,,,,,,,,,,,,,,,,,,
1147,62,1564645800.0,,,,,,,,,,,,,,,,,,,
1148,59,1564646700.0,,,,,,,,,,,,,,,,,,,
1149,57,1564647600.0,,,,,,,,,,,,,,,,,,,
1150,60,1564648500.0,,,,,,,,,,,,,,,,,,,
1151,92,1564649400.0,,,,,,,,,,,,,,,,,,,
1152,116,1564650300.0,,,,,,,,,,,,,,,,,,,
1153,124,1564651200.0,,,,,,,,,,,,,,,,,,,
1154,124,1564652100.0,,,,,,,,,,,,,,,,,,,
1155,121,1564653000.0,,,,,,,,,,,,,,,,,,,
1156,114,1564653900.0,,,,,,,,,,,,,,,,,,,
1157,104,1564654800.0,,,,,,,,,,,,,,,,,,,
1158,95,1564655700.0,,,,,,,,,,,,,,,,,,,
1159,86,1564656600.0,,,,,,,,,,,,,,,,,,,
1160,77,1564657500.0,,,,,,,,,,,,,,,,,,,
1161,68,1564658400.0,,,,,,,,,,,,,,,,,,,
1162,62,1564659300.0,,,,,,,,,,,,,,,,,,,
1163,58,1564660200.0,,,,,,,,,,,,,,,,,,,
1164,53,1564661100.0,,,,,,,,,,,,,,,,,,,
1165,47,1564662000.0,,,,,,,,,,,,,,,,,,,
1166,43,1564662900.0,,,,,,,,,,,,,,,,,,,
1167,41,1564663800.0,,,,,,,,,,,,,,,,,,,
1168,41,1564664700.0,,,,,,,,,,,,,,,,,,,
1169,46,1564665600.0,,,,,,,,,,,,,,,,,,,
1170,46,1564666500.0,,,,,,,,,,,,,,,,,,,
1171,51,1564667400.0,,,,,,,,,,,,,,,,,,,
1172,74,1564668300.0,,,,,,,,,,,,,,,,,,,
1173,84,1564669200.0,,,,,,,,,,,,,,,,,,,
1174,84,1564670100.0,,,,,,,,,,,,,,,,,,,
1175,84,1564671000.0,,,,,,,,,,,,,,,,,,,
1176,85,1564671900.0,,,,,,,,,,,,,,,,,,,
1177,82,1564672800.0,,,,,,,,,,,,,,,,,,,
1178,78,1564673700.0,,,,,,,,,,,,,,,,,,,
1179,81,1564674600.0,,,,,,,,,,,,,,,,,,,
1180,90,1564675500.0,,,,,,,,,,,,,,,,,,,
1181,95,1564676400.0,,,,,,,,,,,,,,,,,,,
1182,95,1564677300.0,,,,,,,,,,,,,,,,,,,
1183,95,1564678200.0,,,,,,,,,,,,,,,,,,,
1184,94,1564679100.0,,,,,,,,,,,,,,,,,,,
1185,94,1564680000.0,,,,,,,,,,,,,,,,,,,
1186,98,1564680900.0,,,,,,,,,,,,,,,,,,,
1187,100,1564681800.0,,,,,,,,,,,,,,,,,,,
1188,97,1564682700.0,,,,,,,,,,,,,,,,,,,
1189,95,1564683600.0,,,,,,,,,,,,,,,,,,,
1190,96,1564684500.0,,,,,,,,,,,,,,,,,,,
1191,97,1564685400.0,,,,,,,,,,,,,,,,,,,
1192,96,1564686300.0,,,,,,,,,,,,,,,,,,,
1193,95,1564687200.0,,,,,,,,,,,,,,,,,,,
1194,94,1564688100.0,,,,,,,,,,,,,,,,,,,
1195,90,1564689000.0,,,,,,,,,,,,,,,,,,,
1196,87,1564689900.0,,,,,,,,,,,,,,,,,,,
1197,84,1564690800.0,,,,,,,,,,,,,,,,,,,
1198,79,1564691700.0,,,,,,,,,,,,,,,,,,,
1199,73,1564692600.0,,,,,,,,,,,,,,,,,,,
1200,68,1564693500.0,,,,,,,,,,,,,,,,,,,
1201,64,1564694400.0,,,,,,,,,,,,,,,,,,,
1202,60,1564695300.0,,,,,,,,,,,,,,,,,,,
1203,57,1564696200.0,,,,,,,,,,,,,,,,,,,
1204,56,1564697100.0,,,,,,,,,,,,,,,,,,,
1205,55,1564698000.0,,,,,,,,,,,,,,,,,,,
1206,55,1564698900.0,,,,,,,,,,,,,,,,,,,
1207,54,1564699800.0,,,,,,,,,,,,,,,,,,,
1208,53,1564700700.0,,,,,,,,,,,,,,,,,,,
1209,54,1564701600.0,,,,,,,,,,,,,,,,,,,
1210,53,1564702500.0,,,,,,,,,,,,,,,,,,,
1211,55,1564703400.0,,,,,,,,,,,,,,,,,,,
1212,60,1564704300.0,,,,,,,,,,,,,,,,,,,
1213,60,1564705200.0,,,,,,,,,,,,,,,,,,,
1214,62,1564706100.0,,,,,,,,,,,,,,,,,,,
1215,64,1564707000.0,,,,,,,,,,,,,,,,,,,
1216,60,1564707900.0,,,,,,,,,,,,,,,,,,,
1217,57,1564708800.0,,,,,,,,,,,,,,,,,,,
1218,57,1564709700.0,,,,,,,,,,,,,,,,,,,
1219,62,1564710600.0,,,,,,,,,,,,,,,,,,,
1220,73,1564711500.0,,,,,,,,,,,,,,,,,,,
1221,85,1564712400.0,,,,,,,,,,,,,,,,,,,
1222,94,1564713300.0,,,,,,,,,,,,,,,,,,,
1223,97,1564714200.0,,,,,,,,,,,,,,,,,,,
1224,93,1564715100.0,,,,,,,,,,,,,,,,,,,
1225,86,1564716000.0,,,,,,,,,,,,,,,,,,,
1226,80,1564716900.0,,,,,,,,,,,,,,,,,,,
1227,73,1564717800.0,,,,,,,,,,,,,,,,,,,
1228,68,1564718700.0,,,,,,,,,,,,,,,,,,,
1229,62,1564719600.0,,,,,,,,,,,,,,,,,,,
1230,58,1564720500.0,,,,,,,,,,,,,,,,,,,
1231,56,1564721400.0,,,,,,,,,,,,,,,,,,,
1232,54,1564722300.0,,,,,,,,,,,,,,,,,,,
1233,52,1564723200.0,,,,,,,,,,,,,,,,,,,
1234,48,1564724100.0,,,,,,,,,,,,,,,,,,,
1235,50,1564725000.0,,,,,,,,,,,,,,,,,,,
1236,62,1564725900.0,,,,,,,,,,,,,,,,,,,
1237,71,1564726800.0,,,,,,,,,,,,,,,,,,,
1238,66,1564727700.0,,,,,,,,,,,,,,,,,,,
1239,60,1564728600.0,,,,,,,,,,,,,,,,,,,
1240,57,1564729500.0,,,,,,,,,,,,,,,,,,,
1241,56,1564730400.0,,,,,,,,,,,,,,,,,,,
1242,54,1564731300.0,,,,,,,,,,,,,,,,,,,
1243,53,1564732200.0,,,,,,,,,,,,,,,,,,,
1244,61,1564733100.0,,,,,,,,,,,,,,,,,,,
1245,73,1564734000.0,,,,,,,,,,,,,,,,,,,
1246,79,1564734900.0,,,,,,,,,,,,,,,,,,,
1247,82,1564735800.0,,,,,,,,,,,,,,,,,,,
1248,85,1564736700.0,,,,,,,,,,,,,,,,,,,
1249,88,1564737600.0,,,,,,,,,,,,,,,,,,,
1250,91,1564738500.0,,,,,,,,,,,,,,,,,,,
1251,95,1564739400.0,,,,,,,,,,,,,,,,,,,
1252,99,1564740300.0,,,,,,,,,,,,,,,,,,,
1253,103,1564741200.0,,,,,,,,,,,,,,,,,,,
1254,104,1564742100.0,,,,,,,,,,,,,,,,,,,
1255,104,1564743000.0,,,,,,,,,,,,,,,,,,,
1256,103,1564743900.0,,,,,,,,,,,,,,,,,,,
1257,95,1564744800.0,,,,,,,,,,,,,,,,,,,
1258,85,1564745700.0,,,,,,,,,,,,,,,,,,,
1259,77,1564746600.0,,,,,,,,,,,,,,,,,,,
1260,71,1564747500.0,,,,,,,,,,,,,,,,,,,
1261,64,1564748400.0,,,,,,,,,,,,,,,,,,,
1262,59,1564749300.0,,,,,,,,,,,,,,,,,,,
1263,54,1564750200.0,,,,,,,,,,,,,,,,,,,
1264,56,1564751100.0,,,,,,,,,,,,,,,,,,,
1265,68,1564752000.0,,,,,,,,,,,,,,,,,,,
1266,67,1564752900.0,,,,,,,,,,,,,,,,,,,
1267,60,1564753800.0,,,,,,,,,,,,,,,,,,,
1268,59,1564754700.0,,,,,,,,,,,,,,,,,,,
1269,64,1564755600.0,,,,,,,,,,,,,,,,,,,
1270,79,1564756500.0,,,,,,,,,,,,,,,,,,,
1271,86,1564757400.0,,,,,,,,,,,,,,,,,,,
1272,84,1564758300.0,,,,,,,,,,,,,,,,,,,
1273,76,1564759200.0,,,,,,,,,,,,,,,,,,,
1274,64,1564760100.0,,,,,,,,,,,,,,,,,,,
1275,58,1564761000.0,,,,,,,,,,,,,,,,,,,
1276,57,1564761900.0,,,,,,,,,,,,,,,,,,,
1277,71,1564762800.0,,,,,,,,,,,,,,,,,,,
1278,80,1564763700.0,,,,,,,,,,,,,,,,,,,
1279,83,1564764600.0,,,,,,,,,,,,,,,,,,,
1280,84,1564765500.0,,,,,,,,,,,,,,,,,,,
1281,84,1564766400.0,,,,,,,,,,,,,,,,,,,
1282,83,1564767300.0,,,,,,,,,,,,,,,,,,,
1283,77,1564768200.0,,,,,,,,,,,,,,,,,,,
1284,72,1564769100.0,,,,,,,,,,,,,,,,,,,
1285,72,1564770000.0,,,,,,,,,,,,,,,,,,,
1286,71,1564770900.0,,,,,,,,,,,,,,,,,,,0.0
1287,70,1564771800.0,,,,,,,,,,,,,,,,,,,
1288,68,1564772700.0,,,,,,,,,,,,,,,,,,,
1289,66,1564773600.0,,,,,,,,,,,,,,,,,,,
1290,64,1564774500.0,,,,,,,,,,,,,,,,,,,0.0
1291,63,1564775400.0,,,,,,,,,,,,,,,,,,,
1292,63,1564776300.0,,,,,,,,,,,,,,,,,,,
1293,61,1564777200.0,,,,,,,,,,,,,,,,,,,
1294,59,1564778100.0,,,,,,,,,,,,,,,,,,,0.0
1295,59,1564779000.0,,,,,,,,,,,,,,,,,,,
1296,57,1564779900.0,,,,,,,,,,,,,,,,,,,
1297,57,1564780800.0,,,,,,,,,,,,,,,,,,,
1298,61,1564781700.0,,,,,,,,,,,,,,,,,,,0.0
1299,62,1564782600.0,,,,,,,,,,,,,,,,,,,
1300,57,1564783500.0,,,,,,,,,,,,,,,,,,,
1301,51,1564784400.0,,,,,,,,,,,,,,,,,,,
1302,50,1564785300.0,,,,,,,,,,,,,,,,,,,0.0
1303,54,1564786200.0,,,,,,,,,,,,,,,,,,,
1304,58,1564787100.0,,,,,,,,,,,,,,,,,,,
1305,58,1564788000.0,,,,,,,,,,,,,,,,,,,
1306,56,1564788900.0,,,,,,,,,,,,,,,,,,,0.0
1307,55,1564789800.0,,,,,,,,,,,,,,,,,,,
1308,54,1564790700.0,,,,,,,,,,,,,,,,,,,
1309,56,1564791600.0,,,,,,,,,,,,,,,,,,,
1310,57,1564792500.0,,,,,,,,,,,,,,,,,,,0.0
1311,62,1564793400.0,,,,,,,,,,,,,,,,,,,
1312,64,1564794300.0,,,,,,,,,,,,,,,,,,,
1313,61,1564795200.0,,,,,,,,,,,,,,,,,,,
1314,57,1564796100.0,,,,,,,,,,,,,,,,,,,0.0
1315,58,1564797000.0,,,,,,,,,,,,,,,,,,,
1316,66,1564797900.0,,,,,,,,,,,,,,,,,,,
1317,71,1564798800.0,,,,,,,,,,,,,,,,,,,
1318,77,1564799700.0,,,,,,,,,,,,,,,,,,,0.0
1319,79,1564800600.0,,,,,,,,,,,,,,,,,,,
1320,69,1564801500.0,,,,,,,,,,,,,,,,,,,
1321,65,1564802400.0,,,,,,,,,,,,,,,,,,,
1322,69,1564803300.0,,,,,,,,,,,,,,,,,,,0.0
1323,79,1564804200.0,,,,,,,,,,,,,,,,,,,
1324,90,1564805100.0,,,,,,,,,,,,,,,,,,,
1325,92,1564806000.0,,,,,,,,,,,,,,,,,,,
1326,91,1564806900.0,,,,,,,,,,,,,,,,,,,0.0
1327,88,1564807800.0,,,,,,,,,,,,,,,,,,,
1328,83,1564808700.0,,,,,,,,,,,,,,,,,,,
1329,77,1564809600.0,,,,,,,,,,,,,,,,,,,
1330,72,1564810500.0,,,,,,,,,,,,,,,,,,,0.0
1331,66,1564811400.0,,,,,,,,,,,,,,,,,,,
1332,61,1564812300.0,,,,,,,,,,,,,,,,,,,
1333,56,1564813200.0,,,,,,,,,,,,,,,,,,,
1334,52,1564814100.0,,,,,,,,,,,,,,,,,,,0.0
1335,52,1564815000.0,,,,,,,,,,,,,,,,,,,
1336,62,1564815900.0,,,,,,,,,,,,,,,,,,,
1337,66,1564816800.0,,,,,,,,,,,,,,,,,,,
1338,60,1564817700.0,,,,,,,,,,,,,,,,,,,0.0
