,glucose,timestamp,steps,id,date,time,carbs,fat,fiber,protein,calories,mealSize,mealType,slope,mealTime,initialGlucose,peakGlucose,peakTime,cycleDuration,init_time,day
0,64,1566456840.0,,,,,,,,,,,,,,,,,,,
1,77,1566457740.0,,,,,,,,,,,,,,,,,,,
2,83,1566458640.0,,,,,,,,,,,,,,,,,,,
3,77,1566459540.0,38.0,,,,,,,,,,,,,,,,,,
4,79,1566460440.0,,,,,,,,,,,,,,,,,,,
5,103,1566461340.0,,,,,,,,,,,,,,,,,,,
6,136,1566462240.0,,,,,,,,,,,,,,,,,,,
7,140,1566463140.0,0.0,,,,,,,,,,,,,,,,,,
8,122,1566464040.0,,,,,,,,,,,,,,,,,,,
9,110,1566464940.0,,,,,,,,,,,,,,,,,,,
10,112,1566465840.0,,,,,,,,,,,,,,,,,,,
11,110,1566466740.0,1.0,,,,,,,,,,,,,,,,,,
12,91,1566467640.0,,,,,,,,,,,,,,,,,,,
13,74,1566468540.0,,,,,,,,,,,,,,,,,,,
14,65,1566469440.0,,,,,,,,,,,,,,,,,,,
15,57,1566470340.0,44.0,,,,,,,,,,,,,,,,,,
16,59,1566471240.0,,,,,,,,,,,,,,,,,,,
17,68,1566472140.0,,,,,,,,,,,,,,,,,,,
18,75,1566473040.0,,,,,,,,,,,,,,,,,,,
19,90,1566473940.0,28.0,,,,,,,,,,,,,,,,,,
20,102,1566474840.0,,,,,,,,,,,,,,,,,,,
21,107,1566475740.0,,,,,,,,,,,,,,,,,,,
22,103,1566476640.0,,,,,,,,,,,,,,,,,,,
23,100,1566477540.0,110.0,,,,,,,,,,,,,,,,,,
24,105,1566478440.0,,,,,,,,,,,,,,,,,,,
25,99,1566479340.0,,,,,,,,,,,,,,,,,,,
26,80,1566480240.0,,,,,,,,,,,,,,,,,,,
27,68,1566481140.0,88.0,,,,,,,,,,,,,,,,,,
28,67,1566482040.0,,,,,,,,,,,,,,,,,,,
29,73,1566482940.0,,,,,,,,,,,,,,,,,,,
30,93,1566483840.0,,,,,,,,,,,,,,,,,,,
31,135,1566484740.0,3.0,,,,,,,,,,,,,,,,,,
32,138,1566485640.0,,,,,,,,,,,,,,,,,,,
33,106,1566486540.0,,,,,,,,,,,,,,,,,,,
34,77,1566487440.0,,,,,,,,,,,,,,,,,,,
35,63,1566488340.0,8.0,,,,,,,,,,,,,,,,,,
36,57,1566489240.0,,,,,,,,,,,,,,,,,,,
37,55,1566490140.0,,,,,,,,,,,,,,,,,,,
38,59,1566491040.0,,,,,,,,,,,,,,,,,,,
39,71,1566491940.0,39.0,,,,,,,,,,,,,,,,,,
40,78,1566492840.0,,,,,,,,,,,,,,,,,,,
41,84,1566493740.0,,,,,,,,,,,,,,,,,,,
42,92,1566494640.0,,,,,,,,,,,,,,,,,,,
43,91,1566495540.0,36.0,,,,,,,,,,,,,,,,,,
44,89,1566496440.0,,,,,,,,,,,,,,,,,,,
45,74,1566497340.0,,,,,,,,,,,,,,,,,,,
46,58,1566498240.0,,,,,,,,,,,,,,,,,,,
47,50,1566499140.0,0.0,,,,,,,,,,,,,,,,,,
48,54,1566500040.0,,,,,,,,,,,,,,,,,,,
49,65,1566500940.0,,,,,,,,,,,,,,,,,,,
50,68,1566501840.0,,,,,,,,,,,,,,,,,,,
51,57,1566502740.0,0.0,,,,,,,,,,,,,,,,,,
52,48,1566503640.0,,,,,,,,,,,,,,,,,,,
53,55,1566504540.0,,,,,,,,,,,,,,,,,,,
54,64,1566505440.0,,,,,,,,,,,,,,,,,,,
55,63,1566506340.0,0.0,,,,,,,,,,,,,,,,,,
56,62,1566507240.0,,,,,,,,,,,,,,,,,,,
57,53,1566508140.0,,,,,,,,,,,,,,,,,,,
58,44,1566509040.0,,,,,,,,,,,,,,,,,,,
59,41,1566509940.0,0.0,,,,,,,,,,,,,,,,,,
60,40,1566510840.0,,,,,,,,,,,,,,,,,,,
61,47,1566511740.0,,,,,,,,,,,,,,,,,,,
62,52,1566512640.0,,,,,,,,,,,,,,,,,,,
63,50,1566513540.0,0.0,,,,,,,,,,,,,,,,,,
64,51,1566514440.0,,,,,,,,,,,,,,,,,,,
65,54,1566515340.0,,,,,,,,,,,,,,,,,,,
66,62,1566516240.0,,,,,,,,,,,,,,,,,,,
67,63,1566517140.0,0.0,,,,,,,,,,,,,,,,,,
68,56,1566518040.0,,,,,,,,,,,,,,,,,,,
69,50,1566518940.0,,,,,,,,,,,,,,,,,,,
70,43,1566519840.0,,,,,,,,,,,,,,,,,,,
71,39,1566520740.0,0.0,,,,,,,,,,,,,,,,,,
72,39,1566521640.0,,,,,,,,,,,,,,,,,,,
73,54,1566522540.0,,,,,,,,,,,,,,,,,,,
74,76,1566523440.0,,,,,,,,,,,,,,,,,,,
75,88,1566524340.0,41.0,,,,,,,,,,,,,,,,,,
76,99,1566525240.0,,,,,,,,,,,,,,,,,,,
77,102,1566526140.0,,,,,,,,,,,,,,,,,,,
78,109,1566527040.0,,,,,,,,,,,,,,,,,,,
79,124,1566527940.0,41.0,,,,,,,,,,,,,,,,,,
80,130,1566528840.0,,,,,,,,,,,,,,,,,,,
81,119,1566529740.0,,,,,,,,,,,,,,,,,,,
82,104,1566530640.0,,,,,,,,,,,,,,,,,,,
83,96,1566531540.0,3.0,1420,23-08-2019,Breakfast,8.8,2.2,0.2,0.8,58.0,2.0,3.0,61.74,09:09:00,96.0,127.0,10:09:00,120.0,09:09:00,2019-08-23
84,104,1566532440.0,,,,,,,,,,,,,,,,,,,
85,114,1566533340.0,,,,,,,,,,,,,,,,,,,
86,119,1566534240.0,,,,,,,,,,,,,,,,,,,
87,127,1566535140.0,3.0,,,,,,,,,,,,,,,,,,
88,120,1566536040.0,,,,,,,,,,,,,,,,,,,
89,98,1566536940.0,,,,,,,,,,,,,,,,,,,
90,86,1566537840.0,,,,,,,,,,,,,,,,,,,
91,85,1566538740.0,28.0,,,,,,,,,,,,,,,,,,
92,88,1566539640.0,,,,,,,,,,,,,,,,,,,
93,99,1566540540.0,,,,,,,,,,,,,,,,,,,
94,109,1566541440.0,,,,,,,,,,,,,,,,,,,
95,105,1566542340.0,1247.0,,,,,,,,,,,,,,,,,,
96,94,1566543240.0,,,,,,,,,,,,,,,,,,,
97,77,1566544140.0,,,,,,,,,,,,,,,,,,,
98,65,1566545040.0,,,,,,,,,,,,,,,,,,,
99,59,1566545940.0,1.0,,,,,,,,,,,,,,,,,,
100,54,1566546840.0,,,,,,,,,,,,,,,,,,,
101,45,1566547740.0,,,,,,,,,,,,,,,,,,,
102,45,1566548640.0,,1420,23-08-2019,Lunch,92.0,17.5,6.1,22.0,619.0,3.0,4.0,77.63,13:54:00,45.0,159.0,15:24:00,120.0,13:54:00,2019-08-23
103,56,1566549540.0,27.0,,,,,,,,,,,,,,,,,,
104,76,1566550440.0,,,,,,,,,,,,,,,,,,,
105,99,1566551340.0,,,,,,,,,,,,,,,,,,,
106,134,1566552240.0,,,,,,,,,,,,,,,,,,,
107,158,1566553140.0,0.0,,,,,,,,,,,,,,,,,,
108,159,1566554040.0,,,,,,,,,,,,,,,,,,,
109,146,1566554940.0,,,,,,,,,,,,,,,,,,,
110,148,1566555840.0,,,,,,,,,,,,,,,,,,,
111,157,1566556740.0,130.0,,,,,,,,,,,,,,,,,,
112,149,1566557640.0,,,,,,,,,,,,,,,,,,,
113,139,1566558540.0,,,,,,,,,,,,,,,,,,,
114,128,1566559440.0,,,,,,,,,,,,,,,,,,,
115,117,1566560340.0,21.0,,,,,,,,,,,,,,,,,,
116,111,1566561240.0,,,,,,,,,,,,,,,,,,,
117,111,1566562140.0,,,,,,,,,,,,,,,,,,,
118,104,1566563040.0,,,,,,,,,,,,,,,,,,,
119,89,1566563940.0,41.0,,,,,,,,,,,,,,,,,,
120,79,1566564840.0,,,,,,,,,,,,,,,,,,,
121,74,1566565740.0,,,,,,,,,,,,,,,,,,,
122,75,1566566640.0,,,,,,,,,,,,,,,,,,,
123,82,1566567540.0,1.0,,,,,,,,,,,,,,,,,,
124,81,1566568440.0,,,,,,,,,,,,,,,,,,,
125,70,1566569340.0,,,,,,,,,,,,,,,,,,,
126,68,1566570240.0,,,,,,,,,,,,,,,,,,,
127,69,1566571140.0,50.0,,,,,,,,,,,,,,,,,,
128,68,1566572040.0,,1420,23-08-2019,Dinner,24.0,1.0,1.3,3.5,119.0,2.0,4.0,81.38,20:24:00,68.0,178.0,21:24:00,150.0,20:24:00,2019-08-23
129,76,1566572940.0,,,,,,,,,,,,,,,,,,,
130,119,1566573840.0,,,,,,,,,,,,,,,,,,,
131,167,1566574740.0,0.0,,,,,,,,,,,,,,,,,,
132,178,1566575640.0,,,,,,,,,,,,,,,,,,,
133,162,1566576540.0,,,,,,,,,,,,,,,,,,,
134,142,1566577440.0,,,,,,,,,,,,,,,,,,,
135,122,1566578340.0,20.0,,,,,,,,,,,,,,,,,,
136,98,1566579240.0,,,,,,,,,,,,,,,,,,,
137,82,1566580140.0,,,,,,,,,,,,,,,,,,,
138,80,1566581040.0,,,,,,,,,,,,,,,,,,,
139,83,1566581940.0,23.0,,,,,,,,,,,,,,,,,,
140,83,1566582840.0,,,,,,,,,,,,,,,,,,,
141,75,1566583740.0,,,,,,,,,,,,,,,,,,,
142,64,1566584640.0,,,,,,,,,,,,,,,,,,,
143,59,1566585540.0,0.0,,,,,,,,,,,,,,,,,,
144,59,1566586440.0,,,,,,,,,,,,,,,,,,,
145,65,1566587340.0,,,,,,,,,,,,,,,,,,,
146,69,1566588240.0,,,,,,,,,,,,,,,,,,,
147,64,1566589140.0,0.0,,,,,,,,,,,,,,,,,,
148,56,1566590040.0,,,,,,,,,,,,,,,,,,,
149,52,1566590940.0,,,,,,,,,,,,,,,,,,,
150,66,1566591840.0,,,,,,,,,,,,,,,,,,,
151,68,1566592740.0,0.0,,,,,,,,,,,,,,,,,,
152,65,1566593640.0,,,,,,,,,,,,,,,,,,,
153,72,1566594540.0,,,,,,,,,,,,,,,,,,,
154,82,1566595440.0,,,,,,,,,,,,,,,,,,,
155,88,1566596340.0,0.0,,,,,,,,,,,,,,,,,,
156,89,1566597240.0,,,,,,,,,,,,,,,,,,,
157,89,1566598140.0,,,,,,,,,,,,,,,,,,,
158,86,1566599040.0,,,,,,,,,,,,,,,,,,,
159,85,1566599940.0,0.0,,,,,,,,,,,,,,,,,,
160,86,1566600840.0,,,,,,,,,,,,,,,,,,,
161,82,1566601740.0,,,,,,,,,,,,,,,,,,,
162,77,1566602640.0,,,,,,,,,,,,,,,,,,,
163,74,1566603540.0,0.0,,,,,,,,,,,,,,,,,,
164,72,1566604440.0,,,,,,,,,,,,,,,,,,,
165,77,1566605340.0,,,,,,,,,,,,,,,,,,,
166,85,1566606240.0,,,,,,,,,,,,,,,,,,,
167,89,1566607140.0,0.0,,,,,,,,,,,,,,,,,,
168,88,1566608040.0,,,,,,,,,,,,,,,,,,,
169,92,1566608940.0,,,,,,,,,,,,,,,,,,,
170,102,1566609840.0,,,,,,,,,,,,,,,,,,,
171,110,1566610740.0,22.0,,,,,,,,,,,,,,,,,,
172,110,1566611640.0,,,,,,,,,,,,,,,,,,,
173,114,1566612540.0,,,,,,,,,,,,,,,,,,,
174,123,1566613440.0,,,,,,,,,,,,,,,,,,,
175,130,1566614340.0,26.0,,,,,,,,,,,,,,,,,,
176,136,1566615240.0,,,,,,,,,,,,,,,,,,,
177,152,1566616140.0,,,,,,,,,,,,,,,,,,,
178,172,1566617040.0,,,,,,,,,,,,,,,,,,,
179,171,1566617940.0,15.0,,,,,,,,,,,,,,,,,,
180,154,1566618840.0,,,,,,,,,,,,,,,,,,,
181,134,1566619740.0,,,,,,,,,,,,,,,,,,,
182,116,1566620640.0,,,,,,,,,,,,,,,,,,,
183,100,1566621540.0,534.0,,,,,,,,,,,,,,,,,,
184,87,1566622440.0,,,,,,,,,,,,,,,,,,,
185,78,1566623340.0,,,,,,,,,,,,,,,,,,,
186,74,1566624240.0,,,,,,,,,,,,,,,,,,,
187,73,1566625140.0,4044.0,1420,24-08-2019,Breakfast,119.95,18.2,17.1,19.85,711.0,3.0,4.0,71.33,11:09:00,73.0,147.0,12:39:00,165.0,11:09:00,2019-08-24
188,77,1566626040.0,,,,,,,,,,,,,,,,,,,
189,83,1566626940.0,,,,,,,,,,,,,,,,,,,
190,88,1566627840.0,,,,,,,,,,,,,,,,,,,
191,104,1566628740.0,105.0,,,,,,,,,,,,,,,,,,
192,132,1566629640.0,,,,,,,,,,,,,,,,,,,
193,147,1566630540.0,,,,,,,,,,,,,,,,,,,
194,145,1566631440.0,,,,,,,,,,,,,,,,,,,
195,136,1566632340.0,15.0,,,,,,,,,,,,,,,,,,
196,124,1566633240.0,,,,,,,,,,,,,,,,,,,
197,109,1566634140.0,,,,,,,,,,,,,,,,,,,
198,110,1566635040.0,,,,,,,,,,,,,,,,,,,
199,142,1566635940.0,3.0,,,,,,,,,,,,,,,,,,
200,177,1566636840.0,,,,,,,,,,,,,,,,,,,
201,190,1566637740.0,,,,,,,,,,,,,,,,,,,
202,184,1566638640.0,,,,,,,,,,,,,,,,,,,
203,171,1566639540.0,4.0,,,,,,,,,,,,,,,,,,
204,154,1566640440.0,,,,,,,,,,,,,,,,,,,
205,142,1566641340.0,,,,,,,,,,,,,,,,,,,
206,140,1566642240.0,,,,,,,,,,,,,,,,,,,
207,120,1566643140.0,25.0,,,,,,,,,,,,,,,,,,
208,83,1566644040.0,,,,,,,,,,,,,,,,,,,
209,70,1566644940.0,,,,,,,,,,,,,,,,,,,
210,78,1566645840.0,,,,,,,,,,,,,,,,,,,
211,90,1566646740.0,5.0,,,,,,,,,,,,,,,,,,
212,91,1566647640.0,,,,,,,,,,,,,,,,,,,
213,88,1566648540.0,,,,,,,,,,,,,,,,,,,
214,93,1566649440.0,,,,,,,,,,,,,,,,,,,
215,103,1566650340.0,1.0,,,,,,,,,,,,,,,,,,
216,112,1566651240.0,,,,,,,,,,,,,,,,,,,
217,110,1566652140.0,,,,,,,,,,,,,,,,,,,
218,105,1566653040.0,,1420,24-08-2019,Dinner,120.6,24.85,24.6,29.75,940.0,2.0,3.0,68.36,18:54:00,105.0,147.0,19:54:00,150.0,18:54:00,2019-08-24
219,111,1566653940.0,9.0,,,,,,,,,,,,,,,,,,
220,128,1566654840.0,,,,,,,,,,,,,,,,,,,
221,144,1566655740.0,,,,,,,,,,,,,,,,,,,
222,147,1566656640.0,,,,,,,,,,,,,,,,,,,
223,140,1566657540.0,6.0,,,,,,,,,,,,,,,,,,
224,140,1566658440.0,,,,,,,,,,,,,,,,,,,
225,135,1566659340.0,,,,,,,,,,,,,,,,,,,
226,123,1566660240.0,,,,,,,,,,,,,,,,,,,
227,114,1566661140.0,7.0,,,,,,,,,,,,,,,,,,
228,107,1566662040.0,,,,,,,,,,,,,,,,,,,
229,108,1566662940.0,,1420,24-08-2019,Dinner,120.6,24.85,24.6,29.75,940.0,2.0,3.0,65.63,21:39:00,107.0,153.0,22:54:00,105.0,21:39:00,2019-08-24
230,121,1566663840.0,,,,,,,,,,,,,,,,,,,
231,130,1566664740.0,18.0,,,,,,,,,,,,,,,,,,
232,135,1566665640.0,,,,,,,,,,,,,,,,,,,
233,145,1566666540.0,,,,,,,,,,,,,,,,,,,
234,153,1566667440.0,,,,,,,,,,,,,,,,,,,
235,151,1566668340.0,7.0,,,,,,,,,,,,,,,,,,
236,147,1566669240.0,,,,,,,,,,,,,,,,,,,
237,150,1566670140.0,,,,,,,,,,,,,,,,,,,
238,148,1566671040.0,,,,,,,,,,,,,,,,,,,
239,133,1566671940.0,45.0,,,,,,,,,,,,,,,,,,
240,119,1566672840.0,,,,,,,,,,,,,,,,,,,
241,112,1566673740.0,,,,,,,,,,,,,,,,,,,
242,105,1566674640.0,,,,,,,,,,,,,,,,,,,
243,91,1566675540.0,0.0,,,,,,,,,,,,,,,,,,
244,76,1566676440.0,,,,,,,,,,,,,,,,,,,
245,66,1566677340.0,,,,,,,,,,,,,,,,,,,
246,59,1566678240.0,,,,,,,,,,,,,,,,,,,
247,60,1566679140.0,0.0,,,,,,,,,,,,,,,,,,
248,74,1566680040.0,,,,,,,,,,,,,,,,,,,
249,83,1566680940.0,,,,,,,,,,,,,,,,,,,
250,87,1566681840.0,,,,,,,,,,,,,,,,,,,
251,86,1566682740.0,0.0,,,,,,,,,,,,,,,,,,
252,85,1566683640.0,,,,,,,,,,,,,,,,,,,
253,89,1566684540.0,,,,,,,,,,,,,,,,,,,
254,91,1566685440.0,,,,,,,,,,,,,,,,,,,
255,87,1566686340.0,0.0,,,,,,,,,,,,,,,,,,
256,82,1566687240.0,,,,,,,,,,,,,,,,,,,
257,79,1566688140.0,,,,,,,,,,,,,,,,,,,
258,80,1566689040.0,,,,,,,,,,,,,,,,,,,
259,85,1566689940.0,0.0,,,,,,,,,,,,,,,,,,
260,87,1566690840.0,,,,,,,,,,,,,,,,,,,
261,87,1566691740.0,,,,,,,,,,,,,,,,,,,
262,90,1566692640.0,,,,,,,,,,,,,,,,,,,
263,97,1566693540.0,1.0,,,,,,,,,,,,,,,,,,
264,105,1566694440.0,,,,,,,,,,,,,,,,,,,
265,113,1566695340.0,,,,,,,,,,,,,,,,,,,
266,120,1566696240.0,,,,,,,,,,,,,,,,,,,
267,125,1566697140.0,21.0,,,,,,,,,,,,,,,,,,
268,126,1566698040.0,,,,,,,,,,,,,,,,,,,
269,132,1566698940.0,,,,,,,,,,,,,,,,,,,
270,129,1566699840.0,,,,,,,,,,,,,,,,,,,
271,113,1566700740.0,104.0,,,,,,,,,,,,,,,,,,
272,104,1566701640.0,,,,,,,,,,,,,,,,,,,
273,117,1566702540.0,,,,,,,,,,,,,,,,,,,
274,138,1566703440.0,,,,,,,,,,,,,,,,,,,
275,132,1566704340.0,10.0,,,,,,,,,,,,,,,,,,
276,124,1566705240.0,,,,,,,,,,,,,,,,,,,
277,137,1566706140.0,,,,,,,,,,,,,,,,,,,
278,140,1566707040.0,,,,,,,,,,,,,,,,,,,
279,129,1566707940.0,24.0,,,,,,,,,,,,,,,,,,
280,111,1566708840.0,,,,,,,,,,,,,,,,,,,
281,93,1566709740.0,,,,,,,,,,,,,,,,,,,
282,85,1566710640.0,,,,,,,,,,,,,,,,,,,
283,91,1566711540.0,0.0,,,,,,,,,,,,,,,,,,
284,118,1566712440.0,,,,,,,,,,,,,,,,,,,
285,142,1566713340.0,,,,,,,,,,,,,,,,,,,
286,137,1566714240.0,,,,,,,,,,,,,,,,,,,
287,121,1566715140.0,4.0,,,,,,,,,,,,,,,,,,
288,111,1566716040.0,,,,,,,,,,,,,,,,,,,
289,97,1566716940.0,,,,,,,,,,,,,,,,,,,
290,80,1566717840.0,,,,,,,,,,,,,,,,,,,
291,74,1566718740.0,7.0,1420,25-08-2019,Lunch,84.68,13.26,6.94,17.07,539.0,3.0,3.0,67.09,13:09:00,74.0,143.0,14:54:00,165.0,13:09:00,2019-08-25
292,77,1566719640.0,,,,,,,,,,,,,,,,,,,
293,77,1566720540.0,,,,,,,,,,,,,,,,,,,
294,82,1566721440.0,,,,,,,,,,,,,,,,,,,
295,103,1566722340.0,28.0,,,,,,,,,,,,,,,,,,
296,126,1566723240.0,,,,,,,,,,,,,,,,,,,
297,139,1566724140.0,,,,,,,,,,,,,,,,,,,
298,143,1566725040.0,,,,,,,,,,,,,,,,,,,
299,135,1566725940.0,4.0,,,,,,,,,,,,,,,,,,
300,132,1566726840.0,,,,,,,,,,,,,,,,,,,
301,129,1566727740.0,,,,,,,,,,,,,,,,,,,
302,122,1566728640.0,,,,,,,,,,,,,,,,,,,
303,123,1566729540.0,19.0,,,,,,,,,,,,,,,,,,
304,133,1566730440.0,,,,,,,,,,,,,,,,,,,
305,134,1566731340.0,,,,,,,,,,,,,,,,,,,
306,117,1566732240.0,,,,,,,,,,,,,,,,,,,
307,110,1566733140.0,13.0,,,,,,,,,,,,,,,,,,
308,115,1566734040.0,,,,,,,,,,,,,,,,,,,
309,123,1566734940.0,,,,,,,,,,,,,,,,,,,
310,128,1566735840.0,,,,,,,,,,,,,,,,,,,
311,119,1566736740.0,7.0,,,,,,,,,,,,,,,,,,
312,107,1566737640.0,,,,,,,,,,,,,,,,,,,
313,106,1566738540.0,,,,,,,,,,,,,,,,,,,
314,113,1566739440.0,,,,,,,,,,,,,,,,,,,
315,115,1566740340.0,0.0,,,,,,,,,,,,,,,,,,
316,107,1566741240.0,,,,,,,,,,,,,,,,,,,
317,97,1566742140.0,,,,,,,,,,,,,,,,,,,
318,90,1566743040.0,,1420,25-08-2019,Dinner,58.35,7.65,3.75,13.3,358.0,3.0,3.0,59.24,19:54:00,90.0,132.0,21:24:00,150.0,19:54:00,2019-08-25
319,93,1566743940.0,9.0,,,,,,,,,,,,,,,,,,
320,101,1566744840.0,,,,,,,,,,,,,,,,,,,
321,107,1566745740.0,,,,,,,,,,,,,,,,,,,
322,116,1566746640.0,,,,,,,,,,,,,,,,,,,
323,127,1566747540.0,1.0,,,,,,,,,,,,,,,,,,
324,132,1566748440.0,,,,,,,,,,,,,,,,,,,
325,130,1566749340.0,,,,,,,,,,,,,,,,,,,
326,129,1566750240.0,,,,,,,,,,,,,,,,,,,
327,126,1566751140.0,2.0,,,,,,,,,,,,,,,,,,
328,124,1566752040.0,,,,,,,,,,,,,,,,,,,
329,131,1566752940.0,,,,,,,,,,,,,,,,,,,
330,134,1566753840.0,,,,,,,,,,,,,,,,,,,
331,131,1566754740.0,1.0,,,,,,,,,,,,,,,,,,
332,126,1566755640.0,,,,,,,,,,,,,,,,,,,
333,117,1566756540.0,,,,,,,,,,,,,,,,,,,
334,106,1566757440.0,,,,,,,,,,,,,,,,,,,
335,107,1566758340.0,1.0,,,,,,,,,,,,,,,,,,
336,110,1566759240.0,,,,,,,,,,,,,,,,,,,
337,115,1566760140.0,,,,,,,,,,,,,,,,,,,
338,117,1566761040.0,,,,,,,,,,,,,,,,,,,
339,115,1566761940.0,0.0,,,,,,,,,,,,,,,,,,
340,109,1566762840.0,,,,,,,,,,,,,,,,,,,
341,103,1566763740.0,,,,,,,,,,,,,,,,,,,
342,99,1566764640.0,,,,,,,,,,,,,,,,,,,
343,95,1566765540.0,0.0,,,,,,,,,,,,,,,,,,
344,90,1566766440.0,,,,,,,,,,,,,,,,,,,
345,88,1566767340.0,,,,,,,,,,,,,,,,,,,
346,88,1566768240.0,,,,,,,,,,,,,,,,,,,
347,87,1566769140.0,0.0,,,,,,,,,,,,,,,,,,
348,86,1566770040.0,,,,,,,,,,,,,,,,,,,
349,91,1566770940.0,,,,,,,,,,,,,,,,,,,
350,102,1566771840.0,,,,,,,,,,,,,,,,,,,
351,113,1566772740.0,0.0,,,,,,,,,,,,,,,,,,
352,119,1566773640.0,,,,,,,,,,,,,,,,,,,
353,118,1566774540.0,,,,,,,,,,,,,,,,,,,
354,115,1566775440.0,,,,,,,,,,,,,,,,,,,
355,113,1566776340.0,0.0,,,,,,,,,,,,,,,,,,
356,110,1566777240.0,,,,,,,,,,,,,,,,,,,
357,107,1566778140.0,,,,,,,,,,,,,,,,,,,
358,107,1566779040.0,,,,,,,,,,,,,,,,,,,
359,108,1566779940.0,0.0,,,,,,,,,,,,,,,,,,
360,105,1566780840.0,,,,,,,,,,,,,,,,,,,
361,106,1566781740.0,,,,,,,,,,,,,,,,,,,
362,117,1566782640.0,,,,,,,,,,,,,,,,,,,
363,125,1566783540.0,84.0,,,,,,,,,,,,,,,,,,
364,126,1566784440.0,,,,,,,,,,,,,,,,,,,
365,132,1566785340.0,,,,,,,,,,,,,,,,,,,
366,141,1566786240.0,,,,,,,,,,,,,,,,,,,
367,135,1566787140.0,43.0,,,,,,,,,,,,,,,,,,
368,116,1566788040.0,,,,,,,,,,,,,,,,,,,
369,104,1566788940.0,,,,,,,,,,,,,,,,,,,
370,104,1566789840.0,,1420,26-08-2019,Breakfast,62.7,11.5,6.0,14.4,410.0,2.0,4.0,73.86,08:54:00,104.0,176.0,10:09:00,165.0,08:54:00,2019-08-26
371,115,1566790740.0,29.0,,,,,,,,,,,,,,,,,,
372,129,1566791640.0,,,,,,,,,,,,,,,,,,,
373,145,1566792540.0,,,,,,,,,,,,,,,,,,,
374,171,1566793440.0,,,,,,,,,,,,,,,,,,,
375,176,1566794340.0,141.0,,,,,,,,,,,,,,,,,,
376,162,1566795240.0,,,,,,,,,,,,,,,,,,,
377,127,1566796140.0,,,,,,,,,,,,,,,,,,,
378,92,1566797040.0,,,,,,,,,,,,,,,,,,,
379,79,1566797940.0,1361.0,,,,,,,,,,,,,,,,,,
380,78,1566798840.0,,,,,,,,,,,,,,,,,,,
381,76,1566799740.0,,,,,,,,,,,,,,,,,,,
382,83,1566800640.0,,,,,,,,,,,,,,,,,,,
383,97,1566801540.0,33.0,,,,,,,,,,,,,,,,,,
384,108,1566802440.0,,,,,,,,,,,,,,,,,,,
385,105,1566803340.0,,,,,,,,,,,,,,,,,,,
386,92,1566804240.0,,,,,,,,,,,,,,,,,,,
387,90,1566805140.0,42.0,,,,,,,,,,,,,,,,,,
388,88,1566806040.0,,,,,,,,,,,,,,,,,,,
389,93,1566806940.0,,,,,,,,,,,,,,,,,,,
390,121,1566807840.0,,,,,,,,,,,,,,,,,,,
391,144,1566808740.0,16.0,,,,,,,,,,,,,,,,,,
392,143,1566809640.0,,,,,,,,,,,,,,,,,,,
393,138,1566810540.0,,,,,,,,,,,,,,,,,,,
394,133,1566811440.0,,,,,,,,,,,,,,,,,,,
395,129,1566812340.0,0.0,,,,,,,,,,,,,,,,,,
396,124,1566813240.0,,,,,,,,,,,,,,,,,,,
397,120,1566814140.0,,,,,,,,,,,,,,,,,,,
398,117,1566815040.0,,,,,,,,,,,,,,,,,,,
399,107,1566815940.0,18.0,,,,,,,,,,,,,,,,,,
400,99,1566816840.0,,1420,26-08-2019,Lunch,62.32,10.34,6.72,13.86,400.0,2.0,4.0,74.48,16:24:00,99.0,174.0,17:39:00,90.0,16:24:00,2019-08-26
401,104,1566817740.0,,,,,,,,,,,,,,,,,,,
402,108,1566818640.0,,,,,,,,,,,,,,,,,,,
403,111,1566819540.0,17.0,,,,,,,,,,,,,,,,,,
404,140,1566820440.0,,,,,,,,,,,,,,,,,,,
405,174,1566821340.0,,,,,,,,,,,,,,,,,,,
406,169,1566822240.0,,,,,,,,,,,,,,,,,,,
407,144,1566823140.0,0.0,,,,,,,,,,,,,,,,,,
408,131,1566824040.0,,,,,,,,,,,,,,,,,,,
409,123,1566824940.0,,,,,,,,,,,,,,,,,,,
410,119,1566825840.0,,,,,,,,,,,,,,,,,,,
411,120,1566826740.0,4.0,,,,,,,,,,,,,,,,,,
412,116,1566827640.0,,,,,,,,,,,,,,,,,,,
413,106,1566828540.0,,,,,,,,,,,,,,,,,,,
414,94,1566829440.0,,,,,,,,,,,,,,,,,,,
415,88,1566830340.0,11.0,,,,,,,,,,,,,,,,,,
416,85,1566831240.0,,,,,,,,,,,,,,,,,,,
417,83,1566832140.0,,,,,,,,,,,,,,,,,,,
418,92,1566833040.0,,,,,,,,,,,,,,,,,,,
419,126,1566833940.0,12.0,,,,,,,,,,,,,,,,,,
420,149,1566834840.0,,,,,,,,,,,,,,,,,,,
421,142,1566835740.0,,,,,,,,,,,,,,,,,,,
422,130,1566836640.0,,,,,,,,,,,,,,,,,,,
423,119,1566837540.0,24.0,,,,,,,,,,,,,,,,,,
424,107,1566838440.0,,,,,,,,,,,,,,,,,,,
425,95,1566839340.0,,,,,,,,,,,,,,,,,,,
426,94,1566840240.0,,,,,,,,,,,,,,,,,,,
427,97,1566841140.0,0.0,,,,,,,,,,,,,,,,,,
428,100,1566842040.0,,,,,,,,,,,,,,,,,,,
429,102,1566842940.0,,,,,,,,,,,,,,,,,,,
430,99,1566843840.0,,,,,,,,,,,,,,,,,,,
431,95,1566844740.0,0.0,,,,,,,,,,,,,,,,,,
432,94,1566845640.0,,,,,,,,,,,,,,,,,,,
433,95,1566846540.0,,,,,,,,,,,,,,,,,,,
434,99,1566847440.0,,,,,,,,,,,,,,,,,,,
435,104,1566848340.0,0.0,,,,,,,,,,,,,,,,,,
436,98,1566849240.0,,,,,,,,,,,,,,,,,,,
437,86,1566850140.0,,,,,,,,,,,,,,,,,,,
438,84,1566851040.0,,,,,,,,,,,,,,,,,,,
439,94,1566851940.0,0.0,,,,,,,,,,,,,,,,,,
440,103,1566852840.0,,,,,,,,,,,,,,,,,,,
441,100,1566853740.0,,,,,,,,,,,,,,,,,,,
442,96,1566854640.0,,,,,,,,,,,,,,,,,,,
443,99,1566855540.0,0.0,,,,,,,,,,,,,,,,,,
444,101,1566856440.0,,,,,,,,,,,,,,,,,,,
445,98,1566857340.0,,,,,,,,,,,,,,,,,,,
446,94,1566858240.0,,,,,,,,,,,,,,,,,,,
447,93,1566859140.0,0.0,,,,,,,,,,,,,,,,,,
448,93,1566860040.0,,,,,,,,,,,,,,,,,,,
449,103,1566860940.0,,,,,,,,,,,,,,,,,,,
450,110,1566861840.0,,,,,,,,,,,,,,,,,,,
451,109,1566862740.0,0.0,,,,,,,,,,,,,,,,,,
452,107,1566863640.0,,,,,,,,,,,,,,,,,,,
453,106,1566864540.0,,,,,,,,,,,,,,,,,,,
454,107,1566865440.0,,,,,,,,,,,,,,,,,,,
455,110,1566866340.0,8.0,,,,,,,,,,,,,,,,,,
456,117,1566867240.0,,,,,,,,,,,,,,,,,,,
457,127,1566868140.0,,,,,,,,,,,,,,,,,,,
458,132,1566869040.0,,,,,,,,,,,,,,,,,,,
459,125,1566869940.0,46.0,,,,,,,,,,,,,,,,,,
460,114,1566870840.0,,,,,,,,,,,,,,,,,,,
461,104,1566871740.0,,,,,,,,,,,,,,,,,,,
462,103,1566872640.0,,,,,,,,,,,,,,,,,,,
463,130,1566873540.0,23.0,,,,,,,,,,,,,,,,,,
464,181,1566874440.0,,,,,,,,,,,,,,,,,,,
465,194,1566875340.0,,,,,,,,,,,,,,,,,,,
466,167,1566876240.0,,,,,,,,,,,,,,,,,,,
467,136,1566877140.0,66.0,,,,,,,,,,,,,,,,,,
468,102,1566878040.0,,,,,,,,,,,,,,,,,,,
469,91,1566878940.0,,,,,,,,,,,,,,,,,,,
470,112,1566879840.0,,,,,,,,,,,,,,,,,,,
471,122,1566880740.0,266.0,,,,,,,,,,,,,,,,,,
472,116,1566881640.0,,,,,,,,,,,,,,,,,,,
473,107,1566882540.0,,,,,,,,,,,,,,,,,,,
474,107,1566883440.0,,,,,,,,,,,,,,,,,,,
475,110,1566884340.0,2372.0,,,,,,,,,,,,,,,,,,
476,107,1566885240.0,,,,,,,,,,,,,,,,,,,
477,102,1566886140.0,,1420,27-08-2019,Lunch,74.1,11.25,9.5,17.6,462.0,2.0,4.0,72.54,11:39:00,102.0,155.0,12:39:00,120.0,11:39:00,2019-08-27
478,114,1566887040.0,,,,,,,,,,,,,,,,,,,
479,141,1566887940.0,122.0,,,,,,,,,,,,,,,,,,
480,154,1566888840.0,,,,,,,,,,,,,,,,,,,
481,155,1566889740.0,,,,,,,,,,,,,,,,,,,
482,144,1566890640.0,,,,,,,,,,,,,,,,,,,
483,123,1566891540.0,413.0,,,,,,,,,,,,,,,,,,
484,110,1566892440.0,,,,,,,,,,,,,,,,,,,
485,104,1566893340.0,,,,,,,,,,,,,,,,,,,
486,112,1566894240.0,,,,,,,,,,,,,,,,,,,
487,134,1566895140.0,34.0,,,,,,,,,,,,,,,,,,
488,147,1566896040.0,,,,,,,,,,,,,,,,,,,
489,142,1566896940.0,,,,,,,,,,,,,,,,,,,
490,125,1566897840.0,,,,,,,,,,,,,,,,,,,
491,125,1566898740.0,8.0,,,,,,,,,,,,,,,,,,
492,143,1566899640.0,,,,,,,,,,,,,,,,,,,
493,148,1566900540.0,,,,,,,,,,,,,,,,,,,
494,136,1566901440.0,,,,,,,,,,,,,,,,,,,
495,122,1566902340.0,23.0,,,,,,,,,,,,,,,,,,
496,113,1566903240.0,,,,,,,,,,,,,,,,,,,
497,100,1566904140.0,,,,,,,,,,,,,,,,,,,
498,88,1566905040.0,,,,,,,,,,,,,,,,,,,
499,103,1566905940.0,2.0,,,,,,,,,,,,,,,,,,
500,132,1566906840.0,,,,,,,,,,,,,,,,,,,
501,151,1566907740.0,,,,,,,,,,,,,,,,,,,
502,156,1566908640.0,,,,,,,,,,,,,,,,,,,
503,157,1566909540.0,5.0,,,,,,,,,,,,,,,,,,
504,157,1566910440.0,,,,,,,,,,,,,,,,,,,
505,150,1566911340.0,,,,,,,,,,,,,,,,,,,
506,142,1566912240.0,,,,,,,,,,,,,,,,,,,
507,138,1566913140.0,5.0,,,,,,,,,,,,,,,,,,
508,137,1566914040.0,,,,,,,,,,,,,,,,,,,
509,132,1566914940.0,,,,,,,,,,,,,,,,,,,
510,124,1566915840.0,,,,,,,,,,,,,,,,,,,
511,107,1566916740.0,1.0,,,,,,,,,,,,,,,,,,
512,89,1566917640.0,,,,,,,,,,,,,,,,,,,
513,86,1566918540.0,,1420,27-08-2019,Dinner,34.05,10.1,2.4,9.25,275.0,2.0,4.0,79.18,20:39:00,86.0,195.0,21:54:00,180.0,20:39:00,2019-08-27
514,94,1566919440.0,,,,,,,,,,,,,,,,,,,
515,106,1566920340.0,10.0,,,,,,,,,,,,,,,,,,
516,134,1566921240.0,,,,,,,,,,,,,,,,,,,
517,177,1566922140.0,,,,,,,,,,,,,,,,,,,
518,195,1566923040.0,,,,,,,,,,,,,,,,,,,
519,175,1566923940.0,1.0,,,,,,,,,,,,,,,,,,
520,156,1566924840.0,,,,,,,,,,,,,,,,,,,
521,148,1566925740.0,,,,,,,,,,,,,,,,,,,
522,140,1566926640.0,,,,,,,,,,,,,,,,,,,
523,128,1566927540.0,2.0,,,,,,,,,,,,,,,,,,
524,117,1566928440.0,,,,,,,,,,,,,,,,,,,
525,107,1566929340.0,,,,,,,,,,,,,,,,,,,
526,102,1566930240.0,,,,,,,,,,,,,,,,,,,
527,97,1566931140.0,0.0,,,,,,,,,,,,,,,,,,
528,96,1566932040.0,,,,,,,,,,,,,,,,,,,
529,99,1566932940.0,,,,,,,,,,,,,,,,,,,
530,103,1566933840.0,,,,,,,,,,,,,,,,,,,
531,103,1566934740.0,0.0,,,,,,,,,,,,,,,,,,
532,99,1566935640.0,,,,,,,,,,,,,,,,,,,
533,99,1566936540.0,,,,,,,,,,,,,,,,,,,
534,99,1566937440.0,,,,,,,,,,,,,,,,,,,
535,95,1566938340.0,0.0,,,,,,,,,,,,,,,,,,
536,92,1566939240.0,,,,,,,,,,,,,,,,,,,
537,101,1566940140.0,,,,,,,,,,,,,,,,,,,
538,108,1566941040.0,,,,,,,,,,,,,,,,,,,
539,106,1566941940.0,0.0,,,,,,,,,,,,,,,,,,
540,106,1566942840.0,,,,,,,,,,,,,,,,,,,
541,109,1566943740.0,,,,,,,,,,,,,,,,,,,
542,107,1566944640.0,,,,,,,,,,,,,,,,,,,
543,107,1566945540.0,0.0,,,,,,,,,,,,,,,,,,
544,106,1566946440.0,,,,,,,,,,,,,,,,,,,
545,108,1566947340.0,,,,,,,,,,,,,,,,,,,
546,120,1566948240.0,,,,,,,,,,,,,,,,,,,
547,124,1566949140.0,0.0,,,,,,,,,,,,,,,,,,
548,122,1566950040.0,,,,,,,,,,,,,,,,,,,
549,121,1566950940.0,,,,,,,,,,,,,,,,,,,
550,119,1566951840.0,,,,,,,,,,,,,,,,,,,
551,117,1566952740.0,42.0,,,,,,,,,,,,,,,,,,
552,120,1566953640.0,,,,,,,,,,,,,,,,,,,
553,125,1566954540.0,,,,,,,,,,,,,,,,,,,
554,131,1566955440.0,,,,,,,,,,,,,,,,,,,
555,139,1566956340.0,36.0,,,,,,,,,,,,,,,,,,
556,141,1566957240.0,,,,,,,,,,,,,,,,,,,
557,134,1566958140.0,,,,,,,,,,,,,,,,,,,
558,129,1566959040.0,,1420,28-08-2019,Breakfast,73.9,15.4,4.0,13.8,487.0,2.0,4.0,71.57,07:54:00,129.0,179.0,08:54:00,150.0,07:54:00,2019-08-28
559,139,1566959940.0,37.0,,,,,,,,,,,,,,,,,,
560,156,1566960840.0,,,,,,,,,,,,,,,,,,,
561,168,1566961740.0,,,,,,,,,,,,,,,,,,,
562,179,1566962640.0,,,,,,,,,,,,,,,,,,,
563,172,1566963540.0,2218.0,,,,,,,,,,,,,,,,,,
564,137,1566964440.0,,,,,,,,,,,,,,,,,,,
565,111,1566965340.0,,,,,,,,,,,,,,,,,,,
566,101,1566966240.0,,,,,,,,,,,,,,,,,,,
567,94,1566967140.0,40.0,,,,,,,,,,,,,,,,,,
568,91,1566968040.0,,1420,28-08-2019,Breakfast,73.9,15.4,4.0,13.8,487.0,3.0,4.0,72.04,10:24:00,91.0,181.0,12:09:00,165.0,10:24:00,2019-08-28
569,93,1566968940.0,,,,,,,,,,,,,,,,,,,
570,95,1566969840.0,,,,,,,,,,,,,,,,,,,
571,97,1566970740.0,45.0,,,,,,,,,,,,,,,,,,
572,107,1566971640.0,,,,,,,,,,,,,,,,,,,
573,137,1566972540.0,,,,,,,,,,,,,,,,,,,
574,173,1566973440.0,,,,,,,,,,,,,,,,,,,
575,181,1566974340.0,19.0,,,,,,,,,,,,,,,,,,
576,163,1566975240.0,,,,,,,,,,,,,,,,,,,
577,141,1566976140.0,,,,,,,,,,,,,,,,,,,
578,124,1566977040.0,,,,,,,,,,,,,,,,,,,
579,116,1566977940.0,54.0,,,,,,,,,,,,,,,,,,
580,131,1566978840.0,,,,,,,,,,,,,,,,,,,
581,168,1566979740.0,,,,,,,,,,,,,,,,,,,
582,192,1566980640.0,,,,,,,,,,,,,,,,,,,
583,190,1566981540.0,7.0,,,,,,,,,,,,,,,,,,
584,179,1566982440.0,,,,,,,,,,,,,,,,,,,
585,168,1566983340.0,,,,,,,,,,,,,,,,,,,
586,155,1566984240.0,,,,,,,,,,,,,,,,,,,
587,147,1566985140.0,2.0,,,,,,,,,,,,,,,,,,
588,163,1566986040.0,,,,,,,,,,,,,,,,,,,
589,178,1566986940.0,,,,,,,,,,,,,,,,,,,
590,172,1566987840.0,,,,,,,,,,,,,,,,,,,
591,161,1566988740.0,247.0,,,,,,,,,,,,,,,,,,
592,154,1566989640.0,,,,,,,,,,,,,,,,,,,
593,142,1566990540.0,,,,,,,,,,,,,,,,,,,
594,120,1566991440.0,,,,,,,,,,,,,,,,,,,
595,92,1566992340.0,30.0,,,,,,,,,,,,,,,,,,
596,77,1566993240.0,,,,,,,,,,,,,,,,,,,
597,78,1566994140.0,,,,,,,,,,,,,,,,,,,
598,87,1566995040.0,,,,,,,,,,,,,,,,,,,
599,100,1566995940.0,17.0,,,,,,,,,,,,,,,,,,
600,115,1566996840.0,,,,,,,,,,,,,,,,,,,
601,132,1566997740.0,,,,,,,,,,,,,,,,,,,
602,152,1566998640.0,,,,,,,,,,,,,,,,,,,
603,167,1566999540.0,36.0,,,,,,,,,,,,,,,,,,
604,169,1567000440.0,,,,,,,,,,,,,,,,,,,
605,169,1567001340.0,,,,,,,,,,,,,,,,,,,
606,164,1567002240.0,,,,,,,,,,,,,,,,,,,
607,158,1567003140.0,10.0,,,,,,,,,,,,,,,,,,
608,148,1567004040.0,,,,,,,,,,,,,,,,,,,
609,132,1567004940.0,,,,,,,,,,,,,,,,,,,
610,132,1567005840.0,,,,,,,,,,,,,,,,,,,
611,163,1567006740.0,42.0,,,,,,,,,,,,,,,,,,
612,194,1567007640.0,,,,,,,,,,,,,,,,,,,
613,186,1567008540.0,,,,,,,,,,,,,,,,,,,
614,156,1567009440.0,,,,,,,,,,,,,,,,,,,
615,129,1567010340.0,29.0,,,,,,,,,,,,,,,,,,
616,110,1567011240.0,,,,,,,,,,,,,,,,,,,
617,103,1567012140.0,,,,,,,,,,,,,,,,,,,
618,99,1567013040.0,,,,,,,,,,,,,,,,,,,
619,95,1567013940.0,1.0,,,,,,,,,,,,,,,,,,
620,92,1567014840.0,,,,,,,,,,,,,,,,,,,
621,90,1567015740.0,,,,,,,,,,,,,,,,,,,
622,92,1567016640.0,,,,,,,,,,,,,,,,,,,
623,100,1567017540.0,5.0,,,,,,,,,,,,,,,,,,
624,105,1567018440.0,,,,,,,,,,,,,,,,,,,
625,103,1567019340.0,,,,,,,,,,,,,,,,,,,
626,104,1567020240.0,,,,,,,,,,,,,,,,,,,
627,107,1567021140.0,8.0,,,,,,,,,,,,,,,,,,
628,109,1567022040.0,,,,,,,,,,,,,,,,,,,
629,110,1567022940.0,,,,,,,,,,,,,,,,,,,
630,106,1567023840.0,,,,,,,,,,,,,,,,,,,
631,106,1567024740.0,0.0,,,,,,,,,,,,,,,,,,
632,116,1567025640.0,,,,,,,,,,,,,,,,,,,
633,126,1567026540.0,,,,,,,,,,,,,,,,,,,
634,126,1567027440.0,,,,,,,,,,,,,,,,,,,
635,119,1567028340.0,0.0,,,,,,,,,,,,,,,,,,
636,113,1567029240.0,,,,,,,,,,,,,,,,,,,
637,117,1567030140.0,,,,,,,,,,,,,,,,,,,
638,121,1567031040.0,,,,,,,,,,,,,,,,,,,
639,112,1567031940.0,0.0,,,,,,,,,,,,,,,,,,
640,103,1567032840.0,,,,,,,,,,,,,,,,,,,
641,100,1567033740.0,,,,,,,,,,,,,,,,,,,
642,98,1567034640.0,,,,,,,,,,,,,,,,,,,
643,99,1567035540.0,0.0,,,,,,,,,,,,,,,,,,
644,100,1567036440.0,,,,,,,,,,,,,,,,,,,
645,101,1567037340.0,,,,,,,,,,,,,,,,,,,
646,109,1567038240.0,,,,,,,,,,,,,,,,,,,
647,112,1567039140.0,0.0,,,,,,,,,,,,,,,,,,
648,104,1567040040.0,,,,,,,,,,,,,,,,,,,
649,105,1567040940.0,,,,,,,,,,,,,,,,,,,
650,115,1567041840.0,,,,,,,,,,,,,,,,,,,
651,128,1567042740.0,50.0,,,,,,,,,,,,,,,,,,
652,138,1567043640.0,,,,,,,,,,,,,,,,,,,
653,144,1567044540.0,,,,,,,,,,,,,,,,,,,
654,156,1567045440.0,,,,,,,,,,,,,,,,,,,
655,186,1567046340.0,10.0,,,,,,,,,,,,,,,,,,
656,203,1567047240.0,,,,,,,,,,,,,,,,,,,
657,204,1567048140.0,,,,,,,,,,,,,,,,,,,
658,202,1567049040.0,,,,,,,,,,,,,,,,,,,
659,197,1567049940.0,35.0,,,,,,,,,,,,,,,,,,
660,197,1567050840.0,,,,,,,,,,,,,,,,,,,
661,193,1567051740.0,,,,,,,,,,,,,,,,,,,
662,171,1567052640.0,,,,,,,,,,,,,,,,,,,
663,142,1567053540.0,42.0,,,,,,,,,,,,,,,,,,
664,110,1567054440.0,,,,,,,,,,,,,,,,,,,
665,87,1567055340.0,,,,,,,,,,,,,,,,,,,
666,81,1567056240.0,,,,,,,,,,,,,,,,,,,
667,75,1567057140.0,2659.0,,,,,,,,,,,,,,,,,,
668,70,1567058040.0,,1420,29-08-2019,Breakfast,79.6,15.7,2.4,16.5,527.0,3.0,4.0,77.45,11:24:00,70.0,201.0,13:09:00,180.0,11:24:00,2019-08-29
669,71,1567058940.0,,,,,,,,,,,,,,,,,,,
670,72,1567059840.0,,,,,,,,,,,,,,,,,,,
671,77,1567060740.0,32.0,,,,,,,,,,,,,,,,,,
672,85,1567061640.0,,,,,,,,,,,,,,,,,,,
673,108,1567062540.0,,,,,,,,,,,,,,,,,,,
674,158,1567063440.0,,,,,,,,,,,,,,,,,,,
675,201,1567064340.0,1.0,,,,,,,,,,,,,,,,,,
676,194,1567065240.0,,,,,,,,,,,,,,,,,,,
677,164,1567066140.0,,,,,,,,,,,,,,,,,,,
678,142,1567067040.0,,,,,,,,,,,,,,,,,,,
679,128,1567067940.0,20.0,,,,,,,,,,,,,,,,,,
680,117,1567068840.0,,1420,29-08-2019,Lunch,83.94,13.4,6.8,18.26,552.0,2.0,4.0,78.37,14:24:00,117.0,198.0,15:24:00,120.0,14:24:00,2019-08-29
681,123,1567069740.0,,,,,,,,,,,,,,,,,,,
682,155,1567070640.0,,,,,,,,,,,,,,,,,,,
683,188,1567071540.0,12.0,,,,,,,,,,,,,,,,,,
684,198,1567072440.0,,,,,,,,,,,,,,,,,,,
685,184,1567073340.0,,,,,,,,,,,,,,,,,,,
686,167,1567074240.0,,,,,,,,,,,,,,,,,,,
687,159,1567075140.0,10.0,,,,,,,,,,,,,,,,,,
688,158,1567076040.0,,1420,29-08-2019,Lunch,83.94,13.4,6.8,18.26,552.0,2.0,2.0,41.99,16:24:00,158.0,173.0,17:24:00,210.0,16:24:00,2019-08-29
689,159,1567076940.0,,,,,,,,,,,,,,,,,,,
690,159,1567077840.0,,,,,,,,,,,,,,,,,,,
691,167,1567078740.0,0.0,,,,,,,,,,,,,,,,,,
692,173,1567079640.0,,,,,,,,,,,,,,,,,,,
693,157,1567080540.0,,,,,,,,,,,,,,,,,,,
694,132,1567081440.0,,,,,,,,,,,,,,,,,,,
695,122,1567082340.0,42.0,,,,,,,,,,,,,,,,,,
696,119,1567083240.0,,,,,,,,,,,,,,,,,,,
697,112,1567084140.0,,,,,,,,,,,,,,,,,,,
698,105,1567085040.0,,,,,,,,,,,,,,,,,,,
699,99,1567085940.0,13.0,,,,,,,,,,,,,,,,,,
700,94,1567086840.0,,,,,,,,,,,,,,,,,,,
701,90,1567087740.0,,,,,,,,,,,,,,,,,,,
702,89,1567088640.0,,,,,,,,,,,,,,,,,,,
703,95,1567089540.0,9.0,,,,,,,,,,,,,,,,,,
704,126,1567090440.0,,,,,,,,,,,,,,,,,,,
705,175,1567091340.0,,,,,,,,,,,,,,,,,,,
706,193,1567092240.0,,,,,,,,,,,,,,,,,,,
707,173,1567093140.0,20.0,,,,,,,,,,,,,,,,,,
708,144,1567094040.0,,,,,,,,,,,,,,,,,,,
709,122,1567094940.0,,,,,,,,,,,,,,,,,,,
710,107,1567095840.0,,,,,,,,,,,,,,,,,,,
711,103,1567096740.0,29.0,,,,,,,,,,,,,,,,,,
712,103,1567097640.0,,,,,,,,,,,,,,,,,,,
713,101,1567098540.0,,,,,,,,,,,,,,,,,,,
714,95,1567099440.0,,,,,,,,,,,,,,,,,,,
715,87,1567100340.0,0.0,,,,,,,,,,,,,,,,,,
716,87,1567101240.0,,,,,,,,,,,,,,,,,,,
717,91,1567102140.0,,,,,,,,,,,,,,,,,,,
718,92,1567103040.0,,,,,,,,,,,,,,,,,,,
719,94,1567103940.0,0.0,,,,,,,,,,,,,,,,,,
720,98,1567104840.0,,,,,,,,,,,,,,,,,,,
721,99,1567105740.0,,,,,,,,,,,,,,,,,,,
722,98,1567106640.0,,,,,,,,,,,,,,,,,,,
723,94,1567107540.0,0.0,,,,,,,,,,,,,,,,,,
724,90,1567108440.0,,,,,,,,,,,,,,,,,,,
725,94,1567109340.0,,,,,,,,,,,,,,,,,,,
726,98,1567110240.0,,,,,,,,,,,,,,,,,,,
727,101,1567111140.0,0.0,,,,,,,,,,,,,,,,,,
728,101,1567112040.0,,,,,,,,,,,,,,,,,,,
729,101,1567112940.0,,,,,,,,,,,,,,,,,,,
730,106,1567113840.0,,,,,,,,,,,,,,,,,,,
731,109,1567114740.0,0.0,,,,,,,,,,,,,,,,,,
732,108,1567115640.0,,,,,,,,,,,,,,,,,,,
733,106,1567116540.0,,,,,,,,,,,,,,,,,,,
734,103,1567117440.0,,,,,,,,,,,,,,,,,,,
735,103,1567118340.0,0.0,,,,,,,,,,,,,,,,,,
736,110,1567119240.0,,,,,,,,,,,,,,,,,,,
737,117,1567120140.0,,,,,,,,,,,,,,,,,,,
738,118,1567121040.0,,,,,,,,,,,,,,,,,,,
739,114,1567121940.0,0.0,,,,,,,,,,,,,,,,,,
740,114,1567122840.0,,,,,,,,,,,,,,,,,,,
741,117,1567123740.0,,,,,,,,,,,,,,,,,,,
742,118,1567124640.0,,,,,,,,,,,,,,,,,,,
743,120,1567125540.0,14.0,,,,,,,,,,,,,,,,,,
744,130,1567126440.0,,,,,,,,,,,,,,,,,,,
745,136,1567127340.0,,,,,,,,,,,,,,,,,,,
746,140,1567128240.0,,,,,,,,,,,,,,,,,,,
747,147,1567129140.0,21.0,,,,,,,,,,,,,,,,,,
748,137,1567130040.0,,,,,,,,,,,,,,,,,,,
749,121,1567130940.0,,,,,,,,,,,,,,,,,,,
750,123,1567131840.0,,1420,30-08-2019,Breakfast,45.3,9.5,2.0,12.4,310.0,2.0,4.0,74.67,07:54:00,121.0,197.0,09:09:00,240.0,07:54:00,2019-08-30
751,141,1567132740.0,70.0,,,,,,,,,,,,,,,,,,
752,145,1567133640.0,,,,,,,,,,,,,,,,,,,
753,153,1567134540.0,,,,,,,,,,,,,,,,,,,
754,181,1567135440.0,,,,,,,,,,,,,,,,,,,
755,197,1567136340.0,18.0,,,,,,,,,,,,,,,,,,
756,195,1567137240.0,,,,,,,,,,,,,,,,,,,
757,183,1567138140.0,,,,,,,,,,,,,,,,,,,
758,166,1567139040.0,,,,,,,,,,,,,,,,,,,
759,142,1567139940.0,1.0,,,,,,,,,,,,,,,,,,
760,121,1567140840.0,,,,,,,,,,,,,,,,,,,
761,112,1567141740.0,,,,,,,,,,,,,,,,,,,
762,104,1567142640.0,,,,,,,,,,,,,,,,,,,
763,93,1567143540.0,1.0,,,,,,,,,,,,,,,,,,
764,87,1567144440.0,,,,,,,,,,,,,,,,,,,
765,82,1567145340.0,,,,,,,,,,,,,,,,,,,
766,80,1567146240.0,,1420,30-08-2019,Lunch,137.56,11.48,9.6,24.4,769.0,2.0,3.0,59.24,11:54:00,80.0,115.0,13:09:00,105.0,11:54:00,2019-08-30
767,85,1567147140.0,28.0,,,,,,,,,,,,,,,,,,
768,91,1567148040.0,,,,,,,,,,,,,,,,,,,
769,96,1567148940.0,,,,,,,,,,,,,,,,,,,
770,107,1567149840.0,,,,,,,,,,,,,,,,,,,
771,115,1567150740.0,1.0,,,,,,,,,,,,,,,,,,
772,111,1567151640.0,,,,,,,,,,,,,,,,,,,
773,106,1567152540.0,,1420,30-08-2019,Lunch,137.56,11.48,9.6,24.4,769.0,3.0,4.0,79.35,13:39:00,106.0,239.0,15:09:00,240.0,13:39:00,2019-08-30
774,107,1567153440.0,,,,,,,,,,,,,,,,,,,
775,112,1567154340.0,68.0,,,,,,,,,,,,,,,,,,
776,142,1567155240.0,,,,,,,,,,,,,,,,,,,
777,197,1567156140.0,,,,,,,,,,,,,,,,,,,
778,232,1567157040.0,,,,,,,,,,,,,,,,,,,
779,239,1567157940.0,1.0,,,,,,,,,,,,,,,,,,
780,231,1567158840.0,,,,,,,,,,,,,,,,,,,
781,213,1567159740.0,,,,,,,,,,,,,,,,,,,
782,198,1567160640.0,,,,,,,,,,,,,,,,,,,
783,187,1567161540.0,13.0,,,,,,,,,,,,,,,,,,
784,163,1567162440.0,,,,,,,,,,,,,,,,,,,
785,146,1567163340.0,,,,,,,,,,,,,,,,,,,
786,140,1567164240.0,,,,,,,,,,,,,,,,,,,
787,129,1567165140.0,2.0,,,,,,,,,,,,,,,,,,
788,117,1567166040.0,,,,,,,,,,,,,,,,,,,
789,111,1567166940.0,,,,,,,,,,,,,,,,,,,
790,112,1567167840.0,,,,,,,,,,,,,,,,,,,
791,111,1567168740.0,4.0,,,,,,,,,,,,,,,,,,
792,97,1567169640.0,,,,,,,,,,,,,,,,,,,
793,81,1567170540.0,,,,,,,,,,,,,,,,,,,
794,75,1567171440.0,,1420,30-08-2019,Dinner,30.6,6.0,6.75,8.2,213.0,4.0,4.0,73.86,18:54:00,75.0,219.0,21:24:00,285.0,18:54:00,2019-08-30
795,78,1567172340.0,21.0,,,,,,,,,,,,,,,,,,
796,85,1567173240.0,,,,,,,,,,,,,,,,,,,
797,91,1567174140.0,,,,,,,,,,,,,,,,,,,
798,95,1567175040.0,,,,,,,,,,,,,,,,,,,
799,99,1567175940.0,7.0,,,,,,,,,,,,,,,,,,
800,102,1567176840.0,,,,,,,,,,,,,,,,,,,
801,110,1567177740.0,,,,,,,,,,,,,,,,,,,
802,147,1567178640.0,,,,,,,,,,,,,,,,,,,
803,201,1567179540.0,14.0,,,,,,,,,,,,,,,,,,
804,219,1567180440.0,,,,,,,,,,,,,,,,,,,
805,206,1567181340.0,,,,,,,,,,,,,,,,,,,
806,195,1567182240.0,,,,,,,,,,,,,,,,,,,
807,183,1567183140.0,20.0,,,,,,,,,,,,,,,,,,
808,162,1567184040.0,,,,,,,,,,,,,,,,,,,
809,136,1567184940.0,,,,,,,,,,,,,,,,,,,
810,111,1567185840.0,,,,,,,,,,,,,,,,,,,
811,97,1567186740.0,0.0,,,,,,,,,,,,,,,,,,
812,93,1567187640.0,,,,,,,,,,,,,,,,,,,
813,88,1567188540.0,,,,,,,,,,,,,,,,,,,
814,85,1567189440.0,,,,,,,,,,,,,,,,,,,
815,82,1567190340.0,0.0,,,,,,,,,,,,,,,,,,
816,78,1567191240.0,,,,,,,,,,,,,,,,,,,
817,79,1567192140.0,,,,,,,,,,,,,,,,,,,
818,81,1567193040.0,,,,,,,,,,,,,,,,,,,
819,82,1567193940.0,0.0,,,,,,,,,,,,,,,,,,
820,84,1567194840.0,,,,,,,,,,,,,,,,,,,
821,85,1567195740.0,,,,,,,,,,,,,,,,,,,
822,85,1567196640.0,,,,,,,,,,,,,,,,,,,
823,82,1567197540.0,0.0,,,,,,,,,,,,,,,,,,
824,80,1567198440.0,,,,,,,,,,,,,,,,,,,
825,84,1567199340.0,,,,,,,,,,,,,,,,,,,
826,92,1567200240.0,,,,,,,,,,,,,,,,,,,
827,102,1567201140.0,0.0,,,,,,,,,,,,,,,,,,
828,102,1567202040.0,,,,,,,,,,,,,,,,,,,
829,97,1567202940.0,,,,,,,,,,,,,,,,,,,
830,102,1567203840.0,,,,,,,,,,,,,,,,,,,
831,110,1567204740.0,0.0,,,,,,,,,,,,,,,,,,
832,114,1567205640.0,,,,,,,,,,,,,,,,,,,
833,113,1567206540.0,,,,,,,,,,,,,,,,,,,
834,107,1567207440.0,,,,,,,,,,,,,,,,,,,
835,103,1567208340.0,0.0,,,,,,,,,,,,,,,,,,
836,105,1567209240.0,,,,,,,,,,,,,,,,,,,
837,106,1567210140.0,,,,,,,,,,,,,,,,,,,
838,107,1567211040.0,,,,,,,,,,,,,,,,,,,
839,113,1567211940.0,16.0,,,,,,,,,,,,,,,,,,
840,118,1567212840.0,,,,,,,,,,,,,,,,,,,
841,128,1567213740.0,,,,,,,,,,,,,,,,,,,
842,144,1567214640.0,,,,,,,,,,,,,,,,,,,
843,156,1567215540.0,55.0,,,,,,,,,,,,,,,,,,
844,146,1567216440.0,,,,,,,,,,,,,,,,,,,
845,133,1567217340.0,,,,,,,,,,,,,,,,,,,
846,124,1567218240.0,,,,,,,,,,,,,,,,,,,
847,116,1567219140.0,58.0,,,,,,,,,,,,,,,,,,
848,111,1567220040.0,,,,,,,,,,,,,,,,,,,
849,128,1567220940.0,,,,,,,,,,,,,,,,,,,
850,170,1567221840.0,,,,,,,,,,,,,,,,,,,
851,192,1567222740.0,21.0,,,,,,,,,,,,,,,,,,
852,187,1567223640.0,,,,,,,,,,,,,,,,,,,
853,183,1567224540.0,,,,,,,,,,,,,,,,,,,
854,179,1567225440.0,,,,,,,,,,,,,,,,,,,
855,159,1567226340.0,278.0,,,,,,,,,,,,,,,,,,
856,134,1567227240.0,,,,,,,,,,,,,,,,,,,
857,117,1567228140.0,,,,,,,,,,,,,,,,,,,
858,112,1567229040.0,,,,,,,,,,,,,,,,,,,
859,109,1567229940.0,865.0,,,,,,,,,,,,,,,,,,
860,102,1567230840.0,,,,,,,,,,,,,,,,,,,
861,96,1567231740.0,,,,,,,,,,,,,,,,,,,
862,93,1567232640.0,,,,,,,,,,,,,,,,,,,
863,92,1567233540.0,2.0,1420,31-08-2019,Lunch,34.4,11.6,2.0,7.2,282.0,3.0,4.0,72.59,12:09:00,92.0,185.0,13:54:00,150.0,12:09:00,2019-08-31
864,98,1567234440.0,,,,,,,,,,,,,,,,,,,
865,117,1567235340.0,,,,,,,,,,,,,,,,,,,
866,142,1567236240.0,,,,,,,,,,,,,,,,,,,
867,161,1567237140.0,1055.0,,,,,,,,,,,,,,,,,,
868,170,1567238040.0,,,,,,,,,,,,,,,,,,,
869,179,1567238940.0,,,,,,,,,,,,,,,,,,,
870,185,1567239840.0,,,,,,,,,,,,,,,,,,,
871,176,1567240740.0,166.0,,,,,,,,,,,,,,,,,,
872,162,1567241640.0,,,,,,,,,,,,,,,,,,,
873,158,1567242540.0,,,,,,,,,,,,,,,,,,,
874,182,1567243440.0,,,,,,,,,,,,,,,,,,,
875,221,1567244340.0,24.0,,,,,,,,,,,,,,,,,,
876,228,1567245240.0,,,,,,,,,,,,,,,,,,,
877,206,1567246140.0,,,,,,,,,,,,,,,,,,,
878,178,1567247040.0,,,,,,,,,,,,,,,,,,,
879,160,1567247940.0,1.0,,,,,,,,,,,,,,,,,,
880,155,1567248840.0,,,,,,,,,,,,,,,,,,,
881,153,1567249740.0,,,,,,,,,,,,,,,,,,,
882,141,1567250640.0,,,,,,,,,,,,,,,,,,,
883,127,1567251540.0,111.0,,,,,,,,,,,,,,,,,,
884,119,1567252440.0,,,,,,,,,,,,,,,,,,,
885,110,1567253340.0,,,,,,,,,,,,,,,,,,,
886,102,1567254240.0,,,,,,,,,,,,,,,,,,,
887,105,1567255140.0,66.0,,,,,,,,,,,,,,,,,,
888,110,1567256040.0,,,,,,,,,,,,,,,,,,,
889,122,1567256940.0,,,,,,,,,,,,,,,,,,,
890,156,1567257840.0,,,,,,,,,,,,,,,,,,,
891,194,1567258740.0,24.0,,,,,,,,,,,,,,,,,,
892,210,1567259640.0,,,,,,,,,,,,,,,,,,,
893,215,1567260540.0,,,,,,,,,,,,,,,,,,,
894,202,1567261440.0,,,,,,,,,,,,,,,,,,,
895,174,1567262340.0,135.0,,,,,,,,,,,,,,,,,,
896,164,1567263240.0,,,,,,,,,,,,,,,,,,,
897,180,1567264140.0,,,,,,,,,,,,,,,,,,,
898,192,1567265040.0,,,,,,,,,,,,,,,,,,,
899,191,1567265940.0,1.0,,,,,,,,,,,,,,,,,,
900,184,1567266840.0,,,,,,,,,,,,,,,,,,,
901,174,1567267740.0,,,,,,,,,,,,,,,,,,,
902,162,1567268640.0,,,,,,,,,,,,,,,,,,,
903,147,1567269540.0,7.0,,,,,,,,,,,,,,,,,,
904,119,1567270440.0,,,,,,,,,,,,,,,,,,,
905,100,1567271340.0,,,,,,,,,,,,,,,,,,,
906,98,1567272240.0,,,,,,,,,,,,,,,,,,,
907,99,1567273140.0,0.0,,,,,,,,,,,,,,,,,,
908,99,1567274040.0,,,,,,,,,,,,,,,,,,,
909,98,1567274940.0,,,,,,,,,,,,,,,,,,,
910,93,1567275840.0,,,,,,,,,,,,,,,,,,,
911,87,1567276740.0,0.0,,,,,,,,,,,,,,,,,,
912,87,1567277640.0,,,,,,,,,,,,,,,,,,,
913,87,1567278540.0,,,,,,,,,,,,,,,,,,,
914,86,1567279440.0,,,,,,,,,,,,,,,,,,,
915,88,1567280340.0,0.0,,,,,,,,,,,,,,,,,,
916,92,1567281240.0,,,,,,,,,,,,,,,,,,,
917,92,1567282140.0,,,,,,,,,,,,,,,,,,,
918,93,1567283040.0,,,,,,,,,,,,,,,,,,,
919,98,1567283940.0,0.0,,,,,,,,,,,,,,,,,,
920,102,1567284840.0,,,,,,,,,,,,,,,,,,,
921,104,1567285740.0,,,,,,,,,,,,,,,,,,,
922,114,1567286640.0,,,,,,,,,,,,,,,,,,,
923,124,1567287540.0,0.0,,,,,,,,,,,,,,,,,,
924,124,1567288440.0,,,,,,,,,,,,,,,,,,,
925,124,1567289340.0,,,,,,,,,,,,,,,,,,,
926,123,1567290240.0,,,,,,,,,,,,,,,,,,,
927,118,1567291140.0,0.0,,,,,,,,,,,,,,,,,,
928,118,1567292040.0,,,,,,,,,,,,,,,,,,,
929,120,1567292940.0,,,,,,,,,,,,,,,,,,,
930,114,1567293840.0,,,,,,,,,,,,,,,,,,,
931,107,1567294740.0,0.0,,,,,,,,,,,,,,,,,,
932,108,1567295640.0,,,,,,,,,,,,,,,,,,,
933,105,1567296540.0,,,,,,,,,,,,,,,,,,,
934,104,1567297440.0,,,,,,,,,,,,,,,,,,,
935,108,1567298340.0,0.0,,,,,,,,,,,,,,,,,,
936,111,1567299240.0,,,,,,,,,,,,,,,,,,,
937,115,1567300140.0,,,,,,,,,,,,,,,,,,,
938,115,1567301040.0,,,,,,,,,,,,,,,,,,,
939,108,1567301940.0,12.0,,,,,,,,,,,,,,,,,,
940,105,1567302840.0,,,,,,,,,,,,,,,,,,,
941,113,1567303740.0,,,,,,,,,,,,,,,,,,,
942,121,1567304640.0,,,,,,,,,,,,,,,,,,,
943,125,1567305540.0,2.0,,,,,,,,,,,,,,,,,,
944,127,1567306440.0,,,,,,,,,,,,,,,,,,,
945,122,1567307340.0,,,,,,,,,,,,,,,,,,,
946,116,1567308240.0,,,,,,,,,,,,,,,,,,,
947,132,1567309140.0,14.0,,,,,,,,,,,,,,,,,,
948,165,1567310040.0,,,,,,,,,,,,,,,,,,,
949,180,1567310940.0,,,,,,,,,,,,,,,,,,,
950,176,1567311840.0,,,,,,,,,,,,,,,,,,,
951,165,1567312740.0,5.0,,,,,,,,,,,,,,,,,,
952,147,1567313640.0,,,,,,,,,,,,,,,,,,,
953,124,1567314540.0,,,,,,,,,,,,,,,,,,,
954,112,1567315440.0,,,,,,,,,,,,,,,,,,,
955,110,1567316340.0,670.0,,,,,,,,,,,,,,,,,,
956,110,1567317240.0,,1420,01-09-2019,Breakfast,45.3,13.3,2.5,12.3,342.0,4.0,3.0,61.56,11:24:00,110.0,210.0,14:39:00,345.0,11:24:00,2019-09-01
957,109,1567318140.0,,,,,,,,,,,,,,,,,,,
958,103,1567319040.0,,,,,,,,,,,,,,,,,,,
959,99,1567319940.0,918.0,,,,,,,,,,,,,,,,,,
960,94,1567320840.0,,,,,,,,,,,,,,,,,,,
961,90,1567321740.0,,,,,,,,,,,,,,,,,,,
962,87,1567322640.0,,,,,,,,,,,,,,,,,,,
963,83,1567323540.0,14.0,,,,,,,,,,,,,,,,,,
964,93,1567324440.0,,,,,,,,,,,,,,,,,,,
965,131,1567325340.0,,,,,,,,,,,,,,,,,,,
966,174,1567326240.0,,,,,,,,,,,,,,,,,,,
967,196,1567327140.0,0.0,,,,,,,,,,,,,,,,,,
968,206,1567328040.0,,,,,,,,,,,,,,,,,,,
969,210,1567328940.0,,,,,,,,,,,,,,,,,,,
970,206,1567329840.0,,,,,,,,,,,,,,,,,,,
971,203,1567330740.0,174.0,,,,,,,,,,,,,,,,,,
972,199,1567331640.0,,,,,,,,,,,,,,,,,,,
973,185,1567332540.0,,,,,,,,,,,,,,,,,,,
974,176,1567333440.0,,,,,,,,,,,,,,,,,,,
975,172,1567334340.0,166.0,,,,,,,,,,,,,,,,,,
976,158,1567335240.0,,,,,,,,,,,,,,,,,,,
977,130,1567336140.0,,,,,,,,,,,,,,,,,,,
978,102,1567337040.0,,,,,,,,,,,,,,,,,,,
979,97,1567337940.0,40.0,,,,,,,,,,,,,,,,,,
980,100,1567338840.0,,,,,,,,,,,,,,,,,,,
981,97,1567339740.0,,,,,,,,,,,,,,,,,,,
982,92,1567340640.0,,,,,,,,,,,,,,,,,,,
983,89,1567341540.0,3.0,,,,,,,,,,,,,,,,,,
984,88,1567342440.0,,,,,,,,,,,,,,,,,,,
985,86,1567343340.0,,,,,,,,,,,,,,,,,,,
986,79,1567344240.0,,,,,,,,,,,,,,,,,,,
987,74,1567345140.0,46.0,,,,,,,,,,,,,,,,,,
988,74,1567346040.0,,1420,01-09-2019,Dinner,93.1,12.6,15.3,25.3,504.0,2.0,4.0,81.42,19:24:00,74.0,212.0,20:39:00,120.0,19:24:00,2019-09-01
989,80,1567346940.0,,,,,,,,,,,,,,,,,,,
990,102,1567347840.0,,,,,,,,,,,,,,,,,,,
991,147,1567348740.0,32.0,,,,,,,,,,,,,,,,,,
992,192,1567349640.0,,,,,,,,,,,,,,,,,,,
993,212,1567350540.0,,,,,,,,,,,,,,,,,,,
994,206,1567351440.0,,,,,,,,,,,,,,,,,,,
995,195,1567352340.0,7.0,,,,,,,,,,,,,,,,,,
996,196,1567353240.0,,,,,,,,,,,,,,,,,,,
997,197,1567354140.0,,,,,,,,,,,,,,,,,,,
998,185,1567355040.0,,,,,,,,,,,,,,,,,,,
999,170,1567355940.0,7.0,,,,,,,,,,,,,,,,,,
1000,167,1567356840.0,,,,,,,,,,,,,,,,,,,
1001,155,1567357740.0,,,,,,,,,,,,,,,,,,,
1002,132,1567358640.0,,,,,,,,,,,,,,,,,,,
1003,116,1567359540.0,7.0,,,,,,,,,,,,,,,,,,
1004,114,1567360440.0,,,,,,,,,,,,,,,,,,,
1005,114,1567361340.0,,,,,,,,,,,,,,,,,,,
1006,108,1567362240.0,,,,,,,,,,,,,,,,,,,
1007,109,1567363140.0,0.0,,,,,,,,,,,,,,,,,,
1008,106,1567364040.0,,,,,,,,,,,,,,,,,,,
1009,101,1567364940.0,,,,,,,,,,,,,,,,,,,
1010,101,1567365840.0,,,,,,,,,,,,,,,,,,,
1011,102,1567366740.0,2.0,,,,,,,,,,,,,,,,,,
1012,100,1567367640.0,,,,,,,,,,,,,,,,,,,
1013,102,1567368540.0,,,,,,,,,,,,,,,,,,,
1014,106,1567369440.0,,,,,,,,,,,,,,,,,,,
1015,105,1567370340.0,0.0,,,,,,,,,,,,,,,,,,
1016,109,1567371240.0,,,,,,,,,,,,,,,,,,,
1017,117,1567372140.0,,,,,,,,,,,,,,,,,,,
1018,115,1567373040.0,,,,,,,,,,,,,,,,,,,
1019,116,1567373940.0,0.0,,,,,,,,,,,,,,,,,,
1020,122,1567374840.0,,,,,,,,,,,,,,,,,,,
1021,126,1567375740.0,,,,,,,,,,,,,,,,,,,
1022,131,1567376640.0,,,,,,,,,,,,,,,,,,,
1023,123,1567377540.0,0.0,,,,,,,,,,,,,,,,,,
1024,108,1567378440.0,,,,,,,,,,,,,,,,,,,
1025,115,1567379340.0,,,,,,,,,,,,,,,,,,,
1026,131,1567380240.0,,,,,,,,,,,,,,,,,,,
1027,129,1567381140.0,1.0,,,,,,,,,,,,,,,,,,
1028,128,1567382040.0,,,,,,,,,,,,,,,,,,,
1029,129,1567382940.0,,,,,,,,,,,,,,,,,,,
1030,125,1567383840.0,,,,,,,,,,,,,,,,,,,
1031,126,1567384740.0,25.0,,,,,,,,,,,,,,,,,,
1032,127,1567385640.0,,,,,,,,,,,,,,,,,,,
1033,131,1567386540.0,,,,,,,,,,,,,,,,,,,
1034,132,1567387440.0,,,,,,,,,,,,,,,,,,,
1035,122,1567388340.0,19.0,,,,,,,,,,,,,,,,,,
1036,113,1567389240.0,,,,,,,,,,,,,,,,,,,
1037,110,1567390140.0,,,,,,,,,,,,,,,,,,,
1038,107,1567391040.0,,,,,,,,,,,,,,,,,,,
1039,107,1567391940.0,8.0,1420,02-09-2019,Breakfast,23.9,4.5,1.7,6.5,155.0,2.0,4.0,78.65,08:09:00,107.0,190.0,09:09:00,135.0,08:09:00,2019-09-02
1040,126,1567392840.0,,,,,,,,,,,,,,,,,,,
1041,165,1567393740.0,,,,,,,,,,,,,,,,,,,
1042,189,1567394640.0,,,,,,,,,,,,,,,,,,,
1043,190,1567395540.0,84.0,,,,,,,,,,,,,,,,,,
1044,180,1567396440.0,,,,,,,,,,,,,,,,,,,
1045,153,1567397340.0,,,,,,,,,,,,,,,,,,,
1046,123,1567398240.0,,,,,,,,,,,,,,,,,,,
1047,106,1567399140.0,11.0,,,,,,,,,,,,,,,,,,
1048,107,1567400040.0,,,,,,,,,,,,,,,,,,,
1049,106,1567400940.0,,,,,,,,,,,,,,,,,,,
1050,96,1567401840.0,,,,,,,,,,,,,,,,,,,
1051,85,1567402740.0,12.0,,,,,,,,,,,,,,,,,,
1052,78,1567403640.0,,,,,,,,,,,,,,,,,,,
1053,77,1567404540.0,,,,,,,,,,,,,,,,,,,
1054,78,1567405440.0,,,,,,,,,,,,,,,,,,,
1055,75,1567406340.0,63.0,1420,02-09-2019,Lunch,81.3,12.8,6.1,18.1,519.0,2.0,4.0,80.25,12:09:00,75.0,172.0,13:09:00,180.0,12:09:00,2019-09-02
1056,78,1567407240.0,,,,,,,,,,,,,,,,,,,
1057,108,1567408140.0,,,,,,,,,,,,,,,,,,,
1058,153,1567409040.0,,,,,,,,,,,,,,,,,,,
1059,172,1567409940.0,4.0,,,,,,,,,,,,,,,,,,
1060,168,1567410840.0,,,,,,,,,,,,,,,,,,,
1061,160,1567411740.0,,,,,,,,,,,,,,,,,,,
1062,146,1567412640.0,,,,,,,,,,,,,,,,,,,
1063,137,1567413540.0,0.0,,,,,,,,,,,,,,,,,,
1064,133,1567414440.0,,,,,,,,,,,,,,,,,,,
1065,125,1567415340.0,,,,,,,,,,,,,,,,,,,
1066,114,1567416240.0,,,,,,,,,,,,,,,,,,,
1067,112,1567417140.0,4.0,1420,02-09-2019,Lunch,81.3,12.8,6.1,18.1,519.0,2.0,4.0,70.08,15:09:00,112.0,158.0,16:09:00,135.0,15:09:00,2019-09-02
1068,125,1567418040.0,,,,,,,,,,,,,,,,,,,
1069,140,1567418940.0,,,,,,,,,,,,,,,,,,,
1070,151,1567419840.0,,,,,,,,,,,,,,,,,,,
1071,158,1567420740.0,30.0,,,,,,,,,,,,,,,,,,
1072,154,1567421640.0,,,,,,,,,,,,,,,,,,,
1073,140,1567422540.0,,,,,,,,,,,,,,,,,,,
1074,122,1567423440.0,,,,,,,,,,,,,,,,,,,
1075,103,1567424340.0,72.0,,,,,,,,,,,,,,,,,,
1076,91,1567425240.0,,,,,,,,,,,,,,,,,,,
1077,96,1567426140.0,,,,,,,,,,,,,,,,,,,
1078,116,1567427040.0,,,,,,,,,,,,,,,,,,,
1079,139,1567427940.0,2.0,,,,,,,,,,,,,,,,,,
1080,154,1567428840.0,,,,,,,,,,,,,,,,,,,
1081,153,1567429740.0,,,,,,,,,,,,,,,,,,,
1082,138,1567430640.0,,,,,,,,,,,,,,,,,,,
1083,120,1567431540.0,27.0,,,,,,,,,,,,,,,,,,
1084,113,1567432440.0,,,,,,,,,,,,,,,,,,,
1085,111,1567433340.0,,,,,,,,,,,,,,,,,,,
1086,110,1567434240.0,,1420,02-09-2019,Dinner,56.5,12.3,4.8,12.8,389.0,2.0,4.0,78.23,19:54:00,110.0,190.0,20:54:00,225.0,19:54:00,2019-09-02
1087,125,1567435140.0,1.0,,,,,,,,,,,,,,,,,,
1088,161,1567436040.0,,,,,,,,,,,,,,,,,,,
1089,188,1567436940.0,,,,,,,,,,,,,,,,,,,
1090,190,1567437840.0,,,,,,,,,,,,,,,,,,,
1091,175,1567438740.0,3.0,,,,,,,,,,,,,,,,,,
1092,159,1567439640.0,,,,,,,,,,,,,,,,,,,
1093,146,1567440540.0,,,,,,,,,,,,,,,,,,,
1094,140,1567441440.0,,,,,,,,,,,,,,,,,,,
1095,131,1567442340.0,0.0,,,,,,,,,,,,,,,,,,
1096,122,1567443240.0,,,,,,,,,,,,,,,,,,,
1097,118,1567444140.0,,,,,,,,,,,,,,,,,,,
1098,110,1567445040.0,,,,,,,,,,,,,,,,,,,
1099,103,1567445940.0,0.0,,,,,,,,,,,,,,,,,,
1100,99,1567446840.0,,,,,,,,,,,,,,,,,,,
1101,98,1567447740.0,,,,,,,,,,,,,,,,,,,
1102,98,1567448640.0,,,,,,,,,,,,,,,,,,,
1103,99,1567449540.0,0.0,,,,,,,,,,,,,,,,,,
1104,103,1567450440.0,,,,,,,,,,,,,,,,,,,
1105,103,1567451340.0,,,,,,,,,,,,,,,,,,,
1106,100,1567452240.0,,,,,,,,,,,,,,,,,,,
1107,106,1567453140.0,0.0,,,,,,,,,,,,,,,,,,
1108,108,1567454040.0,,,,,,,,,,,,,,,,,,,
1109,101,1567454940.0,,,,,,,,,,,,,,,,,,,
1110,91,1567455840.0,,,,,,,,,,,,,,,,,,,
1111,87,1567456740.0,0.0,,,,,,,,,,,,,,,,,,
1112,89,1567457640.0,,,,,,,,,,,,,,,,,,,
1113,97,1567458540.0,,,,,,,,,,,,,,,,,,,
1114,104,1567459440.0,,,,,,,,,,,,,,,,,,,
1115,112,1567460340.0,0.0,,,,,,,,,,,,,,,,,,
1116,117,1567461240.0,,,,,,,,,,,,,,,,,,,
1117,114,1567462140.0,,,,,,,,,,,,,,,,,,,
1118,116,1567463040.0,,,,,,,,,,,,,,,,,,,
1119,120,1567463940.0,0.0,,,,,,,,,,,,,,,,,,
1120,118,1567464840.0,,,,,,,,,,,,,,,,,,,
1121,117,1567465740.0,,,,,,,,,,,,,,,,,,,
1122,119,1567466640.0,,,,,,,,,,,,,,,,,,,
1123,121,1567467540.0,0.0,,,,,,,,,,,,,,,,,,
1124,123,1567468440.0,,,,,,,,,,,,,,,,,,,
1125,124,1567469340.0,,,,,,,,,,,,,,,,,,,
1126,123,1567470240.0,,,,,,,,,,,,,,,,,,,
1127,123,1567471140.0,17.0,,,,,,,,,,,,,,,,,,
1128,121,1567472040.0,,,,,,,,,,,,,,,,,,,
1129,117,1567472940.0,,,,,,,,,,,,,,,,,,,
1130,117,1567473840.0,,,,,,,,,,,,,,,,,,,
1131,127,1567474740.0,23.0,,,,,,,,,,,,,,,,,,
1132,136,1567475640.0,,,,,,,,,,,,,,,,,,,
1133,136,1567476540.0,,,,,,,,,,,,,,,,,,,
1134,134,1567477440.0,,1420,03-09-2019,Breakfast,29.3,7.5,2.0,8.3,212.0,2.0,4.0,71.21,07:54:00,134.0,183.0,08:54:00,135.0,07:54:00,2019-09-03
1135,145,1567478340.0,17.0,,,,,,,,,,,,,,,,,,
1136,163,1567479240.0,,,,,,,,,,,,,,,,,,,
1137,177,1567480140.0,,,,,,,,,,,,,,,,,,,
1138,183,1567481040.0,,,,,,,,,,,,,,,,,,,
1139,171,1567481940.0,75.0,,,,,,,,,,,,,,,,,,
1140,153,1567482840.0,,,,,,,,,,,,,,,,,,,
1141,128,1567483740.0,,,,,,,,,,,,,,,,,,,
1142,107,1567484640.0,,,,,,,,,,,,,,,,,,,
1143,101,1567485540.0,109.0,,,,,,,,,,,,,,,,,,
1144,102,1567486440.0,,,,,,,,,,,,,,,,,,,
1145,97,1567487340.0,,,,,,,,,,,,,,,,,,,
1146,89,1567488240.0,,,,,,,,,,,,,,,,,,,
1147,85,1567489140.0,424.0,,,,,,,,,,,,,,,,,,
1148,86,1567490040.0,,,,,,,,,,,,,,,,,,,
1149,86,1567490940.0,,,,,,,,,,,,,,,,,,,
1150,85,1567491840.0,,,,,,,,,,,,,,,,,,,
1151,81,1567492740.0,18.0,,,,,,,,,,,,,,,,,,
1152,80,1567493640.0,,1420,03-09-2019,Lunch,74.8,17.2,9.35,19.25,524.0,3.0,4.0,76.48,12:24:00,80.0,184.0,13:54:00,210.0,12:24:00,2019-09-03
1153,80,1567494540.0,,,,,,,,,,,,,,,,,,,
1154,83,1567495440.0,,,,,,,,,,,,,,,,,,,
1155,95,1567496340.0,28.0,,,,,,,,,,,,,,,,,,
1156,131,1567497240.0,,,,,,,,,,,,,,,,,,,
1157,172,1567498140.0,,,,,,,,,,,,,,,,,,,
1158,184,1567499040.0,,,,,,,,,,,,,,,,,,,
1159,173,1567499940.0,1.0,,,,,,,,,,,,,,,,,,
1160,164,1567500840.0,,,,,,,,,,,,,,,,,,,
1161,160,1567501740.0,,,,,,,,,,,,,,,,,,,
1162,157,1567502640.0,,,,,,,,,,,,,,,,,,,
1163,153,1567503540.0,21.0,,,,,,,,,,,,,,,,,,
1164,146,1567504440.0,,,,,,,,,,,,,,,,,,,
1165,130,1567505340.0,,,,,,,,,,,,,,,,,,,
1166,118,1567506240.0,,,,,,,,,,,,,,,,,,,
1167,119,1567507140.0,73.0,1420,03-09-2019,Lunch,74.8,17.2,9.35,19.25,524.0,2.0,2.0,47.83,16:09:00,118.0,141.0,17:24:00,180.0,16:09:00,2019-09-03
1168,124,1567508040.0,,,,,,,,,,,,,,,,,,,
1169,124,1567508940.0,,,,,,,,,,,,,,,,,,,
1170,127,1567509840.0,,,,,,,,,,,,,,,,,,,
1171,135,1567510740.0,6.0,,,,,,,,,,,,,,,,,,
1172,141,1567511640.0,,,,,,,,,,,,,,,,,,,
1173,134,1567512540.0,,,,,,,,,,,,,,,,,,,
1174,117,1567513440.0,,,,,,,,,,,,,,,,,,,
1175,106,1567514340.0,2.0,,,,,,,,,,,,,,,,,,
1176,102,1567515240.0,,,,,,,,,,,,,,,,,,,
1177,100,1567516140.0,,,,,,,,,,,,,,,,,,,
1178,97,1567517040.0,,,,,,,,,,,,,,,,,,,
1179,97,1567517940.0,216.0,,,,,,,,,,,,,,,,,,
1180,98,1567518840.0,,,,,,,,,,,,,,,,,,,
1181,98,1567519740.0,,,,,,,,,,,,,,,,,,,
1182,99,1567520640.0,,,,,,,,,,,,,,,,,,,
1183,100,1567521540.0,108.0,,,,,,,,,,,,,,,,,,
1184,100,1567522440.0,,,,,,,,,,,,,,,,,,,
1185,100,1567523340.0,,1420,03-09-2019,Dinner,74.1,16.8,12.6,17.7,517.0,3.0,4.0,76.0,20:39:00,100.0,217.0,22:24:00,180.0,20:39:00,2019-09-03
1186,111,1567524240.0,,,,,,,,,,,,,,,,,,,
1187,129,1567525140.0,1.0,,,,,,,,,,,,,,,,,,
1188,143,1567526040.0,,,,,,,,,,,,,,,,,,,
1189,149,1567526940.0,,,,,,,,,,,,,,,,,,,
1190,159,1567527840.0,,,,,,,,,,,,,,,,,,,
1191,188,1567528740.0,5.0,,,,,,,,,,,,,,,,,,
1192,217,1567529640.0,,,,,,,,,,,,,,,,,,,
1193,214,1567530540.0,,,,,,,,,,,,,,,,,,,
1194,195,1567531440.0,,,,,,,,,,,,,,,,,,,
1195,179,1567532340.0,4.0,,,,,,,,,,,,,,,,,,
1196,170,1567533240.0,,,,,,,,,,,,,,,,,,,
1197,160,1567534140.0,,,,,,,,,,,,,,,,,,,
1198,146,1567535040.0,,,,,,,,,,,,,,,,,,,
1199,134,1567535940.0,0.0,,,,,,,,,,,,,,,,,,
1200,125,1567536840.0,,,,,,,,,,,,,,,,,,,
1201,117,1567537740.0,,,,,,,,,,,,,,,,,,,
1202,110,1567538640.0,,,,,,,,,,,,,,,,,,,
1203,101,1567539540.0,0.0,,,,,,,,,,,,,,,,,,
1204,96,1567540440.0,,,,,,,,,,,,,,,,,,,
1205,95,1567541340.0,,,,,,,,,,,,,,,,,,,
1206,95,1567542240.0,,,,,,,,,,,,,,,,,,,
1207,95,1567543140.0,0.0,,,,,,,,,,,,,,,,,,
1208,93,1567544040.0,,,,,,,,,,,,,,,,,,,
1209,95,1567544940.0,,,,,,,,,,,,,,,,,,,
1210,101,1567545840.0,,,,,,,,,,,,,,,,,,,
1211,105,1567546740.0,0.0,,,,,,,,,,,,,,,,,,
1212,107,1567547640.0,,,,,,,,,,,,,,,,,,,
1213,110,1567548540.0,,,,,,,,,,,,,,,,,,,
1214,115,1567549440.0,,,,,,,,,,,,,,,,,,,
1215,120,1567550340.0,0.0,,,,,,,,,,,,,,,,,,
1216,123,1567551240.0,,,,,,,,,,,,,,,,,,,
1217,125,1567552140.0,,,,,,,,,,,,,,,,,,,
1218,122,1567553040.0,,,,,,,,,,,,,,,,,,,
1219,119,1567553940.0,0.0,,,,,,,,,,,,,,,,,,
1220,124,1567554840.0,,,,,,,,,,,,,,,,,,,
1221,125,1567555740.0,,,,,,,,,,,,,,,,,,,
1222,126,1567556640.0,,,,,,,,,,,,,,,,,,,
1223,127,1567557540.0,56.0,,,,,,,,,,,,,,,,,,
1224,125,1567558440.0,,,,,,,,,,,,,,,,,,,
1225,127,1567559340.0,,,,,,,,,,,,,,,,,,,
1226,128,1567560240.0,,,,,,,,,,,,,,,,,,,
1227,127,1567561140.0,0.0,,,,,,,,,,,,,,,,,,
1228,124,1567562040.0,,,,,,,,,,,,,,,,,,,
1229,126,1567562940.0,,,,,,,,,,,,,,,,,,,
1230,128,1567563840.0,,,,,,,,,,,,,,,,,,,
1231,125,1567564740.0,20.0,,,,,,,,,,,,,,,,,,
1232,135,1567565640.0,,,,,,,,,,,,,,,,,,,
1233,163,1567566540.0,,,,,,,,,,,,,,,,,,,
1234,179,1567567440.0,,,,,,,,,,,,,,,,,,,
1235,176,1567568340.0,44.0,,,,,,,,,,,,,,,,,,
1236,170,1567569240.0,,,,,,,,,,,,,,,,,,,
1237,159,1567570140.0,,,,,,,,,,,,,,,,,,,
1238,143,1567571040.0,,,,,,,,,,,,,,,,,,,
1239,131,1567571940.0,30.0,,,,,,,,,,,,,,,,,,
1240,128,1567572840.0,,,,,,,,,,,,,,,,,,,
1241,123,1567573740.0,,,,,,,,,,,,,,,,,,,
1242,110,1567574640.0,,,,,,,,,,,,,,,,,,,
1243,100,1567575540.0,109.0,,,,,,,,,,,,,,,,,,
1244,96,1567576440.0,,,,,,,,,,,,,,,,,,,
1245,93,1567577340.0,,,,,,,,,,,,,,,,,,,
1246,89,1567578240.0,,,,,,,,,,,,,,,,,,,
1247,87,1567579140.0,283.0,,,,,,,,,,,,,,,,,,
1248,90,1567580040.0,,,,,,,,,,,,,,,,,,,
1249,87,1567580940.0,,,,,,,,,,,,,,,,,,,
1250,82,1567581840.0,,,,,,,,,,,,,,,,,,,
1251,82,1567582740.0,319.0,,,,,,,,,,,,,,,,,,
1252,90,1567583640.0,,,,,,,,,,,,,,,,,,,
1253,97,1567584540.0,,,,,,,,,,,,,,,,,,,
1254,95,1567585440.0,,1420,04-09-2019,Lunch,162.16,17.28,22.0,37.6,974.0,3.0,4.0,79.58,13:54:00,95.0,231.0,15:24:00,225.0,13:54:00,2019-09-04
1255,99,1567586340.0,11.0,,,,,,,,,,,,,,,,,,
1256,122,1567587240.0,,,,,,,,,,,,,,,,,,,
1257,160,1567588140.0,,,,,,,,,,,,,,,,,,,
1258,201,1567589040.0,,,,,,,,,,,,,,,,,,,
1259,225,1567589940.0,10.0,,,,,,,,,,,,,,,,,,
1260,231,1567590840.0,,,,,,,,,,,,,,,,,,,
1261,230,1567591740.0,,,,,,,,,,,,,,,,,,,
1262,216,1567592640.0,,,,,,,,,,,,,,,,,,,
1263,189,1567593540.0,1.0,,,,,,,,,,,,,,,,,,
1264,164,1567594440.0,,,,,,,,,,,,,,,,,,,
1265,154,1567595340.0,,,,,,,,,,,,,,,,,,,
1266,143,1567596240.0,,,,,,,,,,,,,,,,,,,
1267,121,1567597140.0,299.0,,,,,,,,,,,,,,,,,,
1268,99,1567598040.0,,,,,,,,,,,,,,,,,,,
1269,92,1567598940.0,,,,,,,,,,,,,,,,,,,
1270,102,1567599840.0,,,,,,,,,,,,,,,,,,,
1271,115,1567600740.0,301.0,,,,,,,,,,,,,,,,,,
1272,117,1567601640.0,,,,,,,,,,,,,,,,,,,
1273,113,1567602540.0,,,,,,,,,,,,,,,,,,,
1274,113,1567603440.0,,,,,,,,,,,,,,,,,,,
1275,112,1567604340.0,63.0,,,,,,,,,,,,,,,,,,
1276,110,1567605240.0,,,,,,,,,,,,,,,,,,,
1277,110,1567606140.0,,,,,,,,,,,,,,,,,,,
1278,112,1567607040.0,,,,,,,,,,,,,,,,,,,
1279,114,1567607940.0,95.0,,,,,,,,,,,,,,,,,,
1280,112,1567608840.0,,,,,,,,,,,,,,,,,,,
1281,109,1567609740.0,,1420,04-09-2019,Dinner,88.0,24.6,10.2,18.2,655.0,3.0,3.0,65.16,20:39:00,109.0,172.0,22:24:00,120.0,20:39:00,2019-09-04
1282,112,1567610640.0,,,,,,,,,,,,,,,,,,,
1283,122,1567611540.0,62.0,,,,,,,,,,,,,,,,,,
1284,137,1567612440.0,,,,,,,,,,,,,,,,,,,
1285,147,1567613340.0,,,,,,,,,,,,,,,,,,,
1286,157,1567614240.0,,,,,,,,,,,,,,,,,,,
1287,169,1567615140.0,43.0,,,,,,,,,,,,,,,,,,
1288,172,1567616040.0,,,,,,,,,,,,,,,,,,,
1289,169,1567616940.0,,,,,,,,,,,,,,,,,,,
1290,172,1567617840.0,,,,,,,,,,,,,,,,,,,
1291,176,1567618740.0,8.0,,,,,,,,,,,,,,,,,,
1292,174,1567619640.0,,,,,,,,,,,,,,,,,,,
1293,166,1567620540.0,,,,,,,,,,,,,,,,,,,
1294,150,1567621440.0,,,,,,,,,,,,,,,,,,,
1295,133,1567622340.0,0.0,,,,,,,,,,,,,,,,,,
1296,128,1567623240.0,,,,,,,,,,,,,,,,,,,
1297,124,1567624140.0,,,,,,,,,,,,,,,,,,,
1298,123,1567625040.0,,,,,,,,,,,,,,,,,,,
1299,122,1567625940.0,0.0,,,,,,,,,,,,,,,,,,
1300,114,1567626840.0,,,,,,,,,,,,,,,,,,,
1301,108,1567627740.0,,,,,,,,,,,,,,,,,,,
1302,113,1567628640.0,,,,,,,,,,,,,,,,,,,
1303,120,1567629540.0,0.0,,,,,,,,,,,,,,,,,,
1304,115,1567630440.0,,,,,,,,,,,,,,,,,,,
1305,108,1567631340.0,,,,,,,,,,,,,,,,,,,
1306,108,1567632240.0,,,,,,,,,,,,,,,,,,,
1307,110,1567633140.0,0.0,,,,,,,,,,,,,,,,,,
1308,110,1567634040.0,,,,,,,,,,,,,,,,,,,
1309,112,1567634940.0,,,,,,,,,,,,,,,,,,,
1310,115,1567635840.0,,,,,,,,,,,,,,,,,,,
1311,117,1567636740.0,0.0,,,,,,,,,,,,,,,,,,
1312,120,1567637640.0,,,,,,,,,,,,,,,,,,,
1313,120,1567638540.0,,,,,,,,,,,,,,,,,,,
1314,116,1567639440.0,,,,,,,,,,,,,,,,,,,
1315,111,1567640340.0,0.0,,,,,,,,,,,,,,,,,,
1316,112,1567641240.0,,,,,,,,,,,,,,,,,,,
1317,119,1567642140.0,,,,,,,,,,,,,,,,,,,
1318,124,1567643040.0,,,,,,,,,,,,,,,,,,,
1319,127,1567643940.0,7.0,,,,,,,,,,,,,,,,,,
1320,131,1567644840.0,,,,,,,,,,,,,,,,,,,
1321,133,1567645740.0,,,,,,,,,,,,,,,,,,,
1322,132,1567646640.0,,,,,,,,,,,,,,,,,,,
1323,136,1567647540.0,6.0,,,,,,,,,,,,,,,,,,
1324,140,1567648440.0,,,,,,,,,,,,,,,,,,,
1325,139,1567649340.0,,,,,,,,,,,,,,,,,,,
1326,151,1567650240.0,,,,,,,,,,,,,,,,,,,
1327,171,1567651140.0,49.0,,,,,,,,,,,,,,,,,,
1328,176,1567652040.0,,,,,,,,,,,,,,,,,,,
1329,173,1567652940.0,,,,,,,,,,,,,,,,,,,
1330,166,1567653840.0,,,,,,,,,,,,,,,,,,,
1331,163,1567654740.0,6.0,,,,,,,,,,,,,,,,,,
1332,167,1567655640.0,,,,,,,,,,,,,,,,,,,
1333,153,1567656540.0,,,,,,,,,,,,,,,,,,,
1334,123,1567657440.0,,,,,,,,,,,,,,,,,,,
1335,112,1567658340.0,120.0,,,,,,,,,,,,,,,,,,
1336,118,1567659240.0,,,,,,,,,,,,,,,,,,,
1337,117,1567660140.0,,,,,,,,,,,,,,,,,,,
1338,108,1567661040.0,,,,,,,,,,,,,,,,,,,
